AvgTime	Flag
 0.51	0
 0.52	1
 0.41	0
 0.51	1
 0.46	0
 0.38	1
 0.36	0
 0.47	0
 0.30	1
 0.41	0
 0.42	0
 0.44	0
 0.39	0
 0.49	0
 0.53	1
 0.40	0
 0.51	1
 0.53	1
 0.44	0
 0.30	0
 0.42	0
 1.05	1
 0.56	0
 0.45	1
 0.39	0
 0.85	1
 0.40	1
 0.36	0
 0.41	0
 0.42	0
 0.42	0
 0.40	0
 0.39	1
 0.44	0
 0.45	1
 0.49	1
 0.52	0
 0.36	0
 0.36	1
 0.44	1
 0.37	0
 0.47	0
 0.55	0
 0.40	0
 0.46	0
 0.37	0
 0.43	0
 0.35	1
 0.40	0
 0.40	0
 0.31	0
 0.37	0
 0.46	0
 0.36	1
 0.45	0
 0.57	0
 0.37	0
 0.31	0
 0.41	1
 0.39	0
