 0.00	 0.500000	 0.500000	 0.500000	 0.500000	 0.500000	 0.500000	 0.500000	 0.500000	 0.500000	 0.500000	 0.500000	 0.500000	 0.500000	 0.500000	 0.500000	 0.500000	 0.500000	 0.500000	 0.500000	 0.500000	 0.500000	 0.500000	 0.500000	 0.500000	 0.500000	 0.500000	 0.500000	 0.500000	 0.500000	 0.500000	 0.500000	 0.500000	 0.500000	 0.500000	 0.500000	 0.500000	 0.500000	 0.500000	 0.500000	 0.500000	 0.500000	 0.500000	 0.500000	 0.500000	 0.500000	 0.500000	 0.500000	 0.500000	 0.500000	 0.500000	 0.500000	 0.500000	 0.500000	 0.500000	 0.500000	 0.500000	 0.500000	 0.500000	 0.500000	 0.500000
 1.00	 0.496829	 0.508411	 0.505408	 0.500883	 0.501499	 0.493944	 0.500564	 0.502009	 0.508191	 0.508192	 0.501337	 0.506056	 0.494320	 0.501038	 0.505649	 0.497005	 0.501418	 0.503561	 0.500760	 0.497073	 0.494764	 0.507010	 0.501552	 0.507259	 0.504515	 0.497926	 0.499658	 0.507789	 0.496639	 0.496482	 0.493770	 0.502884	 0.507311	 0.503764	 0.512356	 0.494020	 0.503953	 0.502716	 0.497100	 0.500948	 0.507881	 0.507569	 0.493916	 0.498628	 0.496800	 0.494937	 0.496318	 0.493122	 0.500743	 0.506205	 0.512154	 0.501767	 0.506894	 0.498013	 0.493646	 0.495375	 0.510470	 0.506576	 0.505443	 0.496305
 2.00	 0.496088	 0.514661	 0.506841	 0.498311	 0.501657	 0.496863	 0.495147	 0.505301	 0.514543	 0.505188	 0.498550	 0.506754	 0.489152	 0.502830	 0.511094	 0.497036	 0.509928	 0.502171	 0.505882	 0.495312	 0.503935	 0.511166	 0.497802	 0.515259	 0.508536	 0.505061	 0.499342	 0.512920	 0.494768	 0.493255	 0.494082	 0.502495	 0.516972	 0.502018	 0.513493	 0.494368	 0.512148	 0.503481	 0.503665	 0.498704	 0.518439	 0.501821	 0.494602	 0.501841	 0.497756	 0.494537	 0.501175	 0.491953	 0.505282	 0.514457	 0.514724	 0.506478	 0.510474	 0.499459	 0.495375	 0.495288	 0.510172	 0.504207	 0.505813	 0.498955
 3.00	 0.500059	 0.509032	 0.510782	 0.503640	 0.503951	 0.501423	 0.500099	 0.502503	 0.521403	 0.506135	 0.501427	 0.506804	 0.485128	 0.508076	 0.510308	 0.491101	 0.508386	 0.503701	 0.512757	 0.501839	 0.504407	 0.506727	 0.501858	 0.516664	 0.502319	 0.501296	 0.496950	 0.508610	 0.501570	 0.493976	 0.492061	 0.495803	 0.517788	 0.504029	 0.518117	 0.496777	 0.519769	 0.500645	 0.507511	 0.499111	 0.521354	 0.504101	 0.500061	 0.504990	 0.497027	 0.497822	 0.500787	 0.492261	 0.505530	 0.507658	 0.516851	 0.499329	 0.512229	 0.496746	 0.500571	 0.497007	 0.507023	 0.496116	 0.497570	 0.504861
 4.00	 0.501718	 0.510193	 0.509481	 0.503189	 0.510872	 0.496527	 0.508830	 0.496606	 0.512502	 0.498629	 0.500111	 0.501654	 0.481706	 0.507687	 0.516892	 0.486267	 0.513989	 0.508194	 0.515912	 0.501655	 0.509915	 0.505966	 0.500844	 0.516318	 0.500209	 0.498938	 0.502066	 0.513000	 0.498661	 0.491865	 0.501440	 0.505513	 0.518771	 0.504819	 0.517929	 0.501414	 0.517745	 0.502777	 0.511407	 0.498115	 0.519075	 0.501265	 0.506431	 0.506451	 0.498614	 0.502242	 0.495468	 0.497213	 0.498725	 0.506988	 0.508677	 0.509667	 0.503862	 0.497839	 0.509032	 0.505245	 0.507708	 0.493925	 0.496471	 0.511773
 5.00	 0.508912	 0.505398	 0.508481	 0.503975	 0.510271	 0.499649	 0.506438	 0.495666	 0.508215	 0.494188	 0.503211	 0.495934	 0.487696	 0.502550	 0.518920	 0.496447	 0.514068	 0.502722	 0.514519	 0.505067	 0.501703	 0.509595	 0.507256	 0.518533	 0.504256	 0.504171	 0.500263	 0.508318	 0.505320	 0.492223	 0.503101	 0.502947	 0.512374	 0.504871	 0.520437	 0.502614	 0.516085	 0.508730	 0.514117	 0.497084	 0.523064	 0.498781	 0.504912	 0.509578	 0.500738	 0.506688	 0.487434	 0.505780	 0.503230	 0.514795	 0.509473	 0.504904	 0.493743	 0.502274	 0.517110	 0.509684	 0.510291	 0.496226	 0.501223	 0.515118
 6.00	 0.506302	 0.503215	 0.508572	 0.504306	 0.509303	 0.507973	 0.497405	 0.496008	 0.510723	 0.485704	 0.505672	 0.499882	 0.497589	 0.502691	 0.509477	 0.499310	 0.514603	 0.509790	 0.517731	 0.508240	 0.501522	 0.511063	 0.503079	 0.517236	 0.500603	 0.509377	 0.500530	 0.504700	 0.498594	 0.494853	 0.501099	 0.502376	 0.511253	 0.500403	 0.516118	 0.501529	 0.512008	 0.513956	 0.514022	 0.498364	 0.515241	 0.505564	 0.505449	 0.505577	 0.497638	 0.508212	 0.496009	 0.504996	 0.503331	 0.517208	 0.509775	 0.511338	 0.497586	 0.510132	 0.520488	 0.513767	 0.502912	 0.507321	 0.510038	 0.518484
 7.00	 0.497743	 0.503074	 0.508691	 0.499331	 0.513060	 0.511985	 0.497286	 0.495894	 0.503321	 0.485979	 0.508228	 0.498800	 0.498184	 0.503019	 0.507458	 0.497183	 0.503872	 0.507626	 0.518511	 0.506412	 0.500442	 0.515542	 0.507680	 0.516990	 0.497957	 0.500261	 0.508847	 0.506347	 0.499430	 0.504767	 0.503512	 0.507432	 0.513308	 0.500973	 0.511468	 0.503559	 0.506482	 0.513316	 0.507900	 0.498765	 0.514067	 0.500891	 0.505218	 0.503742	 0.501568	 0.505384	 0.501078	 0.499122	 0.507640	 0.514970	 0.507721	 0.514012	 0.495972	 0.508770	 0.521116	 0.513000	 0.506168	 0.499440	 0.508600	 0.517085
 8.00	 0.501695	 0.508669	 0.498946	 0.506244	 0.514201	 0.505638	 0.505868	 0.499497	 0.497122	 0.484953	 0.510711	 0.494180	 0.510573	 0.497665	 0.503532	 0.506310	 0.503848	 0.507595	 0.510839	 0.497343	 0.507966	 0.508079	 0.507945	 0.506539	 0.504910	 0.496991	 0.514761	 0.501750	 0.504603	 0.505131	 0.502529	 0.502925	 0.511642	 0.500708	 0.506930	 0.505981	 0.497030	 0.507750	 0.503626	 0.502162	 0.513036	 0.498310	 0.510858	 0.508330	 0.504895	 0.496845	 0.503987	 0.498767	 0.509621	 0.511337	 0.505665	 0.518457	 0.492765	 0.503007	 0.519809	 0.508701	 0.508089	 0.500513	 0.516081	 0.520206
 9.00	 0.500151	 0.503789	 0.498146	 0.504414	 0.513616	 0.498044	 0.505925	 0.496489	 0.498148	 0.489789	 0.519193	 0.496943	 0.507918	 0.496019	 0.503492	 0.513467	 0.503437	 0.509844	 0.505262	 0.489360	 0.511651	 0.496960	 0.507450	 0.496227	 0.508925	 0.494388	 0.510850	 0.494293	 0.500547	 0.496500	 0.503744	 0.500321	 0.515942	 0.497143	 0.501792	 0.498699	 0.494036	 0.508526	 0.508619	 0.501869	 0.510551	 0.502838	 0.506767	 0.504152	 0.514857	 0.492175	 0.510763	 0.491386	 0.511528	 0.503844	 0.508088	 0.517483	 0.497776	 0.494872	 0.514483	 0.502650	 0.513260	 0.507037	 0.513240	 0.519758
10.00	 0.501650	 0.504408	 0.498821	 0.503288	 0.517418	 0.499911	 0.499733	 0.497451	 0.494612	 0.488174	 0.515981	 0.494321	 0.504943	 0.494060	 0.508380	 0.520070	 0.501655	 0.504440	 0.503198	 0.500547	 0.517354	 0.491649	 0.505693	 0.493493	 0.505981	 0.501115	 0.509779	 0.496817	 0.507569	 0.492502	 0.501790	 0.498101	 0.508165	 0.497528	 0.496005	 0.501277	 0.492461	 0.502688	 0.506571	 0.508423	 0.511009	 0.505461	 0.509423	 0.501157	 0.514833	 0.499624	 0.512597	 0.492520	 0.506352	 0.505770	 0.508045	 0.513548	 0.493510	 0.491460	 0.505507	 0.506603	 0.511663	 0.505973	 0.510617	 0.514863
11.00	 0.493419	 0.505807	 0.499677	 0.494827	 0.511347	 0.491502	 0.501053	 0.504807	 0.494319	 0.489793	 0.516681	 0.492771	 0.497593	 0.491434	 0.505069	 0.519207	 0.489945	 0.504311	 0.492499	 0.498115	 0.518800	 0.487582	 0.505477	 0.492062	 0.509810	 0.498659	 0.502321	 0.493204	 0.500135	 0.488343	 0.501830	 0.503974	 0.501999	 0.503523	 0.493788	 0.496309	 0.495391	 0.501247	 0.504217	 0.505317	 0.511335	 0.497419	 0.505532	 0.504702	 0.512838	 0.502755	 0.509200	 0.500799	 0.506973	 0.499872	 0.502023	 0.510894	 0.493285	 0.482738	 0.500222	 0.503147	 0.512032	 0.506961	 0.509067	 0.510705
12.00	 0.499829	 0.511076	 0.495186	 0.488978	 0.505913	 0.486987	 0.497617	 0.506873	 0.488385	 0.487482	 0.511636	 0.493934	 0.498356	 0.494462	 0.509211	 0.513648	 0.490874	 0.501972	 0.494406	 0.498073	 0.515117	 0.486976	 0.499995	 0.493303	 0.501258	 0.492728	 0.506975	 0.490266	 0.495412	 0.489044	 0.502125	 0.511335	 0.504883	 0.499115	 0.489152	 0.493461	 0.492007	 0.503120	 0.504510	 0.506952	 0.513621	 0.495400	 0.513033	 0.510057	 0.511341	 0.506218	 0.516032	 0.500508	 0.509616	 0.498180	 0.509928	 0.506456	 0.500628	 0.484734	 0.503580	 0.505234	 0.512059	 0.509178	 0.508429	 0.512388
13.00	 0.508963	 0.508813	 0.489666	 0.493786	 0.509357	 0.484407	 0.498139	 0.500267	 0.493612	 0.501520	 0.509701	 0.492167	 0.501648	 0.492233	 0.508883	 0.512206	 0.493572	 0.499297	 0.488904	 0.493727	 0.509014	 0.491392	 0.502157	 0.484476	 0.498038	 0.493638	 0.501487	 0.494578	 0.494885	 0.489839	 0.500276	 0.506849	 0.507537	 0.491247	 0.482855	 0.488521	 0.499887	 0.506991	 0.507386	 0.508024	 0.503169	 0.488325	 0.512122	 0.504110	 0.511705	 0.495270	 0.509379	 0.504194	 0.508655	 0.505002	 0.508059	 0.508035	 0.500753	 0.485247	 0.495828	 0.508145	 0.510578	 0.499822	 0.501562	 0.505765
14.00	 0.509754	 0.509999	 0.496112	 0.502879	 0.516403	 0.487989	 0.499521	 0.496327	 0.497612	 0.509073	 0.496924	 0.489944	 0.502968	 0.494483	 0.496963	 0.507529	 0.494985	 0.489578	 0.498674	 0.496758	 0.498641	 0.497566	 0.497654	 0.484497	 0.491488	 0.494972	 0.503804	 0.504965	 0.492188	 0.493783	 0.495831	 0.502371	 0.504017	 0.502808	 0.486708	 0.497290	 0.500026	 0.507511	 0.502615	 0.505971	 0.504955	 0.486032	 0.508087	 0.512807	 0.506789	 0.492085	 0.504144	 0.503434	 0.502048	 0.506190	 0.503018	 0.499459	 0.498360	 0.492382	 0.493706	 0.499483	 0.499371	 0.495469	 0.503302	 0.502524
15.00	 0.500540	 0.502065	 0.495504	 0.491540	 0.513666	 0.488382	 0.500433	 0.489727	 0.502160	 0.511604	 0.490449	 0.486405	 0.509475	 0.499312	 0.498774	 0.505104	 0.488029	 0.498657	 0.494215	 0.500338	 0.490833	 0.498696	 0.500393	 0.486886	 0.494885	 0.491722	 0.506607	 0.509317	 0.484537	 0.489736	 0.491109	 0.501616	 0.508609	 0.502517	 0.487212	 0.496791	 0.499985	 0.504391	 0.508485	 0.497402	 0.499423	 0.482975	 0.507521	 0.516723	 0.513446	 0.491278	 0.503529	 0.499597	 0.499890	 0.496464	 0.495034	 0.507776	 0.500556	 0.499418	 0.498978	 0.496938	 0.491576	 0.494573	 0.504143	 0.495950
16.00	 0.491437	 0.509953	 0.487154	 0.489549	 0.513519	 0.487161	 0.489125	 0.483940	 0.510942	 0.499463	 0.486019	 0.490915	 0.502838	 0.497377	 0.506914	 0.495242	 0.482963	 0.493622	 0.494722	 0.500502	 0.490499	 0.500400	 0.492611	 0.484859	 0.492777	 0.494131	 0.509802	 0.513336	 0.496883	 0.484863	 0.484296	 0.500354	 0.514851	 0.494030	 0.495399	 0.498443	 0.499494	 0.497616	 0.509288	 0.494779	 0.491878	 0.483046	 0.505557	 0.513190	 0.515570	 0.492304	 0.504350	 0.502140	 0.499969	 0.505350	 0.497572	 0.505652	 0.500926	 0.495416	 0.491675	 0.504735	 0.486547	 0.502462	 0.500816	 0.493079
17.00	 0.490499	 0.503018	 0.500132	 0.496314	 0.504742	 0.483367	 0.489897	 0.495923	 0.513050	 0.488322	 0.479108	 0.500859	 0.494315	 0.503490	 0.507880	 0.482036	 0.486987	 0.505177	 0.490449	 0.498620	 0.494555	 0.492490	 0.499801	 0.486956	 0.497435	 0.498699	 0.498181	 0.510363	 0.499771	 0.480259	 0.490639	 0.496397	 0.507460	 0.494748	 0.485489	 0.507410	 0.489546	 0.491516	 0.510512	 0.500425	 0.490800	 0.478862	 0.502073	 0.502593	 0.508168	 0.489459	 0.499166	 0.504298	 0.495503	 0.508886	 0.491215	 0.496786	 0.507838	 0.496221	 0.501139	 0.509354	 0.482254	 0.490990	 0.499210	 0.494987
18.00	 0.487787	 0.492837	 0.508425	 0.502652	 0.504858	 0.484412	 0.497763	 0.497173	 0.504294	 0.496499	 0.481553	 0.494802	 0.487977	 0.501327	 0.504529	 0.477486	 0.484196	 0.508362	 0.495427	 0.490004	 0.502518	 0.489948	 0.504446	 0.497110	 0.494123	 0.496536	 0.498772	 0.516464	 0.508095	 0.480400	 0.493033	 0.489602	 0.504722	 0.490721	 0.480018	 0.511116	 0.492738	 0.492361	 0.504284	 0.502321	 0.492407	 0.484507	 0.500812	 0.498497	 0.496907	 0.489479	 0.494261	 0.496881	 0.494683	 0.504557	 0.496379	 0.491977	 0.504829	 0.503490	 0.500566	 0.512269	 0.492992	 0.483199	 0.493886	 0.494627
19.00	 0.491394	 0.488832	 0.508063	 0.499474	 0.505864	 0.495809	 0.503335	 0.494455	 0.502736	 0.493001	 0.481547	 0.485276	 0.481954	 0.500997	 0.499965	 0.471153	 0.491434	 0.503375	 0.503188	 0.488392	 0.499299	 0.489501	 0.502273	 0.494687	 0.486675	 0.499131	 0.500801	 0.512165	 0.512942	 0.472785	 0.503790	 0.488552	 0.501380	 0.481029	 0.472813	 0.512136	 0.500903	 0.500451	 0.505674	 0.499665	 0.504332	 0.484052	 0.507080	 0.500106	 0.498167	 0.498033	 0.498249	 0.497218	 0.489391	 0.496788	 0.495702	 0.492851	 0.500051	 0.502543	 0.496039	 0.502414	 0.490236	 0.485010	 0.493804	 0.492219
20.00	 0.489022	 0.487753	 0.505747	 0.504144	 0.503686	 0.496041	 0.502332	 0.500608	 0.500855	 0.494228	 0.485270	 0.497018	 0.477722	 0.501946	 0.492552	 0.481113	 0.504310	 0.500171	 0.491633	 0.487972	 0.508553	 0.495149	 0.497981	 0.495475	 0.485834	 0.495788	 0.497738	 0.514739	 0.505804	 0.474114	 0.502737	 0.477733	 0.497028	 0.475527	 0.474431	 0.498915	 0.493199	 0.499710	 0.511128	 0.502515	 0.496462	 0.476442	 0.505284	 0.502803	 0.486034	 0.499229	 0.487444	 0.503001	 0.486242	 0.493329	 0.487695	 0.500568	 0.500443	 0.495246	 0.501164	 0.510306	 0.497873	 0.495847	 0.497783	 0.481541
21.00	 0.495109	 0.483226	 0.500979	 0.496391	 0.509796	 0.492502	 0.496992	 0.497117	 0.502440	 0.495175	 0.486004	 0.505787	 0.478225	 0.500911	 0.484134	 0.494139	 0.511203	 0.508726	 0.489704	 0.485403	 0.516627	 0.501305	 0.499286	 0.495995	 0.497621	 0.490851	 0.499114	 0.507878	 0.500558	 0.482201	 0.494955	 0.485317	 0.485674	 0.480724	 0.489143	 0.494892	 0.498123	 0.505697	 0.508629	 0.497038	 0.500197	 0.479288	 0.491431	 0.493752	 0.491840	 0.499595	 0.494324	 0.511318	 0.480569	 0.491187	 0.485742	 0.499443	 0.493729	 0.495648	 0.499488	 0.504880	 0.496677	 0.498664	 0.496264	 0.481512
22.00	 0.497511	 0.488051	 0.505644	 0.497483	 0.504308	 0.497762	 0.496981	 0.502128	 0.497259	 0.484941	 0.479929	 0.506908	 0.481252	 0.499700	 0.481440	 0.500630	 0.505052	 0.498660	 0.484891	 0.479855	 0.516070	 0.502178	 0.501734	 0.499243	 0.504767	 0.491582	 0.489737	 0.499601	 0.504575	 0.480754	 0.493018	 0.485333	 0.495293	 0.486589	 0.490390	 0.493519	 0.491983	 0.506228	 0.508758	 0.487321	 0.507030	 0.486842	 0.482452	 0.504047	 0.496551	 0.507886	 0.498760	 0.505700	 0.479074	 0.484457	 0.492069	 0.502397	 0.496157	 0.495019	 0.497170	 0.490065	 0.496333	 0.495099	 0.501233	 0.471127
23.00	 0.492085	 0.481142	 0.495706	 0.494744	 0.501265	 0.484728	 0.494092	 0.493286	 0.498143	 0.480675	 0.473161	 0.507967	 0.485791	 0.499577	 0.483509	 0.503585	 0.498030	 0.490453	 0.485146	 0.476774	 0.513314	 0.498054	 0.502955	 0.493762	 0.494660	 0.486188	 0.490817	 0.499123	 0.495000	 0.482493	 0.493443	 0.490593	 0.490783	 0.481145	 0.483223	 0.496605	 0.488547	 0.495286	 0.501184	 0.483400	 0.507857	 0.491539	 0.482988	 0.494093	 0.485065	 0.499271	 0.493395	 0.498485	 0.478157	 0.496971	 0.494994	 0.491965	 0.503449	 0.495143	 0.498402	 0.485144	 0.492749	 0.499961	 0.490777	 0.476592
24.00	 0.492522	 0.486498	 0.499359	 0.486097	 0.497082	 0.491379	 0.487686	 0.501686	 0.491122	 0.475084	 0.469949	 0.507296	 0.494189	 0.506681	 0.483888	 0.511576	 0.495964	 0.481768	 0.487768	 0.466233	 0.507578	 0.485782	 0.509207	 0.486883	 0.500144	 0.489238	 0.487191	 0.497462	 0.490838	 0.487862	 0.492949	 0.493484	 0.484832	 0.492128	 0.475561	 0.498330	 0.489265	 0.503192	 0.492882	 0.489709	 0.508295	 0.500042	 0.490454	 0.494940	 0.490826	 0.500917	 0.500904	 0.491214	 0.480519	 0.499579	 0.492550	 0.491269	 0.503284	 0.498221	 0.498110	 0.492879	 0.484465	 0.506836	 0.488830	 0.483515
25.00	 0.483200	 0.484342	 0.496809	 0.472441	 0.492298	 0.484148	 0.493305	 0.494429	 0.491997	 0.485107	 0.482343	 0.500636	 0.492529	 0.505594	 0.494309	 0.500881	 0.490283	 0.490881	 0.494297	 0.468465	 0.506723	 0.494302	 0.511418	 0.497388	 0.503110	 0.490627	 0.491052	 0.499683	 0.488047	 0.492113	 0.504464	 0.490965	 0.492743	 0.503382	 0.482718	 0.508500	 0.496989	 0.501634	 0.490725	 0.494228	 0.511538	 0.501068	 0.489962	 0.497971	 0.499414	 0.498684	 0.495229	 0.487414	 0.491200	 0.494429	 0.501887	 0.490869	 0.494430	 0.493919	 0.483039	 0.494460	 0.489157	 0.505159	 0.486182	 0.489958
26.00	 0.492690	 0.480284	 0.492378	 0.484384	 0.490577	 0.486911	 0.496299	 0.502117	 0.483605	 0.483675	 0.481525	 0.504496	 0.494876	 0.498555	 0.503360	 0.503843	 0.486401	 0.482371	 0.504491	 0.465655	 0.493082	 0.501561	 0.499052	 0.491390	 0.505167	 0.481693	 0.500822	 0.504582	 0.486976	 0.489131	 0.496491	 0.493507	 0.492476	 0.500768	 0.487505	 0.497814	 0.495098	 0.502093	 0.486634	 0.496840	 0.509044	 0.491954	 0.490095	 0.503512	 0.506876	 0.496016	 0.501911	 0.481264	 0.489863	 0.487160	 0.500283	 0.487983	 0.495976	 0.498631	 0.486953	 0.491405	 0.499717	 0.496504	 0.488218	 0.491299
27.00	 0.480320	 0.486694	 0.488211	 0.489131	 0.493161	 0.481492	 0.493328	 0.497351	 0.469699	 0.486835	 0.487241	 0.508832	 0.504396	 0.493959	 0.497488	 0.506987	 0.486118	 0.480011	 0.502925	 0.473400	 0.489441	 0.511531	 0.497111	 0.485781	 0.494239	 0.485790	 0.509848	 0.498421	 0.500436	 0.487169	 0.492005	 0.486647	 0.484633	 0.489999	 0.486153	 0.501031	 0.491564	 0.504226	 0.480862	 0.491949	 0.510292	 0.497791	 0.499842	 0.496038	 0.512088	 0.492848	 0.500901	 0.492734	 0.491169	 0.493712	 0.497251	 0.484561	 0.498153	 0.491996	 0.482501	 0.481999	 0.502322	 0.497263	 0.499841	 0.492785
28.00	 0.482276	 0.494400	 0.488578	 0.490891	 0.496372	 0.486184	 0.490265	 0.484298	 0.475194	 0.502055	 0.489097	 0.502336	 0.498184	 0.488348	 0.500098	 0.503298	 0.492715	 0.475664	 0.510560	 0.479271	 0.485532	 0.506393	 0.501519	 0.488384	 0.494749	 0.493051	 0.509290	 0.501353	 0.500266	 0.478962	 0.492661	 0.495269	 0.490837	 0.495012	 0.484696	 0.491507	 0.493405	 0.504283	 0.483173	 0.490531	 0.497092	 0.497149	 0.492771	 0.491014	 0.508785	 0.489934	 0.489880	 0.497071	 0.489202	 0.496663	 0.491676	 0.482851	 0.492751	 0.480124	 0.472714	 0.476755	 0.500011	 0.496535	 0.491427	 0.494726
29.00	 0.489626	 0.493575	 0.488056	 0.489145	 0.485301	 0.479370	 0.482161	 0.476962	 0.488142	 0.502047	 0.486495	 0.491486	 0.499936	 0.477332	 0.485968	 0.496782	 0.497624	 0.479166	 0.510244	 0.494571	 0.496013	 0.491641	 0.498384	 0.502283	 0.480206	 0.482802	 0.502427	 0.496623	 0.506036	 0.470038	 0.483675	 0.490918	 0.496625	 0.497662	 0.487385	 0.492885	 0.501491	 0.497360	 0.482145	 0.484906	 0.497683	 0.483477	 0.482919	 0.492961	 0.505057	 0.482698	 0.491555	 0.501985	 0.479917	 0.492661	 0.485939	 0.478026	 0.492309	 0.487602	 0.473736	 0.486279	 0.494294	 0.488882	 0.487631	 0.496984
30.00	 0.486672	 0.489873	 0.490485	 0.493559	 0.488665	 0.483805	 0.482836	 0.480158	 0.494169	 0.494781	 0.493644	 0.500130	 0.496357	 0.480018	 0.488812	 0.491840	 0.501011	 0.484757	 0.511179	 0.483854	 0.493614	 0.491516	 0.496451	 0.503265	 0.473560	 0.473056	 0.500316	 0.498465	 0.505400	 0.475274	 0.494679	 0.491555	 0.485438	 0.503267	 0.500095	 0.493379	 0.496169	 0.500291	 0.488293	 0.483960	 0.498248	 0.484320	 0.481459	 0.482205	 0.508585	 0.481025	 0.483124	 0.488183	 0.470553	 0.478616	 0.490573	 0.485662	 0.492152	 0.497683	 0.480509	 0.478124	 0.494853	 0.488699	 0.500676	 0.497155
31.00	 0.495404	 0.501191	 0.482509	 0.493393	 0.482176	 0.487003	 0.483270	 0.493337	 0.493867	 0.498389	 0.495577	 0.495104	 0.490867	 0.476774	 0.497654	 0.482672	 0.494391	 0.495566	 0.497973	 0.490376	 0.489473	 0.493233	 0.501829	 0.498501	 0.476966	 0.468783	 0.499489	 0.492587	 0.511969	 0.480480	 0.498987	 0.488290	 0.483091	 0.486789	 0.485432	 0.493988	 0.494701	 0.508313	 0.492351	 0.492048	 0.494637	 0.479950	 0.493355	 0.481805	 0.507519	 0.476417	 0.482130	 0.476693	 0.459747	 0.480918	 0.482729	 0.490253	 0.504276	 0.494841	 0.479980	 0.492152	 0.497621	 0.478647	 0.506704	 0.488062
32.00	 0.488823	 0.492792	 0.489768	 0.496326	 0.468870	 0.487457	 0.482607	 0.498214	 0.493408	 0.488096	 0.499033	 0.486514	 0.494039	 0.480733	 0.507343	 0.476036	 0.486602	 0.493628	 0.498773	 0.476604	 0.482683	 0.484892	 0.503112	 0.490764	 0.479394	 0.478436	 0.497387	 0.486285	 0.502963	 0.475977	 0.510514	 0.495529	 0.472249	 0.479688	 0.488431	 0.501501	 0.490723	 0.505369	 0.495613	 0.478323	 0.489176	 0.474876	 0.492766	 0.487572	 0.502376	 0.473598	 0.495338	 0.475839	 0.464028	 0.479757	 0.474842	 0.479566	 0.511000	 0.480162	 0.482825	 0.482028	 0.493876	 0.474292	 0.510704	 0.482045
33.00	 0.477827	 0.488380	 0.496956	 0.488606	 0.460844	 0.483933	 0.481098	 0.490661	 0.494101	 0.495166	 0.488018	 0.482199	 0.487594	 0.477026	 0.499526	 0.486144	 0.477749	 0.503860	 0.484234	 0.475386	 0.481664	 0.491045	 0.499517	 0.501242	 0.495975	 0.482907	 0.488389	 0.491227	 0.499088	 0.481814	 0.505370	 0.486729	 0.479394	 0.479611	 0.494689	 0.506622	 0.485711	 0.495105	 0.493014	 0.471951	 0.489038	 0.466839	 0.487056	 0.488929	 0.495556	 0.464260	 0.497691	 0.485749	 0.476308	 0.475958	 0.481028	 0.475638	 0.501393	 0.474401	 0.485324	 0.489382	 0.492161	 0.472950	 0.501054	 0.471261
34.00	 0.492504	 0.488224	 0.481901	 0.485745	 0.458350	 0.477364	 0.490426	 0.477657	 0.485764	 0.499805	 0.483005	 0.481638	 0.487115	 0.469509	 0.486658	 0.477262	 0.478717	 0.503103	 0.489507	 0.474254	 0.484925	 0.479837	 0.492708	 0.504200	 0.490083	 0.477394	 0.496807	 0.496472	 0.497094	 0.479669	 0.496241	 0.488794	 0.495345	 0.490212	 0.492465	 0.506619	 0.472856	 0.495795	 0.497403	 0.460879	 0.481413	 0.461688	 0.488876	 0.498130	 0.485482	 0.481485	 0.496999	 0.497273	 0.476235	 0.476073	 0.491479	 0.473153	 0.493444	 0.474310	 0.477190	 0.483351	 0.484960	 0.468740	 0.487546	 0.472773
35.00	 0.485717	 0.483682	 0.477643	 0.476612	 0.456580	 0.468747	 0.491600	 0.486711	 0.490487	 0.487388	 0.496516	 0.493385	 0.482807	 0.481311	 0.479613	 0.468493	 0.467510	 0.510007	 0.491436	 0.468330	 0.489431	 0.475382	 0.478637	 0.503528	 0.495405	 0.476191	 0.498919	 0.489976	 0.488202	 0.489643	 0.500357	 0.486059	 0.494490	 0.486640	 0.489025	 0.494110	 0.459507	 0.500684	 0.506738	 0.462949	 0.485685	 0.469420	 0.493683	 0.492177	 0.480964	 0.500479	 0.499725	 0.501435	 0.477255	 0.480747	 0.482341	 0.474149	 0.485065	 0.470100	 0.478547	 0.478244	 0.478225	 0.470924	 0.488742	 0.480643
36.00	 0.492339	 0.489561	 0.485485	 0.477081	 0.471224	 0.460276	 0.481073	 0.499572	 0.485026	 0.495503	 0.490202	 0.508281	 0.496983	 0.469182	 0.472813	 0.466884	 0.456984	 0.495141	 0.489194	 0.488094	 0.496861	 0.472915	 0.478570	 0.487857	 0.495095	 0.488998	 0.507063	 0.492723	 0.494083	 0.483027	 0.487420	 0.479290	 0.487509	 0.481889	 0.483875	 0.481772	 0.464531	 0.490373	 0.493606	 0.468275	 0.485812	 0.486016	 0.484787	 0.497712	 0.487613	 0.511952	 0.499616	 0.496470	 0.482582	 0.487435	 0.495782	 0.483428	 0.488629	 0.475742	 0.488691	 0.488935	 0.477463	 0.477982	 0.474229	 0.497105
37.00	 0.492543	 0.496058	 0.475522	 0.481836	 0.488457	 0.459055	 0.471100	 0.482012	 0.488088	 0.495457	 0.488403	 0.502797	 0.497089	 0.466158	 0.479915	 0.472943	 0.454024	 0.494906	 0.493098	 0.492704	 0.491726	 0.487270	 0.467075	 0.493682	 0.480583	 0.499014	 0.500941	 0.497972	 0.492355	 0.492709	 0.480532	 0.470302	 0.486117	 0.485327	 0.469053	 0.479359	 0.472737	 0.497414	 0.491154	 0.479259	 0.474586	 0.483932	 0.470728	 0.485027	 0.491152	 0.508886	 0.504616	 0.492502	 0.484201	 0.495160	 0.496549	 0.493883	 0.487240	 0.473365	 0.487923	 0.494937	 0.487201	 0.473911	 0.477853	 0.491249
38.00	 0.484987	 0.495375	 0.478124	 0.481129	 0.492572	 0.465464	 0.471274	 0.487996	 0.473344	 0.492059	 0.492313	 0.494221	 0.503419	 0.477997	 0.480079	 0.490770	 0.452151	 0.479211	 0.490345	 0.483636	 0.487433	 0.496315	 0.481598	 0.487045	 0.476565	 0.491556	 0.509826	 0.491590	 0.497110	 0.488982	 0.482237	 0.485417	 0.476948	 0.482304	 0.476754	 0.476770	 0.476733	 0.484303	 0.483239	 0.491045	 0.470301	 0.483267	 0.478692	 0.490611	 0.475556	 0.503231	 0.499087	 0.483571	 0.492324	 0.497605	 0.501627	 0.491367	 0.493871	 0.485907	 0.484892	 0.507910	 0.476820	 0.490673	 0.487118	 0.479833
39.00	 0.484181	 0.494186	 0.484808	 0.484388	 0.500226	 0.487383	 0.460087	 0.490580	 0.487221	 0.494245	 0.488737	 0.485809	 0.487268	 0.489241	 0.489475	 0.483975	 0.465804	 0.470693	 0.483519	 0.480430	 0.486152	 0.501165	 0.497718	 0.489653	 0.482702	 0.477861	 0.489816	 0.497152	 0.488304	 0.488660	 0.481757	 0.501818	 0.481524	 0.488653	 0.473918	 0.485362	 0.479652	 0.490147	 0.489966	 0.504710	 0.473025	 0.479461	 0.487699	 0.505062	 0.471163	 0.505009	 0.500231	 0.485569	 0.502783	 0.510793	 0.499336	 0.490532	 0.495655	 0.495152	 0.496256	 0.501578	 0.488926	 0.478042	 0.490933	 0.480829
40.00	 0.472889	 0.488424	 0.489476	 0.479604	 0.510669	 0.501185	 0.472208	 0.493830	 0.484486	 0.482191	 0.495648	 0.472119	 0.473213	 0.499098	 0.497443	 0.482455	 0.457574	 0.464539	 0.474883	 0.480541	 0.484021	 0.503915	 0.487886	 0.493020	 0.485189	 0.466793	 0.471580	 0.487498	 0.474070	 0.485959	 0.496376	 0.510947	 0.472918	 0.496218	 0.479941	 0.486427	 0.478834	 0.491227	 0.484603	 0.498064	 0.470768	 0.486375	 0.483800	 0.489741	 0.465874	 0.489033	 0.484382	 0.479358	 0.511148	 0.503944	 0.492565	 0.476057	 0.484055	 0.497370	 0.492470	 0.492463	 0.484564	 0.485947	 0.494586	 0.487657
41.00	 0.479226	 0.499608	 0.490515	 0.490113	 0.507803	 0.507511	 0.464496	 0.483817	 0.476318	 0.480088	 0.500529	 0.469803	 0.476866	 0.499093	 0.510588	 0.474303	 0.471425	 0.464248	 0.469955	 0.466264	 0.477533	 0.509292	 0.477303	 0.491965	 0.492069	 0.462932	 0.467924	 0.479448	 0.480740	 0.470844	 0.495953	 0.508127	 0.485062	 0.499204	 0.475923	 0.474029	 0.486647	 0.491036	 0.473870	 0.498864	 0.464305	 0.489128	 0.476869	 0.484584	 0.471864	 0.481456	 0.492595	 0.481400	 0.499603	 0.493017	 0.496301	 0.484094	 0.482625	 0.479243	 0.489355	 0.496200	 0.482392	 0.498815	 0.495426	 0.483861
42.00	 0.482676	 0.499359	 0.492396	 0.488358	 0.503539	 0.512037	 0.471427	 0.498308	 0.470858	 0.477115	 0.494927	 0.464056	 0.473200	 0.508746	 0.494121	 0.481212	 0.475411	 0.467069	 0.466844	 0.488304	 0.477889	 0.505820	 0.478189	 0.493708	 0.486376	 0.454392	 0.464230	 0.488090	 0.477020	 0.474559	 0.492786	 0.496969	 0.490797	 0.491846	 0.470013	 0.478115	 0.481296	 0.489196	 0.466603	 0.480630	 0.471605	 0.477670	 0.470142	 0.470940	 0.463777	 0.487203	 0.496551	 0.475930	 0.491147	 0.473141	 0.489434	 0.485632	 0.479301	 0.485637	 0.476193	 0.488128	 0.496786	 0.482058	 0.497012	 0.479030
43.00	 0.491899	 0.498416	 0.482648	 0.479461	 0.501197	 0.515797	 0.478570	 0.485588	 0.488914	 0.475928	 0.488942	 0.475454	 0.492122	 0.498901	 0.500636	 0.479868	 0.481491	 0.483849	 0.459643	 0.484461	 0.480505	 0.507214	 0.483020	 0.499453	 0.473551	 0.470016	 0.470478	 0.497366	 0.485380	 0.472350	 0.494601	 0.497369	 0.487730	 0.471540	 0.455357	 0.482961	 0.494739	 0.487024	 0.466824	 0.476796	 0.483438	 0.467633	 0.460806	 0.463620	 0.458120	 0.479560	 0.489723	 0.479404	 0.489877	 0.480577	 0.499414	 0.491257	 0.473618	 0.480994	 0.470086	 0.472031	 0.484203	 0.476251	 0.501758	 0.481547
44.00	 0.486722	 0.487983	 0.486771	 0.476274	 0.487783	 0.511887	 0.491697	 0.500818	 0.487435	 0.477609	 0.477133	 0.487599	 0.493152	 0.485757	 0.485463	 0.479686	 0.475751	 0.475421	 0.463049	 0.469294	 0.480072	 0.507630	 0.479738	 0.499890	 0.464717	 0.475083	 0.489745	 0.501312	 0.490751	 0.471529	 0.495874	 0.493346	 0.491769	 0.483836	 0.456829	 0.497908	 0.493255	 0.495531	 0.488007	 0.463051	 0.486628	 0.464867	 0.474686	 0.464581	 0.465861	 0.473158	 0.485433	 0.490309	 0.492079	 0.482380	 0.500816	 0.480591	 0.466377	 0.493888	 0.467443	 0.469942	 0.484219	 0.483388	 0.504356	 0.482004
45.00	 0.483678	 0.480997	 0.483334	 0.473377	 0.481746	 0.496736	 0.489250	 0.492020	 0.483879	 0.482386	 0.480514	 0.472397	 0.475153	 0.479535	 0.494739	 0.488755	 0.489933	 0.466655	 0.474101	 0.478867	 0.474632	 0.488613	 0.492099	 0.487961	 0.470174	 0.475719	 0.498502	 0.505332	 0.477286	 0.470554	 0.481953	 0.491756	 0.487925	 0.469022	 0.446477	 0.497287	 0.483630	 0.508701	 0.486818	 0.482358	 0.500318	 0.473515	 0.464284	 0.457849	 0.474378	 0.482227	 0.469323	 0.492119	 0.471112	 0.473949	 0.478806	 0.462086	 0.471308	 0.503947	 0.468275	 0.478931	 0.486254	 0.472886	 0.502069	 0.475942
46.00	 0.474360	 0.497200	 0.492147	 0.479173	 0.473584	 0.484083	 0.480498	 0.471363	 0.486251	 0.484484	 0.468204	 0.486979	 0.471483	 0.473732	 0.499316	 0.489194	 0.483188	 0.469354	 0.459053	 0.466611	 0.469408	 0.475135	 0.490630	 0.498384	 0.484156	 0.475207	 0.493209	 0.502196	 0.465345	 0.470454	 0.474219	 0.486878	 0.468449	 0.465348	 0.477061	 0.487704	 0.485685	 0.514359	 0.499618	 0.472934	 0.497368	 0.488907	 0.475781	 0.474135	 0.464666	 0.470758	 0.489735	 0.501907	 0.470455	 0.475992	 0.483269	 0.464210	 0.480956	 0.502455	 0.454972	 0.477599	 0.469872	 0.471219	 0.488451	 0.482132
47.00	 0.471998	 0.482576	 0.471050	 0.480022	 0.486812	 0.475000	 0.478008	 0.468972	 0.494646	 0.494727	 0.469109	 0.474737	 0.483549	 0.466166	 0.484451	 0.494129	 0.498147	 0.492104	 0.474777	 0.472253	 0.475284	 0.472422	 0.484251	 0.503552	 0.494425	 0.490078	 0.495793	 0.505327	 0.483953	 0.464451	 0.482242	 0.483620	 0.472067	 0.484283	 0.489455	 0.478888	 0.477184	 0.507043	 0.498774	 0.463806	 0.500234	 0.483586	 0.482594	 0.477851	 0.485844	 0.485546	 0.483756	 0.488132	 0.467838	 0.480820	 0.481012	 0.459194	 0.481459	 0.489138	 0.451572	 0.472369	 0.462582	 0.470892	 0.495392	 0.500183
48.00	 0.475854	 0.465327	 0.480912	 0.480506	 0.484425	 0.470539	 0.495646	 0.460036	 0.490362	 0.493955	 0.468780	 0.472481	 0.482238	 0.469678	 0.480563	 0.488380	 0.477127	 0.485645	 0.478561	 0.481914	 0.491081	 0.462287	 0.478957	 0.502370	 0.485998	 0.490361	 0.486370	 0.499589	 0.468168	 0.464707	 0.490462	 0.482722	 0.477173	 0.482957	 0.486967	 0.476926	 0.466254	 0.496557	 0.484428	 0.468578	 0.501342	 0.473751	 0.479249	 0.478010	 0.495327	 0.484372	 0.487136	 0.472779	 0.459115	 0.492657	 0.472278	 0.457452	 0.474208	 0.484099	 0.449719	 0.463441	 0.465690	 0.462664	 0.502043	 0.504586
49.00	 0.483932	 0.462267	 0.475269	 0.485883	 0.488133	 0.478696	 0.481546	 0.469745	 0.480500	 0.497606	 0.465365	 0.471923	 0.477588	 0.483884	 0.487804	 0.494803	 0.492351	 0.488035	 0.466873	 0.485326	 0.486932	 0.460380	 0.486690	 0.500613	 0.501869	 0.493580	 0.466801	 0.485544	 0.455646	 0.465738	 0.497927	 0.480870	 0.473565	 0.492536	 0.486010	 0.470052	 0.465281	 0.476519	 0.487347	 0.477299	 0.505410	 0.470573	 0.480068	 0.471782	 0.481985	 0.498187	 0.475741	 0.468863	 0.450179	 0.500923	 0.478324	 0.463445	 0.482091	 0.474864	 0.467894	 0.462574	 0.451177	 0.463443	 0.480732	 0.487073
50.00	 0.483710	 0.459323	 0.476268	 0.496281	 0.482929	 0.471552	 0.477092	 0.460297	 0.484241	 0.493784	 0.459223	 0.468262	 0.471120	 0.492049	 0.484134	 0.479252	 0.475487	 0.466843	 0.461980	 0.490411	 0.474249	 0.465512	 0.485770	 0.495473	 0.504790	 0.497898	 0.472247	 0.494029	 0.468375	 0.483296	 0.483480	 0.497897	 0.480179	 0.493308	 0.465063	 0.463439	 0.469470	 0.477944	 0.485730	 0.498823	 0.507997	 0.473568	 0.497545	 0.481813	 0.477979	 0.491262	 0.471415	 0.478450	 0.458084	 0.498914	 0.470006	 0.466296	 0.487190	 0.475446	 0.480670	 0.464497	 0.444302	 0.462100	 0.466306	 0.494606
51.00	 0.485052	 0.479794	 0.477212	 0.478958	 0.473048	 0.464864	 0.470637	 0.472204	 0.471890	 0.486339	 0.478410	 0.461373	 0.482913	 0.500251	 0.474823	 0.474247	 0.464930	 0.471079	 0.474185	 0.494441	 0.479179	 0.458048	 0.481407	 0.481594	 0.505967	 0.480044	 0.471429	 0.488293	 0.465625	 0.487973	 0.464853	 0.486800	 0.479483	 0.488726	 0.474008	 0.472032	 0.477346	 0.481910	 0.486073	 0.482720	 0.501509	 0.484761	 0.491810	 0.491464	 0.468892	 0.482326	 0.467651	 0.468810	 0.471545	 0.478491	 0.488743	 0.459162	 0.492643	 0.474673	 0.486042	 0.455963	 0.443157	 0.471631	 0.480008	 0.503643
52.00	 0.463543	 0.484048	 0.499267	 0.464239	 0.480336	 0.480583	 0.481100	 0.494601	 0.458793	 0.491966	 0.481982	 0.455593	 0.496370	 0.502708	 0.463879	 0.468202	 0.456279	 0.477653	 0.463332	 0.502635	 0.484767	 0.467384	 0.480922	 0.489957	 0.513904	 0.477911	 0.487131	 0.489771	 0.473544	 0.474423	 0.479261	 0.497778	 0.483032	 0.495316	 0.461682	 0.479804	 0.487337	 0.484710	 0.468940	 0.470311	 0.491288	 0.480272	 0.484990	 0.490115	 0.477165	 0.474564	 0.466058	 0.454747	 0.471978	 0.463758	 0.486939	 0.460007	 0.481637	 0.461047	 0.493406	 0.458277	 0.451086	 0.493676	 0.468966	 0.501608
53.00	 0.469772	 0.470801	 0.515520	 0.475501	 0.470587	 0.497394	 0.463842	 0.501682	 0.478477	 0.477629	 0.487858	 0.466937	 0.492380	 0.504445	 0.455980	 0.460936	 0.472988	 0.457529	 0.473251	 0.485727	 0.465186	 0.455028	 0.479942	 0.505481	 0.485655	 0.471425	 0.507367	 0.499821	 0.489386	 0.456774	 0.490528	 0.504036	 0.487344	 0.471190	 0.462848	 0.462155	 0.506822	 0.486164	 0.474887	 0.480187	 0.472734	 0.484880	 0.481261	 0.473122	 0.481913	 0.461301	 0.458258	 0.454795	 0.473290	 0.450012	 0.482671	 0.457984	 0.476762	 0.459264	 0.504157	 0.471709	 0.482298	 0.493884	 0.487180	 0.502020
54.00	 0.473379	 0.493555	 0.493952	 0.486594	 0.466493	 0.499183	 0.454919	 0.512073	 0.463540	 0.474694	 0.492341	 0.462970	 0.488264	 0.508708	 0.446776	 0.470091	 0.488454	 0.470778	 0.467630	 0.472604	 0.464255	 0.472238	 0.481374	 0.497430	 0.481400	 0.484455	 0.498617	 0.500418	 0.477225	 0.464613	 0.482162	 0.492008	 0.481436	 0.472952	 0.457389	 0.468050	 0.492206	 0.480114	 0.473037	 0.464755	 0.475472	 0.477887	 0.480142	 0.482674	 0.496897	 0.466439	 0.472717	 0.446169	 0.473018	 0.459163	 0.474136	 0.469419	 0.479569	 0.477701	 0.503510	 0.461780	 0.497532	 0.487570	 0.476865	 0.500600
55.00	 0.471443	 0.494930	 0.498442	 0.475066	 0.467362	 0.485582	 0.471870	 0.496344	 0.460856	 0.465080	 0.488474	 0.483948	 0.479811	 0.502119	 0.472319	 0.479600	 0.479495	 0.479152	 0.465862	 0.478194	 0.476211	 0.482581	 0.482377	 0.500718	 0.496558	 0.472860	 0.495588	 0.496370	 0.479419	 0.463071	 0.471328	 0.483630	 0.469234	 0.483719	 0.444845	 0.477114	 0.493351	 0.499561	 0.464529	 0.454778	 0.469038	 0.474660	 0.500507	 0.496629	 0.485625	 0.467258	 0.479770	 0.464227	 0.474008	 0.448432	 0.464323	 0.462889	 0.488515	 0.479505	 0.495615	 0.476347	 0.515565	 0.498256	 0.471791	 0.496842
56.00	 0.479943	 0.503232	 0.485012	 0.469636	 0.476034	 0.488387	 0.458715	 0.478780	 0.455542	 0.472118	 0.497353	 0.487388	 0.464946	 0.500700	 0.460035	 0.473230	 0.463041	 0.490314	 0.455607	 0.472910	 0.478922	 0.479221	 0.480221	 0.505866	 0.507959	 0.484454	 0.505861	 0.489115	 0.495490	 0.467247	 0.478727	 0.485655	 0.484012	 0.485769	 0.461785	 0.471705	 0.477398	 0.495406	 0.465683	 0.457160	 0.472784	 0.467386	 0.491269	 0.495930	 0.487429	 0.483355	 0.491616	 0.471235	 0.479323	 0.461513	 0.455441	 0.452146	 0.481083	 0.477823	 0.477862	 0.463101	 0.497588	 0.489232	 0.486958	 0.504633
57.00	 0.486044	 0.486532	 0.494335	 0.466641	 0.471345	 0.477466	 0.462448	 0.481649	 0.465307	 0.462841	 0.501906	 0.476528	 0.488240	 0.501108	 0.463928	 0.479947	 0.462516	 0.493822	 0.486377	 0.480632	 0.483805	 0.472200	 0.489008	 0.482110	 0.486236	 0.487320	 0.509139	 0.470293	 0.505415	 0.483230	 0.461323	 0.480997	 0.497047	 0.478044	 0.471565	 0.492676	 0.474444	 0.483167	 0.471291	 0.474891	 0.489335	 0.485977	 0.489932	 0.476995	 0.475730	 0.493015	 0.496427	 0.474867	 0.472284	 0.473359	 0.460856	 0.459989	 0.470118	 0.463508	 0.482807	 0.462477	 0.477325	 0.469000	 0.487166	 0.498248
58.00	 0.484137	 0.473883	 0.494250	 0.453563	 0.485876	 0.483103	 0.450779	 0.475045	 0.464920	 0.484843	 0.497098	 0.465962	 0.488134	 0.498006	 0.465577	 0.499250	 0.477674	 0.499400	 0.487919	 0.473242	 0.483255	 0.470349	 0.477476	 0.479062	 0.471002	 0.497757	 0.499965	 0.454714	 0.494997	 0.478937	 0.473561	 0.471808	 0.495478	 0.474518	 0.471038	 0.508586	 0.469558	 0.479643	 0.484167	 0.482416	 0.488644	 0.475870	 0.484994	 0.487621	 0.474866	 0.491674	 0.499715	 0.478176	 0.451204	 0.488866	 0.459601	 0.462028	 0.457023	 0.464841	 0.498576	 0.469993	 0.479617	 0.472341	 0.468245	 0.493707
59.00	 0.498155	 0.488367	 0.492504	 0.447081	 0.480594	 0.491263	 0.457209	 0.476362	 0.485075	 0.468211	 0.503527	 0.462568	 0.473259	 0.476668	 0.451146	 0.500507	 0.481361	 0.500795	 0.499120	 0.467751	 0.487765	 0.477218	 0.468730	 0.477045	 0.467409	 0.486971	 0.500439	 0.482184	 0.474955	 0.485893	 0.479841	 0.458314	 0.497309	 0.464369	 0.484352	 0.482289	 0.475532	 0.481458	 0.476471	 0.472860	 0.487921	 0.486788	 0.488457	 0.475834	 0.466358	 0.504491	 0.484701	 0.495434	 0.442184	 0.499239	 0.473214	 0.467288	 0.465222	 0.464429	 0.497800	 0.470135	 0.478422	 0.460693	 0.477153	 0.503063
60.00	 0.490665	 0.482339	 0.473367	 0.472734	 0.474441	 0.500593	 0.456719	 0.495533	 0.462176	 0.482219	 0.489212	 0.471460	 0.467982	 0.477415	 0.441092	 0.505538	 0.494117	 0.501983	 0.471080	 0.485681	 0.493407	 0.475881	 0.483781	 0.459837	 0.471236	 0.470189	 0.486966	 0.498278	 0.457918	 0.479856	 0.476196	 0.442407	 0.494950	 0.450656	 0.489758	 0.478418	 0.456803	 0.477497	 0.477590	 0.455163	 0.473313	 0.468151	 0.486505	 0.464479	 0.478937	 0.483469	 0.486607	 0.486042	 0.454588	 0.499503	 0.456011	 0.459840	 0.470699	 0.459139	 0.472148	 0.465627	 0.484912	 0.475576	 0.478027	 0.503422
61.00	 0.472773	 0.480193	 0.468134	 0.483508	 0.479682	 0.503367	 0.480001	 0.475991	 0.456580	 0.457025	 0.499603	 0.474289	 0.452097	 0.485045	 0.458053	 0.489350	 0.482513	 0.492552	 0.468048	 0.487771	 0.489535	 0.463852	 0.466534	 0.444923	 0.460898	 0.472767	 0.474157	 0.486241	 0.472726	 0.469617	 0.487125	 0.438024	 0.500441	 0.447678	 0.488698	 0.496432	 0.479664	 0.473346	 0.485668	 0.469244	 0.479778	 0.480303	 0.471079	 0.451181	 0.497498	 0.456780	 0.468498	 0.467765	 0.467114	 0.487044	 0.460451	 0.473736	 0.478674	 0.456147	 0.467124	 0.482218	 0.463195	 0.485574	 0.479824	 0.494360
62.00	 0.490848	 0.472465	 0.470107	 0.496005	 0.458170	 0.502320	 0.480173	 0.476290	 0.445082	 0.472793	 0.494659	 0.471621	 0.462457	 0.500563	 0.462599	 0.468139	 0.478457	 0.497668	 0.455635	 0.485402	 0.485220	 0.454675	 0.449356	 0.435216	 0.462421	 0.454943	 0.490149	 0.488623	 0.474211	 0.463268	 0.494662	 0.424553	 0.488156	 0.432252	 0.472252	 0.500410	 0.478217	 0.464341	 0.494207	 0.469793	 0.469740	 0.481126	 0.474556	 0.472141	 0.485212	 0.464724	 0.483368	 0.483605	 0.458997	 0.486617	 0.467267	 0.464563	 0.484553	 0.462220	 0.475363	 0.479258	 0.468520	 0.461371	 0.484615	 0.482330
63.00	 0.506145	 0.468552	 0.472667	 0.484806	 0.456736	 0.479205	 0.476895	 0.460622	 0.454996	 0.481388	 0.487239	 0.476840	 0.457876	 0.471960	 0.462579	 0.461683	 0.471269	 0.491761	 0.464221	 0.469281	 0.471023	 0.454053	 0.445183	 0.422779	 0.483881	 0.479209	 0.483131	 0.498925	 0.463968	 0.455371	 0.468366	 0.427628	 0.487464	 0.452533	 0.484685	 0.488866	 0.497984	 0.459704	 0.488803	 0.461493	 0.469795	 0.484277	 0.484341	 0.477213	 0.460459	 0.472239	 0.475396	 0.472013	 0.462527	 0.478834	 0.462136	 0.442769	 0.473302	 0.463301	 0.480526	 0.472788	 0.474231	 0.476901	 0.478883	 0.476099
64.00	 0.498540	 0.473159	 0.468797	 0.472311	 0.458948	 0.485257	 0.477744	 0.463289	 0.481052	 0.491683	 0.474462	 0.476079	 0.476173	 0.457222	 0.474163	 0.465714	 0.475744	 0.481369	 0.453672	 0.483028	 0.454033	 0.460619	 0.461436	 0.457840	 0.506230	 0.476097	 0.477062	 0.474768	 0.459334	 0.448200	 0.480429	 0.448172	 0.487084	 0.455474	 0.463443	 0.487703	 0.496317	 0.457708	 0.490745	 0.470245	 0.457364	 0.470375	 0.466056	 0.475711	 0.454614	 0.469085	 0.484166	 0.471483	 0.441258	 0.453999	 0.446589	 0.455316	 0.464478	 0.454596	 0.490744	 0.450826	 0.463229	 0.469147	 0.487254	 0.457323
65.00	 0.479553	 0.461884	 0.479011	 0.474049	 0.464714	 0.491805	 0.481383	 0.466835	 0.472797	 0.481100	 0.462173	 0.459980	 0.498531	 0.445562	 0.469741	 0.455537	 0.465697	 0.466175	 0.457247	 0.491557	 0.440122	 0.465291	 0.484072	 0.494380	 0.518317	 0.466261	 0.474225	 0.474308	 0.452425	 0.459955	 0.490943	 0.479129	 0.459668	 0.461041	 0.450512	 0.498135	 0.490341	 0.459789	 0.472696	 0.482859	 0.449464	 0.470232	 0.449422	 0.474958	 0.442434	 0.477809	 0.483784	 0.460184	 0.464365	 0.471746	 0.468938	 0.478995	 0.468083	 0.448028	 0.480998	 0.443395	 0.476803	 0.470097	 0.474469	 0.451408
66.00	 0.480765	 0.448712	 0.476354	 0.473247	 0.468354	 0.484270	 0.463976	 0.475901	 0.479076	 0.475197	 0.457714	 0.446638	 0.489199	 0.452644	 0.468005	 0.451728	 0.449546	 0.446195	 0.469758	 0.470500	 0.443180	 0.485520	 0.479029	 0.474584	 0.503842	 0.447438	 0.471471	 0.478804	 0.464371	 0.470801	 0.490284	 0.489298	 0.439211	 0.455595	 0.429377	 0.492833	 0.482655	 0.467020	 0.455112	 0.478243	 0.465691	 0.490473	 0.431970	 0.462924	 0.449585	 0.462752	 0.467779	 0.469287	 0.473385	 0.461526	 0.467523	 0.476979	 0.469457	 0.426630	 0.480484	 0.446814	 0.458028	 0.472886	 0.469545	 0.446934
67.00	 0.464309	 0.451326	 0.489604	 0.463157	 0.455989	 0.458720	 0.457345	 0.485902	 0.466362	 0.461628	 0.454976	 0.454895	 0.485752	 0.479288	 0.468789	 0.450226	 0.466347	 0.452445	 0.470639	 0.468426	 0.458666	 0.482468	 0.484091	 0.475729	 0.488316	 0.463005	 0.473849	 0.473318	 0.477081	 0.479961	 0.469721	 0.506150	 0.430178	 0.462400	 0.442014	 0.487504	 0.473616	 0.471053	 0.450888	 0.488218	 0.458865	 0.476254	 0.443467	 0.483048	 0.473364	 0.466133	 0.452312	 0.484667	 0.466767	 0.472845	 0.464057	 0.463842	 0.456266	 0.422353	 0.476032	 0.440729	 0.434411	 0.470942	 0.478255	 0.470320
68.00	 0.470426	 0.428695	 0.489342	 0.457521	 0.440135	 0.447450	 0.484088	 0.497278	 0.461574	 0.463112	 0.466499	 0.456746	 0.468879	 0.490475	 0.465580	 0.467995	 0.465268	 0.451789	 0.470977	 0.462773	 0.440062	 0.481983	 0.484115	 0.479706	 0.498388	 0.473683	 0.468531	 0.472665	 0.462998	 0.486242	 0.481244	 0.491654	 0.439800	 0.442948	 0.452443	 0.452875	 0.475794	 0.454224	 0.441320	 0.487873	 0.464766	 0.472613	 0.452453	 0.473279	 0.495196	 0.465697	 0.465497	 0.465481	 0.455092	 0.473409	 0.465003	 0.439102	 0.447013	 0.466347	 0.482885	 0.446732	 0.423723	 0.477859	 0.467020	 0.475767
69.00	 0.462242	 0.414922	 0.503697	 0.462332	 0.449849	 0.463092	 0.479867	 0.486778	 0.455033	 0.459635	 0.470060	 0.444837	 0.453468	 0.474457	 0.458966	 0.452883	 0.457479	 0.466604	 0.466852	 0.459486	 0.446419	 0.477383	 0.500085	 0.486672	 0.484523	 0.485470	 0.452200	 0.462884	 0.451431	 0.486020	 0.471328	 0.477866	 0.445824	 0.452754	 0.469920	 0.430952	 0.456906	 0.453493	 0.448289	 0.485433	 0.462430	 0.467865	 0.472047	 0.467206	 0.497816	 0.467404	 0.457016	 0.462604	 0.471085	 0.472249	 0.468418	 0.433479	 0.475522	 0.467092	 0.467210	 0.459254	 0.456826	 0.492531	 0.469409	 0.469604
70.00	 0.448923	 0.448449	 0.488845	 0.464296	 0.469059	 0.477818	 0.471499	 0.485545	 0.458117	 0.445526	 0.464200	 0.446479	 0.472368	 0.446701	 0.461615	 0.450535	 0.449956	 0.440810	 0.452426	 0.457592	 0.459019	 0.463430	 0.481196	 0.484820	 0.480117	 0.454392	 0.454805	 0.463747	 0.470840	 0.483015	 0.479316	 0.489352	 0.449479	 0.438980	 0.470675	 0.425140	 0.431879	 0.459351	 0.464691	 0.464734	 0.453591	 0.462314	 0.462915	 0.469882	 0.467500	 0.464832	 0.473984	 0.477834	 0.445000	 0.461543	 0.471106	 0.428223	 0.482356	 0.473606	 0.455461	 0.458392	 0.466478	 0.489463	 0.481685	 0.478898
71.00	 0.457527	 0.433834	 0.490390	 0.484727	 0.467785	 0.472010	 0.482961	 0.464678	 0.452397	 0.418823	 0.480657	 0.433805	 0.471800	 0.430267	 0.445858	 0.447875	 0.454644	 0.461840	 0.437138	 0.434311	 0.440398	 0.457829	 0.466736	 0.486548	 0.483080	 0.463514	 0.458761	 0.472831	 0.483414	 0.492976	 0.468318	 0.480338	 0.480849	 0.445259	 0.473765	 0.433353	 0.430689	 0.453761	 0.478182	 0.435163	 0.454678	 0.451280	 0.459407	 0.441068	 0.475278	 0.461900	 0.483568	 0.476174	 0.453858	 0.445156	 0.471036	 0.464517	 0.498862	 0.484464	 0.471823	 0.450345	 0.480322	 0.488895	 0.490503	 0.472750
72.00	 0.470050	 0.440697	 0.501053	 0.462877	 0.482754	 0.471519	 0.466503	 0.475999	 0.440295	 0.425306	 0.479441	 0.437059	 0.470514	 0.464487	 0.428036	 0.435212	 0.471013	 0.443741	 0.443531	 0.433666	 0.457111	 0.433293	 0.457003	 0.455471	 0.462722	 0.476728	 0.470260	 0.464386	 0.464612	 0.475619	 0.467317	 0.455935	 0.492686	 0.459115	 0.447084	 0.438048	 0.451711	 0.442625	 0.493321	 0.458438	 0.455914	 0.434074	 0.456332	 0.453573	 0.466344	 0.462445	 0.462614	 0.466645	 0.457386	 0.465060	 0.472732	 0.440565	 0.484912	 0.476139	 0.461891	 0.457132	 0.485929	 0.470460	 0.455094	 0.479501
73.00	 0.468020	 0.415045	 0.502750	 0.450991	 0.474363	 0.466068	 0.447111	 0.454286	 0.450918	 0.437376	 0.458757	 0.446350	 0.459275	 0.468923	 0.452743	 0.437214	 0.483849	 0.456786	 0.459653	 0.430863	 0.444099	 0.436755	 0.426017	 0.455460	 0.449516	 0.474164	 0.461243	 0.455060	 0.463755	 0.482191	 0.447910	 0.454104	 0.473360	 0.454384	 0.427028	 0.423453	 0.449743	 0.450881	 0.476183	 0.452607	 0.468487	 0.458072	 0.445141	 0.440687	 0.475427	 0.442599	 0.459342	 0.462979	 0.448753	 0.453509	 0.454243	 0.461631	 0.461316	 0.462308	 0.462616	 0.464465	 0.489924	 0.454884	 0.447688	 0.453940
74.00	 0.451326	 0.425006	 0.479027	 0.451388	 0.453181	 0.441737	 0.452368	 0.450124	 0.430089	 0.430854	 0.452923	 0.417496	 0.435697	 0.463119	 0.450378	 0.454895	 0.485651	 0.452145	 0.472478	 0.437352	 0.468272	 0.443934	 0.412075	 0.456321	 0.441657	 0.448940	 0.432697	 0.432081	 0.470315	 0.458016	 0.448080	 0.447086	 0.474464	 0.458433	 0.410613	 0.443102	 0.432582	 0.454919	 0.468280	 0.469540	 0.450185	 0.451103	 0.426424	 0.453325	 0.473667	 0.416722	 0.421601	 0.458625	 0.447261	 0.450701	 0.455850	 0.458499	 0.455564	 0.446563	 0.459233	 0.461775	 0.489512	 0.458070	 0.436295	 0.449693
75.00	 0.422731	 0.419837	 0.447250	 0.430283	 0.444178	 0.410832	 0.434323	 0.433129	 0.400814	 0.439632	 0.420118	 0.429484	 0.421490	 0.431324	 0.426532	 0.441035	 0.473372	 0.420415	 0.442246	 0.433613	 0.453753	 0.442892	 0.387158	 0.449274	 0.443872	 0.414821	 0.406513	 0.427540	 0.446615	 0.425225	 0.437889	 0.437922	 0.430069	 0.425780	 0.384156	 0.430955	 0.394946	 0.453492	 0.454327	 0.461128	 0.433874	 0.418382	 0.393629	 0.446472	 0.432476	 0.413441	 0.427764	 0.438584	 0.417733	 0.412769	 0.431101	 0.446965	 0.445707	 0.450419	 0.456207	 0.448002	 0.449306	 0.444652	 0.406707	 0.436066
76.00	 0.403021	 0.407262	 0.406156	 0.423629	 0.416276	 0.393215	 0.402035	 0.393346	 0.383683	 0.410772	 0.412024	 0.417756	 0.393503	 0.403530	 0.389430	 0.412661	 0.430885	 0.406349	 0.410373	 0.399645	 0.429049	 0.421312	 0.386872	 0.433512	 0.392054	 0.401772	 0.380191	 0.399272	 0.416727	 0.378689	 0.416318	 0.428302	 0.395226	 0.390304	 0.380038	 0.403056	 0.372024	 0.416794	 0.411334	 0.428290	 0.408668	 0.388284	 0.385337	 0.406369	 0.394044	 0.389140	 0.411590	 0.426545	 0.400067	 0.371212	 0.412090	 0.413525	 0.403992	 0.405306	 0.410210	 0.428208	 0.430777	 0.424379	 0.381282	 0.413246
77.00	 0.348015	 0.356975	 0.351636	 0.368415	 0.354592	 0.350720	 0.358851	 0.343069	 0.357681	 0.362447	 0.360238	 0.366134	 0.353187	 0.362300	 0.351739	 0.372813	 0.378103	 0.354599	 0.356498	 0.340945	 0.363043	 0.378541	 0.336716	 0.362252	 0.337263	 0.341736	 0.330996	 0.352955	 0.356039	 0.350316	 0.367214	 0.360714	 0.358167	 0.359150	 0.333208	 0.347880	 0.335226	 0.365488	 0.350292	 0.372246	 0.356376	 0.344239	 0.344852	 0.353614	 0.343024	 0.351698	 0.368999	 0.359672	 0.339457	 0.345213	 0.367407	 0.368414	 0.343422	 0.362060	 0.355833	 0.363164	 0.379293	 0.362062	 0.325512	 0.354442
78.00	 0.276109	 0.283369	 0.265340	 0.290233	 0.273776	 0.286292	 0.287549	 0.265500	 0.289546	 0.272777	 0.274121	 0.277816	 0.282896	 0.278749	 0.277536	 0.278610	 0.289795	 0.275484	 0.278465	 0.272524	 0.274007	 0.296812	 0.269911	 0.277506	 0.265432	 0.259005	 0.253533	 0.272551	 0.272198	 0.278785	 0.277027	 0.275722	 0.275328	 0.276948	 0.271776	 0.283906	 0.269218	 0.270872	 0.283899	 0.289489	 0.273379	 0.275917	 0.288249	 0.284296	 0.274804	 0.278240	 0.278610	 0.278364	 0.283026	 0.282641	 0.281436	 0.289214	 0.270962	 0.289317	 0.275334	 0.275027	 0.285003	 0.275864	 0.271319	 0.280206
79.00	 0.152060	 0.158802	 0.142130	 0.165106	 0.149920	 0.161436	 0.162659	 0.142355	 0.164540	 0.149049	 0.150213	 0.153709	 0.158317	 0.154452	 0.153433	 0.154385	 0.164705	 0.151504	 0.154280	 0.148864	 0.150140	 0.171217	 0.146411	 0.153264	 0.142251	 0.174896	 0.165524	 0.148701	 0.148464	 0.154615	 0.152843	 0.151687	 0.151325	 0.152921	 0.173267	 0.159249	 0.145824	 0.147200	 0.159188	 0.164418	 0.149524	 0.151961	 0.163312	 0.159589	 0.150858	 0.154047	 0.154316	 0.154131	 0.158559	 0.158096	 0.156965	 0.164261	 0.147336	 0.164314	 0.151333	 0.151134	 0.160246	 0.151827	 0.147656	 0.155758
80.00	 0.047267	 0.052041	 0.040532	 0.056560	 0.045797	 0.053881	 0.054807	 0.040730	 0.056199	 0.045236	 0.045983	 0.048469	 0.051661	 0.048905	 0.048263	 0.048902	 0.056270	 0.046896	 0.048848	 0.045142	 0.045954	 0.061083	 0.043442	 0.048045	 0.040635	 0.063935	 0.056864	 0.044901	 0.044800	 0.049111	 0.047767	 0.046998	 0.046748	 0.047927	 0.062793	 0.052324	 0.043080	 0.043911	 0.052240	 0.056059	 0.045505	 0.047254	 0.055285	 0.052552	 0.046437	 0.048667	 0.048803	 0.048704	 0.051921	 0.051513	 0.050698	 0.056018	 0.044039	 0.056025	 0.046756	 0.046677	 0.053026	 0.047102	 0.044251	 0.049794
81.00	 0.000928	 0.001453	 0.001933	 0.002336	 0.001049	 0.001794	 0.001985	 0.001599	 0.002272	 0.001023	 0.001021	 0.000816	 0.001376	 0.000877	 0.000779	 0.000884	 0.002277	 0.000922	 0.000878	 0.001144	 0.001102	 0.003320	 0.001455	 0.000773	 0.001930	 0.004012	 0.002398	 0.001318	 0.001122	 0.000929	 0.000824	 0.000909	 0.000979	 0.000813	 0.003760	 0.001499	 0.001594	 0.001274	 0.001476	 0.002233	 0.001186	 0.000898	 0.002082	 0.001539	 0.001008	 0.000844	 0.000858	 0.000846	 0.001441	 0.001350	 0.001199	 0.002240	 0.001168	 0.002234	 0.000980	 0.000896	 0.001630	 0.000875	 0.001626	 0.001028
82.00	 0.001761	 0.000647	 0.002338	 0.000001	 0.002183	 0.000001	 0.000184	 0.002276	 0.000710	 0.002186	 0.001950	 0.001356	 0.000480	 0.000499	 0.001406	 0.001339	 0.000001	 0.001895	 0.001428	 0.002777	 0.001373	 0.000001	 0.001201	 0.000001	 0.002699	 0.000001	 0.000000	 0.000245	 0.000939	 0.001926	 0.000431	 0.001975	 0.001606	 0.000633	 0.000000	 0.000038	 0.001634	 0.001867	 0.000001	 0.000001	 0.001333	 0.001000	 0.000001	 0.000000	 0.001100	 0.001401	 0.000050	 0.001021	 0.002328	 0.000503	 0.000002	 0.001072	 0.001045	 0.000000	 0.000339	 0.001859	 0.000000	 0.000322	 0.001356	 0.000000
83.00	 0.000269	 0.000061	 0.000002	 0.000000	 0.000425	 0.000005	 0.000815	 0.001917	 0.000001	 0.001124	 0.001111	 0.001873	 0.000417	 0.000146	 0.000359	 0.000649	 0.000000	 0.000219	 0.000687	 0.001584	 0.000881	 0.000000	 0.002049	 0.000014	 0.001383	 0.000000	 0.000000	 0.000001	 0.000699	 0.001688	 0.000371	 0.000850	 0.000003	 0.001950	 0.000001	 0.000980	 0.001431	 0.000274	 0.000001	 0.000000	 0.000002	 0.002400	 0.000001	 0.000001	 0.000170	 0.001011	 0.000817	 0.001019	 0.000056	 0.000185	 0.000240	 0.000001	 0.001300	 0.000000	 0.001611	 0.000733	 0.000000	 0.001513	 0.000170	 0.000005
84.00	 0.000576	 0.000001	 0.000001	 0.000000	 0.000001	 0.000001	 0.000135	 0.000392	 0.000001	 0.000004	 0.000004	 0.000001	 0.000002	 0.000690	 0.001187	 0.000002	 0.000000	 0.000397	 0.000351	 0.000562	 0.000001	 0.000000	 0.000652	 0.000316	 0.000005	 0.000000	 0.000000	 0.000005	 0.000475	 0.000044	 0.000202	 0.000623	 0.000004	 0.000994	 0.000001	 0.000293	 0.001469	 0.000752	 0.000053	 0.000000	 0.000227	 0.000222	 0.000006	 0.000000	 0.000001	 0.000001	 0.000212	 0.000003	 0.000001	 0.000431	 0.000124	 0.000318	 0.000269	 0.000000	 0.000000	 0.000756	 0.000001	 0.000423	 0.000177	 0.000008
85.00	 0.000001	 0.000000	 0.000001	 0.000000	 0.000000	 0.000001	 0.000002	 0.000279	 0.000461	 0.000001	 0.000001	 0.000480	 0.000001	 0.000175	 0.000409	 0.000001	 0.000000	 0.000936	 0.000006	 0.000712	 0.000228	 0.000000	 0.000510	 0.000142	 0.000003	 0.000000	 0.000000	 0.000195	 0.000001	 0.000001	 0.000023	 0.000001	 0.000000	 0.000482	 0.000001	 0.000000	 0.000473	 0.000000	 0.000000	 0.000000	 0.000693	 0.000184	 0.000070	 0.000001	 0.000674	 0.000009	 0.000358	 0.000001	 0.000650	 0.000003	 0.000970	 0.000002	 0.000762	 0.000000	 0.000001	 0.000396	 0.000001	 0.000001	 0.001005	 0.000023
86.00	 0.000400	 0.000130	 0.000001	 0.000000	 0.000000	 0.000000	 0.000001	 0.000659	 0.000001	 0.000527	 0.000001	 0.000413	 0.000128	 0.000315	 0.000811	 0.000166	 0.000000	 0.000003	 0.000392	 0.000727	 0.000221	 0.000000	 0.000003	 0.000003	 0.000001	 0.000000	 0.000000	 0.000039	 0.000698	 0.000298	 0.000001	 0.000001	 0.000038	 0.000000	 0.000396	 0.000001	 0.000472	 0.000000	 0.000001	 0.000000	 0.000002	 0.000000	 0.000000	 0.000138	 0.000002	 0.000728	 0.000001	 0.000026	 0.000700	 0.000005	 0.000472	 0.000001	 0.000002	 0.000002	 0.000000	 0.000612	 0.000000	 0.000001	 0.000004	 0.000011
87.00	 0.000710	 0.000448	 0.000001	 0.000000	 0.000900	 0.000318	 0.000001	 0.000001	 0.000002	 0.000579	 0.000009	 0.000003	 0.000094	 0.000034	 0.000869	 0.000275	 0.000000	 0.000001	 0.000463	 0.000216	 0.000263	 0.000000	 0.000281	 0.000392	 0.000005	 0.000000	 0.000000	 0.000100	 0.000041	 0.000395	 0.000507	 0.000001	 0.000000	 0.000336	 0.000001	 0.000000	 0.000092	 0.000000	 0.000210	 0.000001	 0.000001	 0.000469	 0.000001	 0.000001	 0.001339	 0.000001	 0.000001	 0.000595	 0.001133	 0.000002	 0.000734	 0.000343	 0.000045	 0.000730	 0.000514	 0.000000	 0.000000	 0.000194	 0.000125	 0.000002
88.00	 0.000001	 0.000001	 0.000005	 0.000000	 0.000004	 0.000019	 0.000000	 0.000001	 0.000002	 0.000641	 0.000232	 0.000057	 0.000429	 0.000000	 0.000001	 0.000646	 0.000000	 0.000001	 0.000002	 0.000000	 0.000001	 0.000000	 0.000000	 0.000001	 0.000001	 0.000000	 0.000000	 0.000281	 0.000633	 0.000001	 0.000264	 0.000002	 0.000009	 0.000398	 0.000497	 0.000000	 0.000265	 0.000001	 0.000417	 0.000000	 0.000000	 0.000366	 0.000000	 0.000001	 0.000178	 0.000001	 0.000001	 0.000002	 0.000000	 0.000067	 0.000002	 0.000000	 0.000210	 0.000108	 0.000593	 0.000001	 0.000001	 0.001140	 0.000000	 0.000024
89.00	 0.000290	 0.000506	 0.000003	 0.000000	 0.000002	 0.000000	 0.000001	 0.000001	 0.000386	 0.000001	 0.000243	 0.000214	 0.000001	 0.000001	 0.000001	 0.000770	 0.000001	 0.000235	 0.000001	 0.000001	 0.000184	 0.000000	 0.000003	 0.000513	 0.000000	 0.000000	 0.000000	 0.000020	 0.000002	 0.000038	 0.000155	 0.000001	 0.001016	 0.000003	 0.000069	 0.000001	 0.000001	 0.000561	 0.000001	 0.000000	 0.000002	 0.000003	 0.000385	 0.000708	 0.000001	 0.000001	 0.000207	 0.000000	 0.000001	 0.000004	 0.000000	 0.000001	 0.000015	 0.000000	 0.000001	 0.000025	 0.000001	 0.000642	 0.000006	 0.000147
90.00	 0.000000	 0.000302	 0.000003	 0.000000	 0.000206	 0.000001	 0.000001	 0.000001	 0.000005	 0.000126	 0.000794	 0.000000	 0.000559	 0.000294	 0.000002	 0.000071	 0.000003	 0.000003	 0.000003	 0.000003	 0.000382	 0.000000	 0.000001	 0.000001	 0.000064	 0.000000	 0.000000	 0.000792	 0.000001	 0.000006	 0.000001	 0.000007	 0.000708	 0.000500	 0.000005	 0.000004	 0.000001	 0.000389	 0.000001	 0.000001	 0.000800	 0.000001	 0.000002	 0.000001	 0.000001	 0.000007	 0.000296	 0.000005	 0.000029	 0.000001	 0.000376	 0.000002	 0.000003	 0.000001	 0.000003	 0.000001	 0.000001	 0.000001	 0.000001	 0.000001
91.00	 0.000001	 0.000103	 0.000699	 0.000000	 0.000001	 0.000001	 0.000563	 0.000001	 0.000001	 0.000004	 0.000000	 0.000422	 0.001051	 0.000031	 0.000000	 0.000424	 0.000001	 0.000114	 0.000372	 0.000001	 0.000600	 0.000000	 0.000105	 0.000665	 0.000341	 0.000000	 0.000000	 0.000786	 0.000330	 0.000001	 0.000585	 0.000003	 0.000715	 0.000152	 0.000005	 0.000426	 0.000001	 0.000464	 0.000001	 0.000000	 0.000068	 0.000797	 0.000002	 0.000001	 0.000291	 0.000687	 0.000234	 0.000001	 0.000001	 0.000002	 0.000125	 0.000768	 0.000002	 0.000401	 0.000001	 0.000001	 0.000004	 0.000002	 0.000001	 0.000222
92.00	 0.000001	 0.000001	 0.000157	 0.000001	 0.000184	 0.000001	 0.000002	 0.000019	 0.000178	 0.000466	 0.000117	 0.000544	 0.000188	 0.000287	 0.000000	 0.000001	 0.000356	 0.000313	 0.000341	 0.000002	 0.000001	 0.000000	 0.000273	 0.000053	 0.000000	 0.000000	 0.000000	 0.000436	 0.000249	 0.000002	 0.000001	 0.000002	 0.000279	 0.000063	 0.000002	 0.000251	 0.000001	 0.000001	 0.000001	 0.000147	 0.000597	 0.000001	 0.000001	 0.000001	 0.000535	 0.000321	 0.000001	 0.000094	 0.000001	 0.000001	 0.000343	 0.000002	 0.000259	 0.000589	 0.000423	 0.001163	 0.000141	 0.000316	 0.000000	 0.000003
93.00	 0.000001	 0.000570	 0.000001	 0.000000	 0.000648	 0.000337	 0.000700	 0.000000	 0.000734	 0.000755	 0.000001	 0.000624	 0.000022	 0.000001	 0.000001	 0.000726	 0.000000	 0.000000	 0.000001	 0.000574	 0.000111	 0.000000	 0.000006	 0.000469	 0.000000	 0.000000	 0.000000	 0.000002	 0.000001	 0.000003	 0.000003	 0.000000	 0.000545	 0.000017	 0.000000	 0.000627	 0.000005	 0.000000	 0.000001	 0.000001	 0.000953	 0.000423	 0.000268	 0.000026	 0.000001	 0.000188	 0.000001	 0.000015	 0.000001	 0.000161	 0.000001	 0.000284	 0.000304	 0.000005	 0.000073	 0.000190	 0.000378	 0.000003	 0.001026	 0.000710
94.00	 0.000071	 0.000001	 0.000001	 0.000001	 0.000021	 0.000433	 0.000036	 0.000420	 0.000003	 0.000002	 0.000584	 0.000312	 0.000182	 0.000217	 0.000001	 0.000000	 0.000002	 0.000008	 0.000000	 0.000003	 0.000000	 0.000000	 0.000725	 0.000003	 0.000006	 0.000000	 0.000001	 0.000001	 0.000013	 0.001074	 0.000063	 0.000002	 0.000000	 0.000210	 0.000002	 0.000000	 0.000893	 0.000001	 0.000051	 0.000001	 0.000000	 0.000168	 0.000001	 0.000003	 0.000008	 0.000006	 0.000000	 0.000000	 0.000003	 0.000001	 0.000010	 0.000000	 0.000114	 0.000518	 0.000006	 0.000431	 0.000057	 0.000331	 0.000279	 0.000237
95.00	 0.000322	 0.000001	 0.000001	 0.000001	 0.000002	 0.000001	 0.000000	 0.000149	 0.000098	 0.000001	 0.000002	 0.000001	 0.000040	 0.000001	 0.001257	 0.000001	 0.000060	 0.000265	 0.000860	 0.000527	 0.000244	 0.000000	 0.000000	 0.000866	 0.000001	 0.000000	 0.000246	 0.000001	 0.000002	 0.000593	 0.000087	 0.000003	 0.000000	 0.000001	 0.000354	 0.000001	 0.000003	 0.000275	 0.000101	 0.000017	 0.000335	 0.000001	 0.000003	 0.000035	 0.000178	 0.000001	 0.000001	 0.000000	 0.000001	 0.000001	 0.000000	 0.000000	 0.000567	 0.000000	 0.000313	 0.000002	 0.000001	 0.000090	 0.000641	 0.000558
96.00	 0.000000	 0.000191	 0.000022	 0.000017	 0.000083	 0.000019	 0.000001	 0.000001	 0.000002	 0.000006	 0.000001	 0.000000	 0.000001	 0.000001	 0.002298	 0.000002	 0.000127	 0.000001	 0.000301	 0.000371	 0.000187	 0.000000	 0.000001	 0.000367	 0.000691	 0.000000	 0.000624	 0.000099	 0.000348	 0.000141	 0.000168	 0.000020	 0.000000	 0.000004	 0.000687	 0.000430	 0.000010	 0.000719	 0.000000	 0.000000	 0.000175	 0.000001	 0.000005	 0.001266	 0.000002	 0.000003	 0.000238	 0.000000	 0.000001	 0.000478	 0.000026	 0.000001	 0.000332	 0.000001	 0.000004	 0.000470	 0.000000	 0.000503	 0.000002	 0.000001
97.00	 0.000000	 0.000154	 0.000139	 0.000002	 0.000000	 0.000001	 0.000000	 0.000003	 0.000326	 0.000834	 0.000001	 0.000001	 0.000000	 0.000012	 0.000001	 0.000575	 0.000408	 0.000003	 0.000016	 0.000521	 0.000420	 0.000000	 0.000002	 0.000008	 0.000297	 0.000000	 0.000001	 0.000177	 0.000080	 0.000001	 0.000003	 0.000031	 0.000001	 0.000518	 0.000001	 0.000000	 0.000437	 0.000001	 0.000370	 0.000000	 0.000129	 0.000002	 0.000620	 0.000131	 0.000006	 0.000001	 0.000001	 0.000493	 0.000004	 0.000481	 0.000004	 0.000000	 0.000002	 0.000001	 0.000269	 0.000594	 0.000001	 0.000000	 0.000269	 0.000001
98.00	 0.000001	 0.000001	 0.000153	 0.000000	 0.000001	 0.000003	 0.000005	 0.000000	 0.000001	 0.000000	 0.000007	 0.000001	 0.000000	 0.000001	 0.000000	 0.000166	 0.000006	 0.000000	 0.000909	 0.000000	 0.000149	 0.000000	 0.000567	 0.000003	 0.000769	 0.000000	 0.000001	 0.000001	 0.001125	 0.000001	 0.000035	 0.000354	 0.000447	 0.000006	 0.000000	 0.000000	 0.000327	 0.000090	 0.000000	 0.000105	 0.000345	 0.000003	 0.000046	 0.000518	 0.000158	 0.000002	 0.000478	 0.001032	 0.000472	 0.000031	 0.000000	 0.000391	 0.000002	 0.000577	 0.000568	 0.000001	 0.000089	 0.000000	 0.000819	 0.000164
99.00	 0.000000	 0.000001	 0.000668	 0.000312	 0.000003	 0.000137	 0.000001	 0.000408	 0.000000	 0.000002	 0.000002	 0.000003	 0.000001	 0.000453	 0.000001	 0.000002	 0.000243	 0.000280	 0.000623	 0.000000	 0.000002	 0.000000	 0.000005	 0.000116	 0.000422	 0.000000	 0.000000	 0.000001	 0.000685	 0.000001	 0.000077	 0.000087	 0.000000	 0.000001	 0.000000	 0.000000	 0.000031	 0.000000	 0.000003	 0.000003	 0.000000	 0.000325	 0.000946	 0.000002	 0.000002	 0.000550	 0.000160	 0.001083	 0.000002	 0.000407	 0.000001	 0.000117	 0.000505	 0.000108	 0.000005	 0.000001	 0.000328	 0.000000	 0.000388	 0.000001
100.00	 0.000001	 0.000124	 0.000093	 0.000003	 0.000005	 0.000053	 0.000005	 0.000066	 0.000001	 0.000002	 0.000001	 0.000060	 0.000001	 0.000700	 0.000000	 0.000370	 0.000001	 0.000600	 0.000000	 0.000000	 0.000000	 0.000000	 0.000785	 0.000194	 0.000001	 0.000000	 0.000097	 0.000454	 0.000003	 0.000001	 0.000000	 0.000405	 0.000000	 0.000010	 0.000002	 0.000001	 0.000001	 0.000001	 0.000001	 0.000528	 0.000000	 0.000004	 0.000004	 0.000000	 0.000001	 0.000610	 0.000000	 0.000001	 0.000410	 0.000292	 0.000000	 0.000398	 0.000417	 0.000002	 0.000001	 0.000001	 0.000326	 0.000000	 0.000486	 0.000494
101.00	 0.000326	 0.000508	 0.000987	 0.000001	 0.000006	 0.000005	 0.000001	 0.000502	 0.000006	 0.000000	 0.000002	 0.000001	 0.000000	 0.000001	 0.000000	 0.000000	 0.000005	 0.000003	 0.000001	 0.000000	 0.000044	 0.000000	 0.000381	 0.000398	 0.000001	 0.000000	 0.000000	 0.000275	 0.000001	 0.000732	 0.000002	 0.000000	 0.000238	 0.000902	 0.000637	 0.000000	 0.000214	 0.000000	 0.000001	 0.000002	 0.000269	 0.000477	 0.000313	 0.000000	 0.000817	 0.000001	 0.000290	 0.000000	 0.000001	 0.000086	 0.000024	 0.000111	 0.000000	 0.000001	 0.000001	 0.000000	 0.000524	 0.000000	 0.000000	 0.000150
102.00	 0.000002	 0.000001	 0.000690	 0.000000	 0.000001	 0.000002	 0.000297	 0.000236	 0.000001	 0.000009	 0.000009	 0.000504	 0.000002	 0.000001	 0.000000	 0.000003	 0.000075	 0.000098	 0.000011	 0.000000	 0.000680	 0.000000	 0.000040	 0.000000	 0.000001	 0.000000	 0.000001	 0.000371	 0.000002	 0.000458	 0.000001	 0.000097	 0.000002	 0.000001	 0.000000	 0.000000	 0.000234	 0.000001	 0.000013	 0.000088	 0.000001	 0.000000	 0.000284	 0.000001	 0.000540	 0.000532	 0.000245	 0.000000	 0.000116	 0.000083	 0.000172	 0.000001	 0.000438	 0.000001	 0.000320	 0.000001	 0.000007	 0.000000	 0.000000	 0.000770
103.00	 0.000077	 0.000262	 0.000259	 0.000001	 0.000002	 0.000304	 0.000478	 0.000000	 0.000002	 0.000004	 0.000002	 0.000393	 0.000002	 0.000010	 0.000000	 0.000001	 0.000007	 0.000003	 0.000001	 0.000001	 0.000000	 0.000000	 0.000002	 0.000000	 0.000001	 0.000000	 0.000001	 0.000185	 0.000003	 0.000532	 0.000256	 0.000394	 0.000244	 0.000002	 0.000001	 0.000000	 0.000861	 0.000004	 0.000330	 0.000002	 0.000003	 0.000569	 0.000059	 0.000000	 0.000001	 0.000001	 0.000122	 0.000000	 0.000884	 0.000029	 0.000001	 0.000262	 0.000735	 0.000001	 0.000008	 0.000003	 0.000015	 0.000002	 0.000001	 0.000017
104.00	 0.000002	 0.000859	 0.000640	 0.000291	 0.001316	 0.000271	 0.000030	 0.000001	 0.000007	 0.000001	 0.000032	 0.000436	 0.000001	 0.000001	 0.000000	 0.000470	 0.000001	 0.000506	 0.000291	 0.000027	 0.000001	 0.000000	 0.000763	 0.000001	 0.000003	 0.000000	 0.000012	 0.000681	 0.000002	 0.000003	 0.001086	 0.000186	 0.000614	 0.000097	 0.000001	 0.000000	 0.000003	 0.000370	 0.000282	 0.000002	 0.000029	 0.000000	 0.000322	 0.000001	 0.000623	 0.000001	 0.000373	 0.000080	 0.000336	 0.000364	 0.000001	 0.000774	 0.000001	 0.000001	 0.000019	 0.000001	 0.000693	 0.000041	 0.000000	 0.000001
105.00	 0.000004	 0.000249	 0.000001	 0.000549	 0.000489	 0.000396	 0.000001	 0.000010	 0.000735	 0.000574	 0.000008	 0.000176	 0.000002	 0.000001	 0.000000	 0.000003	 0.000001	 0.000617	 0.000011	 0.000001	 0.000343	 0.000000	 0.000289	 0.000129	 0.000005	 0.000000	 0.000001	 0.000001	 0.000000	 0.000002	 0.000001	 0.000005	 0.000001	 0.000001	 0.000001	 0.000000	 0.000001	 0.000809	 0.000914	 0.000028	 0.000817	 0.000001	 0.000020	 0.000000	 0.000398	 0.000001	 0.000416	 0.000188	 0.000766	 0.000706	 0.000357	 0.000193	 0.000000	 0.000270	 0.000204	 0.000003	 0.000474	 0.000675	 0.000003	 0.000003
106.00	 0.000761	 0.000000	 0.000000	 0.000862	 0.000001	 0.000001	 0.000011	 0.000441	 0.000001	 0.000254	 0.000398	 0.000002	 0.000001	 0.000254	 0.000000	 0.000584	 0.000002	 0.001051	 0.000003	 0.000001	 0.000001	 0.000000	 0.000015	 0.000159	 0.000001	 0.000000	 0.000001	 0.000004	 0.000001	 0.000001	 0.000376	 0.000905	 0.000000	 0.000001	 0.000000	 0.000216	 0.000001	 0.000001	 0.000854	 0.000291	 0.000001	 0.000002	 0.000763	 0.000000	 0.000000	 0.000004	 0.000000	 0.000921	 0.000000	 0.000005	 0.001002	 0.000002	 0.000301	 0.000000	 0.000538	 0.000001	 0.000370	 0.000522	 0.000144	 0.000050
107.00	 0.001055	 0.000004	 0.000001	 0.000001	 0.000004	 0.000806	 0.000187	 0.000001	 0.000111	 0.000001	 0.000002	 0.000007	 0.000001	 0.000000	 0.000000	 0.000002	 0.000517	 0.000000	 0.000165	 0.000002	 0.000596	 0.000000	 0.000008	 0.000066	 0.000001	 0.000000	 0.000000	 0.000395	 0.000000	 0.000000	 0.000001	 0.000001	 0.000001	 0.000001	 0.000000	 0.000049	 0.000192	 0.000001	 0.000141	 0.000601	 0.000000	 0.001004	 0.000007	 0.000000	 0.000309	 0.000004	 0.000001	 0.000001	 0.000001	 0.000157	 0.000002	 0.000006	 0.000001	 0.000001	 0.000194	 0.000001	 0.001083	 0.000198	 0.000008	 0.000212
108.00	 0.000116	 0.000027	 0.000001	 0.000001	 0.000091	 0.000223	 0.000098	 0.000068	 0.000443	 0.000001	 0.000006	 0.000003	 0.000001	 0.000001	 0.000000	 0.000012	 0.000001	 0.000000	 0.000039	 0.000037	 0.000001	 0.000000	 0.000001	 0.000954	 0.000006	 0.000000	 0.000000	 0.000082	 0.000001	 0.000000	 0.000000	 0.000001	 0.000001	 0.000277	 0.000757	 0.000001	 0.000002	 0.000001	 0.000000	 0.000752	 0.000001	 0.000224	 0.000001	 0.000018	 0.000348	 0.000002	 0.000000	 0.000001	 0.000001	 0.000109	 0.000236	 0.000005	 0.000002	 0.000001	 0.000796	 0.000506	 0.000203	 0.000138	 0.000003	 0.000000
109.00	 0.000270	 0.000001	 0.000000	 0.000005	 0.000413	 0.000001	 0.000253	 0.000001	 0.000408	 0.000010	 0.000327	 0.000142	 0.000698	 0.000015	 0.000000	 0.000001	 0.000008	 0.000000	 0.000004	 0.000006	 0.000104	 0.000000	 0.000293	 0.000001	 0.000418	 0.000000	 0.000001	 0.000001	 0.000003	 0.000001	 0.000001	 0.000001	 0.000523	 0.001361	 0.000000	 0.000001	 0.000188	 0.000001	 0.000000	 0.000002	 0.000350	 0.000383	 0.000005	 0.000021	 0.000004	 0.000052	 0.000002	 0.000001	 0.000001	 0.000001	 0.000001	 0.000001	 0.000086	 0.000001	 0.000625	 0.000001	 0.000003	 0.000002	 0.000011	 0.000002
110.00	 0.000214	 0.000965	 0.000129	 0.000659	 0.000359	 0.000000	 0.000335	 0.000337	 0.000000	 0.000001	 0.001132	 0.000001	 0.001005	 0.000947	 0.000000	 0.000001	 0.000004	 0.000000	 0.000002	 0.000008	 0.001066	 0.000000	 0.000000	 0.000000	 0.000007	 0.000001	 0.000000	 0.000001	 0.000742	 0.000001	 0.000132	 0.000002	 0.000312	 0.000774	 0.000058	 0.000496	 0.000001	 0.000001	 0.000001	 0.000572	 0.000003	 0.000045	 0.000006	 0.000347	 0.000113	 0.001328	 0.000003	 0.000426	 0.000284	 0.000000	 0.000001	 0.000001	 0.000162	 0.000000	 0.000147	 0.000001	 0.000001	 0.000001	 0.000490	 0.000002
111.00	 0.000003	 0.000751	 0.000186	 0.000001	 0.000006	 0.000000	 0.000393	 0.000067	 0.000001	 0.000007	 0.000813	 0.000460	 0.000220	 0.000005	 0.000000	 0.000001	 0.000168	 0.000000	 0.000001	 0.000001	 0.000321	 0.000001	 0.000000	 0.000001	 0.000209	 0.000001	 0.000002	 0.000001	 0.000323	 0.000275	 0.000001	 0.000482	 0.000000	 0.000000	 0.000070	 0.000001	 0.000002	 0.000002	 0.000072	 0.000002	 0.000001	 0.000000	 0.000002	 0.000002	 0.000000	 0.000001	 0.000003	 0.000351	 0.000001	 0.000278	 0.000302	 0.000001	 0.000002	 0.000003	 0.000000	 0.000503	 0.000000	 0.000001	 0.000003	 0.000383
112.00	 0.000001	 0.000300	 0.000002	 0.000000	 0.000304	 0.000002	 0.000001	 0.000618	 0.000001	 0.000001	 0.000000	 0.000560	 0.000522	 0.000001	 0.000000	 0.000640	 0.000001	 0.000164	 0.000152	 0.000025	 0.000002	 0.000000	 0.000000	 0.000005	 0.000001	 0.000033	 0.000875	 0.000001	 0.001035	 0.000000	 0.000978	 0.000057	 0.000001	 0.000001	 0.000803	 0.000000	 0.000298	 0.000506	 0.000005	 0.000002	 0.000751	 0.000000	 0.000001	 0.000724	 0.000058	 0.000009	 0.000001	 0.000001	 0.000000	 0.000437	 0.000201	 0.000001	 0.000002	 0.000005	 0.000000	 0.000074	 0.000002	 0.000001	 0.000001	 0.000001
113.00	 0.000001	 0.000000	 0.000502	 0.000000	 0.000673	 0.000157	 0.000000	 0.000001	 0.000001	 0.000815	 0.000003	 0.000001	 0.000000	 0.000001	 0.000000	 0.000074	 0.000527	 0.000648	 0.000001	 0.000002	 0.000004	 0.000000	 0.000426	 0.000480	 0.000461	 0.000032	 0.000004	 0.000498	 0.000003	 0.000003	 0.000024	 0.000001	 0.000003	 0.000001	 0.000343	 0.000028	 0.000251	 0.000000	 0.000321	 0.000371	 0.000001	 0.000000	 0.000520	 0.000004	 0.000004	 0.000550	 0.000001	 0.000000	 0.000001	 0.000652	 0.000001	 0.000058	 0.000880	 0.000002	 0.000000	 0.000338	 0.000002	 0.000515	 0.000001	 0.000090
114.00	 0.000001	 0.000000	 0.000243	 0.000000	 0.000001	 0.000590	 0.000516	 0.000001	 0.000001	 0.001151	 0.000000	 0.000001	 0.000001	 0.000553	 0.000001	 0.000285	 0.000239	 0.000280	 0.000000	 0.000198	 0.000001	 0.000000	 0.000000	 0.000000	 0.000001	 0.000548	 0.000002	 0.000148	 0.000416	 0.000006	 0.000001	 0.000709	 0.000001	 0.000002	 0.000173	 0.000571	 0.000000	 0.000409	 0.000796	 0.000202	 0.000001	 0.000002	 0.000024	 0.000347	 0.000279	 0.000686	 0.000740	 0.000000	 0.000000	 0.001059	 0.000001	 0.000198	 0.000065	 0.000848	 0.000002	 0.000518	 0.000273	 0.000961	 0.000000	 0.000634
115.00	 0.000001	 0.000001	 0.000094	 0.000000	 0.000076	 0.000867	 0.000003	 0.000069	 0.000001	 0.000000	 0.000002	 0.000000	 0.000002	 0.000416	 0.000000	 0.000000	 0.000800	 0.000003	 0.000004	 0.000001	 0.000000	 0.000000	 0.000001	 0.000008	 0.000001	 0.000200	 0.000099	 0.000005	 0.000004	 0.000002	 0.000381	 0.000002	 0.000237	 0.000064	 0.000526	 0.000002	 0.000001	 0.000460	 0.000403	 0.000001	 0.000001	 0.000389	 0.000141	 0.000004	 0.000016	 0.000001	 0.000004	 0.000000	 0.000001	 0.000000	 0.000000	 0.000002	 0.000492	 0.000168	 0.000234	 0.000000	 0.000900	 0.000000	 0.000000	 0.000001
116.00	 0.000172	 0.000001	 0.000005	 0.000006	 0.000001	 0.000004	 0.000000	 0.000500	 0.000658	 0.000001	 0.000122	 0.000000	 0.000088	 0.000001	 0.000000	 0.000001	 0.000930	 0.000046	 0.000556	 0.001256	 0.000001	 0.000000	 0.000001	 0.000001	 0.000000	 0.000560	 0.000001	 0.000004	 0.000005	 0.000000	 0.000002	 0.000001	 0.000004	 0.000008	 0.000005	 0.000527	 0.000354	 0.000419	 0.000000	 0.000127	 0.000001	 0.000523	 0.000002	 0.000001	 0.000000	 0.000001	 0.000472	 0.000000	 0.000002	 0.000001	 0.000002	 0.000001	 0.000001	 0.000000	 0.000002	 0.000026	 0.000000	 0.000001	 0.000001	 0.000309
117.00	 0.000136	 0.000542	 0.000304	 0.000417	 0.000001	 0.000001	 0.000009	 0.000434	 0.000171	 0.000003	 0.000000	 0.000000	 0.000002	 0.000001	 0.000000	 0.000001	 0.000002	 0.000298	 0.000087	 0.000003	 0.000202	 0.000000	 0.000160	 0.000004	 0.000001	 0.000000	 0.000137	 0.000002	 0.000001	 0.000162	 0.000002	 0.000455	 0.000001	 0.000001	 0.000253	 0.000001	 0.000052	 0.000001	 0.000000	 0.000000	 0.000001	 0.000001	 0.000000	 0.000086	 0.000001	 0.000006	 0.000001	 0.000000	 0.000141	 0.000455	 0.000001	 0.000013	 0.000001	 0.000151	 0.000020	 0.000609	 0.000000	 0.000000	 0.000002	 0.000178
118.00	 0.000311	 0.000128	 0.000286	 0.000005	 0.000640	 0.000000	 0.000836	 0.000329	 0.000016	 0.000001	 0.000002	 0.000001	 0.000002	 0.000055	 0.000002	 0.000012	 0.000001	 0.000094	 0.000794	 0.000188	 0.000565	 0.000000	 0.000000	 0.000148	 0.000328	 0.000003	 0.000398	 0.000001	 0.000001	 0.001375	 0.000001	 0.000508	 0.000001	 0.000001	 0.000002	 0.000038	 0.000001	 0.000361	 0.000000	 0.000001	 0.000002	 0.000116	 0.000000	 0.000750	 0.000002	 0.000001	 0.000138	 0.000186	 0.000787	 0.000001	 0.000012	 0.000002	 0.000001	 0.000277	 0.000001	 0.000756	 0.000001	 0.000000	 0.000546	 0.000373
119.00	 0.000001	 0.000133	 0.000423	 0.000026	 0.000000	 0.000132	 0.000000	 0.000883	 0.000000	 0.000001	 0.000611	 0.000385	 0.000000	 0.000005	 0.000799	 0.000561	 0.000001	 0.000001	 0.000166	 0.000237	 0.000001	 0.000043	 0.000470	 0.000001	 0.000551	 0.000001	 0.000284	 0.000009	 0.000001	 0.000329	 0.000905	 0.000350	 0.000002	 0.000127	 0.000692	 0.000136	 0.000001	 0.000002	 0.000199	 0.000003	 0.000001	 0.000740	 0.000022	 0.000005	 0.000003	 0.000002	 0.000556	 0.000000	 0.000001	 0.000611	 0.000593	 0.000380	 0.000394	 0.000403	 0.000025	 0.000000	 0.000001	 0.000001	 0.000002	 0.000449
120.00	 0.000376	 0.000001	 0.000001	 0.000012	 0.000005	 0.000408	 0.000000	 0.000000	 0.000001	 0.000001	 0.000133	 0.000472	 0.000128	 0.000001	 0.000003	 0.000001	 0.000018	 0.000000	 0.000001	 0.000685	 0.000002	 0.000029	 0.000050	 0.000001	 0.000048	 0.000002	 0.000853	 0.000802	 0.000000	 0.000000	 0.000001	 0.000001	 0.000425	 0.000001	 0.000006	 0.000002	 0.001068	 0.000000	 0.000001	 0.000493	 0.000000	 0.000609	 0.000012	 0.000641	 0.000180	 0.000324	 0.000009	 0.000001	 0.000001	 0.000002	 0.000000	 0.000902	 0.000251	 0.000001	 0.000009	 0.000001	 0.000002	 0.000001	 0.000000	 0.000005
121.00	 0.000450	 0.000001	 0.000253	 0.000767	 0.000461	 0.000001	 0.000003	 0.000001	 0.000565	 0.000001	 0.000021	 0.000000	 0.000002	 0.000761	 0.000554	 0.000003	 0.000182	 0.000002	 0.000001	 0.000766	 0.000001	 0.000211	 0.000000	 0.000002	 0.000539	 0.000002	 0.000198	 0.000000	 0.000002	 0.000508	 0.000027	 0.000007	 0.000402	 0.000001	 0.000036	 0.000575	 0.000567	 0.000001	 0.000006	 0.000074	 0.000001	 0.000000	 0.000423	 0.000113	 0.000758	 0.000201	 0.000777	 0.000035	 0.000005	 0.000030	 0.000001	 0.000378	 0.000291	 0.000001	 0.000024	 0.000003	 0.000001	 0.000093	 0.000000	 0.000001
122.00	 0.000001	 0.000001	 0.000043	 0.000001	 0.000002	 0.000002	 0.000240	 0.000614	 0.000575	 0.000001	 0.000001	 0.000001	 0.000330	 0.000002	 0.000000	 0.000218	 0.000000	 0.000003	 0.000005	 0.000653	 0.000712	 0.000839	 0.000000	 0.000001	 0.000234	 0.000001	 0.000252	 0.000003	 0.000003	 0.000001	 0.000269	 0.000000	 0.000336	 0.000136	 0.000285	 0.000002	 0.000210	 0.000000	 0.000062	 0.000009	 0.000044	 0.000000	 0.000530	 0.000320	 0.000106	 0.000753	 0.000352	 0.000063	 0.000002	 0.000116	 0.000573	 0.000096	 0.000237	 0.000409	 0.000064	 0.000002	 0.000001	 0.000641	 0.000522	 0.000088
123.00	 0.000001	 0.000001	 0.000001	 0.000001	 0.000002	 0.000000	 0.000001	 0.000003	 0.000609	 0.000006	 0.000001	 0.000001	 0.000521	 0.000009	 0.000001	 0.000180	 0.000000	 0.000436	 0.000333	 0.000000	 0.000518	 0.000000	 0.000001	 0.000001	 0.000001	 0.000001	 0.000001	 0.000009	 0.000380	 0.000002	 0.000002	 0.000000	 0.000002	 0.000001	 0.000834	 0.000185	 0.000000	 0.000001	 0.000001	 0.000001	 0.000604	 0.000001	 0.000722	 0.000003	 0.000001	 0.000003	 0.000128	 0.000221	 0.000306	 0.000400	 0.000003	 0.000001	 0.000001	 0.000001	 0.001082	 0.000145	 0.000064	 0.000059	 0.000002	 0.000001
124.00	 0.000006	 0.000001	 0.000002	 0.000002	 0.000001	 0.000249	 0.000321	 0.000032	 0.000003	 0.000444	 0.000119	 0.000001	 0.000001	 0.000561	 0.000001	 0.000356	 0.000000	 0.000468	 0.000072	 0.000001	 0.000475	 0.000000	 0.000055	 0.000000	 0.000489	 0.000004	 0.000572	 0.000000	 0.000295	 0.000001	 0.000002	 0.000001	 0.000324	 0.000700	 0.000107	 0.000496	 0.000017	 0.000012	 0.000013	 0.000005	 0.000003	 0.000002	 0.000001	 0.000000	 0.000001	 0.000005	 0.000096	 0.000009	 0.000001	 0.000001	 0.000585	 0.000000	 0.000001	 0.000003	 0.000597	 0.000003	 0.000204	 0.000001	 0.000210	 0.000002
125.00	 0.000819	 0.000001	 0.000002	 0.000058	 0.000003	 0.000001	 0.000001	 0.000001	 0.000000	 0.000002	 0.000447	 0.000410	 0.000169	 0.000174	 0.000001	 0.000001	 0.000000	 0.000000	 0.000382	 0.000002	 0.000001	 0.000000	 0.000659	 0.000001	 0.000829	 0.000161	 0.000021	 0.000311	 0.000010	 0.000001	 0.000077	 0.000002	 0.000526	 0.000100	 0.000000	 0.000002	 0.000001	 0.000000	 0.000406	 0.000002	 0.000456	 0.000407	 0.000002	 0.000001	 0.000001	 0.000562	 0.000184	 0.000026	 0.000001	 0.000000	 0.000475	 0.000003	 0.000002	 0.000001	 0.000001	 0.000007	 0.000006	 0.000000	 0.000396	 0.000284
126.00	 0.000559	 0.000302	 0.000001	 0.000004	 0.000515	 0.000001	 0.000000	 0.000000	 0.000001	 0.000006	 0.000004	 0.000010	 0.000001	 0.000451	 0.000001	 0.000006	 0.000003	 0.000000	 0.000071	 0.000509	 0.000001	 0.000000	 0.001138	 0.000470	 0.000129	 0.000007	 0.000002	 0.000004	 0.000575	 0.000002	 0.000655	 0.000046	 0.000584	 0.000613	 0.000000	 0.000451	 0.000075	 0.000369	 0.000319	 0.000002	 0.000485	 0.000002	 0.000006	 0.000003	 0.000001	 0.000000	 0.000122	 0.000643	 0.000132	 0.000000	 0.000682	 0.000001	 0.000014	 0.000205	 0.000001	 0.000308	 0.000002	 0.000000	 0.000002	 0.000001
127.00	 0.000000	 0.001038	 0.000700	 0.000338	 0.000001	 0.000002	 0.000001	 0.000269	 0.000030	 0.000005	 0.000000	 0.000893	 0.000199	 0.000030	 0.000247	 0.000008	 0.000002	 0.000001	 0.000002	 0.000000	 0.000000	 0.000000	 0.000146	 0.000381	 0.000000	 0.000001	 0.000001	 0.000567	 0.000351	 0.000001	 0.000089	 0.000519	 0.000001	 0.000001	 0.000001	 0.000880	 0.000000	 0.000789	 0.000295	 0.000001	 0.000577	 0.000001	 0.000131	 0.000001	 0.000116	 0.000000	 0.000155	 0.000538	 0.000005	 0.000003	 0.000000	 0.000028	 0.000261	 0.001263	 0.000001	 0.000002	 0.000001	 0.000001	 0.000001	 0.000189
128.00	 0.000001	 0.000001	 0.000001	 0.000001	 0.000000	 0.000001	 0.000001	 0.000003	 0.000001	 0.000153	 0.000001	 0.000002	 0.000084	 0.000001	 0.000702	 0.000001	 0.000738	 0.000132	 0.000001	 0.000001	 0.000001	 0.000002	 0.000003	 0.000001	 0.000001	 0.000079	 0.000598	 0.000189	 0.000001	 0.000544	 0.000345	 0.000632	 0.000002	 0.000156	 0.000255	 0.000327	 0.000002	 0.000000	 0.000838	 0.001034	 0.000069	 0.000337	 0.000048	 0.000001	 0.000001	 0.000345	 0.000745	 0.000978	 0.000232	 0.000001	 0.000001	 0.000001	 0.000130	 0.000729	 0.000001	 0.000001	 0.000001	 0.000002	 0.000002	 0.000362
129.00	 0.000002	 0.000001	 0.000001	 0.000002	 0.000000	 0.000537	 0.000000	 0.000038	 0.000000	 0.000005	 0.000001	 0.000000	 0.000001	 0.000173	 0.000000	 0.000001	 0.000578	 0.000001	 0.000000	 0.000001	 0.000001	 0.000603	 0.000001	 0.000040	 0.000072	 0.000648	 0.000021	 0.000262	 0.000001	 0.000002	 0.000776	 0.000187	 0.000001	 0.000297	 0.000002	 0.000001	 0.000000	 0.000054	 0.000000	 0.000591	 0.000007	 0.000104	 0.000002	 0.000171	 0.000001	 0.000010	 0.000000	 0.000000	 0.000614	 0.000083	 0.000087	 0.000001	 0.000000	 0.000180	 0.000007	 0.000107	 0.000006	 0.000014	 0.000900	 0.000003
130.00	 0.000030	 0.000000	 0.000002	 0.000002	 0.000190	 0.000380	 0.000339	 0.000006	 0.000000	 0.000390	 0.000000	 0.000000	 0.000000	 0.000960	 0.000001	 0.000013	 0.000186	 0.000001	 0.000296	 0.000001	 0.000129	 0.000151	 0.000001	 0.000334	 0.000062	 0.000000	 0.000019	 0.000194	 0.000001	 0.000002	 0.000373	 0.000109	 0.000261	 0.000001	 0.000294	 0.000001	 0.000000	 0.000001	 0.000000	 0.000949	 0.000340	 0.000016	 0.000454	 0.000983	 0.000556	 0.000031	 0.000002	 0.000000	 0.000001	 0.000001	 0.000381	 0.000720	 0.000001	 0.000117	 0.000001	 0.000720	 0.000433	 0.000235	 0.000498	 0.000839
131.00	 0.000003	 0.000010	 0.000001	 0.000002	 0.000707	 0.000002	 0.000467	 0.000000	 0.000008	 0.000591	 0.000318	 0.000000	 0.000008	 0.000733	 0.000002	 0.000774	 0.000102	 0.000001	 0.000540	 0.000000	 0.000150	 0.000001	 0.000676	 0.000000	 0.000002	 0.000001	 0.000003	 0.000703	 0.000001	 0.000293	 0.000033	 0.000007	 0.000004	 0.000001	 0.000663	 0.000360	 0.000086	 0.000003	 0.000001	 0.000001	 0.000011	 0.000003	 0.000196	 0.001206	 0.000274	 0.000000	 0.000541	 0.000000	 0.000627	 0.000002	 0.000712	 0.000246	 0.000272	 0.000001	 0.000000	 0.000124	 0.000017	 0.000003	 0.000020	 0.000183
132.00	 0.000316	 0.000101	 0.000001	 0.000877	 0.000564	 0.000120	 0.000006	 0.000006	 0.000462	 0.000887	 0.000002	 0.000000	 0.000001	 0.000253	 0.000001	 0.000157	 0.000529	 0.000003	 0.000613	 0.000002	 0.000623	 0.000001	 0.000000	 0.000001	 0.000393	 0.000697	 0.000081	 0.000001	 0.000002	 0.000163	 0.000000	 0.000202	 0.000648	 0.000000	 0.000000	 0.000117	 0.000002	 0.000001	 0.000002	 0.000000	 0.000001	 0.000100	 0.000000	 0.000003	 0.000327	 0.000001	 0.000062	 0.000000	 0.000473	 0.000576	 0.000002	 0.000606	 0.000368	 0.000001	 0.000498	 0.000124	 0.000368	 0.000128	 0.000376	 0.000120
133.00	 0.000728	 0.000001	 0.000001	 0.000001	 0.000003	 0.000004	 0.000007	 0.000141	 0.000310	 0.000419	 0.000001	 0.000001	 0.000225	 0.000000	 0.000001	 0.000067	 0.000315	 0.000527	 0.000001	 0.000011	 0.000672	 0.000001	 0.000002	 0.000003	 0.000461	 0.000444	 0.000800	 0.000000	 0.000312	 0.000001	 0.000349	 0.000002	 0.000080	 0.000001	 0.000004	 0.000004	 0.000669	 0.000002	 0.000001	 0.000000	 0.000551	 0.000000	 0.000001	 0.000001	 0.000003	 0.000002	 0.000101	 0.000001	 0.000002	 0.000353	 0.000001	 0.000002	 0.000610	 0.000001	 0.000001	 0.000001	 0.000002	 0.000677	 0.000001	 0.000310
134.00	 0.000645	 0.000105	 0.000002	 0.000001	 0.000002	 0.000600	 0.000002	 0.000194	 0.000691	 0.000171	 0.000066	 0.000260	 0.000574	 0.000179	 0.000000	 0.000255	 0.000001	 0.000358	 0.000168	 0.000044	 0.000000	 0.000025	 0.000066	 0.000002	 0.000001	 0.000248	 0.000000	 0.000001	 0.000150	 0.000001	 0.000000	 0.000476	 0.000000	 0.000444	 0.000001	 0.000270	 0.000001	 0.000457	 0.000103	 0.000000	 0.000010	 0.000013	 0.000001	 0.000002	 0.000115	 0.000880	 0.000904	 0.000001	 0.000001	 0.000006	 0.000138	 0.000000	 0.000001	 0.000000	 0.000035	 0.000733	 0.000334	 0.000918	 0.000006	 0.000143
135.00	 0.000376	 0.000108	 0.000001	 0.000242	 0.000315	 0.000370	 0.000107	 0.000179	 0.000001	 0.000107	 0.000584	 0.000437	 0.000058	 0.000000	 0.000001	 0.000001	 0.000007	 0.000003	 0.000380	 0.000506	 0.000000	 0.000488	 0.000001	 0.000175	 0.000001	 0.000000	 0.000000	 0.000001	 0.000372	 0.000783	 0.000001	 0.000844	 0.000000	 0.000117	 0.000001	 0.000003	 0.000958	 0.000464	 0.000636	 0.000001	 0.000001	 0.000003	 0.000001	 0.000000	 0.000001	 0.000205	 0.000006	 0.000000	 0.000001	 0.000342	 0.000121	 0.000000	 0.000001	 0.000001	 0.000535	 0.000003	 0.000968	 0.000016	 0.000001	 0.000267
136.00	 0.000000	 0.000449	 0.000002	 0.000001	 0.000951	 0.000001	 0.000000	 0.000047	 0.000001	 0.000002	 0.000002	 0.000000	 0.000000	 0.000000	 0.000000	 0.000001	 0.000010	 0.000001	 0.000003	 0.000213	 0.000000	 0.000412	 0.000020	 0.000039	 0.000001	 0.000002	 0.000007	 0.000328	 0.000257	 0.000001	 0.000001	 0.000001	 0.000000	 0.000548	 0.000120	 0.000101	 0.000004	 0.000001	 0.000001	 0.000003	 0.000001	 0.000814	 0.000001	 0.000002	 0.000004	 0.000001	 0.000000	 0.000000	 0.000005	 0.000607	 0.000001	 0.000013	 0.000477	 0.000538	 0.000295	 0.000009	 0.000722	 0.000002	 0.000002	 0.000646
137.00	 0.000000	 0.000004	 0.000002	 0.000001	 0.000336	 0.000013	 0.000440	 0.000001	 0.000139	 0.000001	 0.000001	 0.000003	 0.000375	 0.000002	 0.000001	 0.000002	 0.000014	 0.000001	 0.000300	 0.000311	 0.000001	 0.000001	 0.000063	 0.000205	 0.000563	 0.000144	 0.000044	 0.000281	 0.000176	 0.000000	 0.000195	 0.000004	 0.000000	 0.000097	 0.000000	 0.000001	 0.000714	 0.000001	 0.000000	 0.000436	 0.000704	 0.000001	 0.000274	 0.000000	 0.000000	 0.000000	 0.000000	 0.000002	 0.000070	 0.000042	 0.000239	 0.000547	 0.000666	 0.000179	 0.000638	 0.000005	 0.000004	 0.000046	 0.000002	 0.000001
138.00	 0.000001	 0.000141	 0.000350	 0.000000	 0.000302	 0.000492	 0.000004	 0.000001	 0.000000	 0.000233	 0.000626	 0.000982	 0.000002	 0.000005	 0.000523	 0.000001	 0.000160	 0.000272	 0.000152	 0.000267	 0.000219	 0.000215	 0.000001	 0.000002	 0.000001	 0.000001	 0.000848	 0.000557	 0.000480	 0.000001	 0.000316	 0.000029	 0.000000	 0.000391	 0.000000	 0.000001	 0.000001	 0.000442	 0.000005	 0.000319	 0.000002	 0.000003	 0.001193	 0.000000	 0.000000	 0.000001	 0.000000	 0.000289	 0.000000	 0.000001	 0.000001	 0.000000	 0.000001	 0.000867	 0.000648	 0.000430	 0.000249	 0.000227	 0.000489	 0.000001
139.00	 0.000201	 0.000001	 0.000268	 0.000007	 0.000000	 0.000024	 0.000001	 0.000274	 0.000000	 0.000000	 0.000002	 0.000001	 0.000001	 0.000003	 0.000001	 0.000343	 0.000121	 0.000416	 0.000421	 0.000638	 0.000337	 0.000897	 0.000052	 0.000442	 0.000042	 0.000233	 0.000002	 0.000002	 0.000582	 0.000245	 0.000011	 0.000005	 0.000001	 0.000642	 0.000108	 0.000031	 0.000565	 0.000273	 0.000001	 0.000005	 0.000003	 0.000001	 0.000001	 0.000001	 0.000002	 0.000532	 0.000050	 0.000001	 0.000001	 0.000229	 0.000000	 0.000007	 0.000000	 0.000000	 0.000001	 0.000001	 0.000004	 0.000001	 0.000657	 0.000002
140.00	 0.000000	 0.000001	 0.000001	 0.000769	 0.000001	 0.000513	 0.000090	 0.000777	 0.000000	 0.000001	 0.000004	 0.000000	 0.000509	 0.000001	 0.000264	 0.000313	 0.000002	 0.000045	 0.000822	 0.000000	 0.000355	 0.000001	 0.000012	 0.000708	 0.000016	 0.000128	 0.000419	 0.000768	 0.000073	 0.000912	 0.000015	 0.000280	 0.000001	 0.000001	 0.000001	 0.000366	 0.000513	 0.000779	 0.000003	 0.000007	 0.000004	 0.000001	 0.000001	 0.000001	 0.000526	 0.000002	 0.000001	 0.000000	 0.000011	 0.000000	 0.000000	 0.000001	 0.000246	 0.000000	 0.000007	 0.000000	 0.000001	 0.000001	 0.000004	 0.000001
141.00	 0.000000	 0.000078	 0.000326	 0.000219	 0.000001	 0.000763	 0.000001	 0.000730	 0.000001	 0.000323	 0.000921	 0.000000	 0.000858	 0.000001	 0.000001	 0.000001	 0.000001	 0.000002	 0.000001	 0.000001	 0.000028	 0.000154	 0.000004	 0.000242	 0.000003	 0.000001	 0.000000	 0.000011	 0.000005	 0.000003	 0.000000	 0.000001	 0.000000	 0.000001	 0.000001	 0.000001	 0.000001	 0.000000	 0.000000	 0.000001	 0.000001	 0.000001	 0.000001	 0.000412	 0.001179	 0.000001	 0.000001	 0.000102	 0.001368	 0.000002	 0.000001	 0.000302	 0.000001	 0.000000	 0.000358	 0.000395	 0.000034	 0.000005	 0.000000	 0.000001
142.00	 0.000000	 0.000001	 0.000003	 0.000040	 0.000189	 0.000001	 0.000979	 0.000001	 0.000015	 0.000003	 0.000618	 0.000001	 0.000684	 0.000730	 0.000001	 0.000029	 0.000001	 0.000121	 0.000001	 0.000001	 0.000001	 0.000002	 0.000137	 0.000012	 0.000002	 0.000003	 0.000000	 0.000001	 0.000002	 0.000789	 0.000167	 0.000010	 0.000000	 0.000001	 0.000004	 0.000000	 0.000206	 0.000000	 0.000000	 0.000000	 0.000000	 0.000207	 0.000265	 0.000296	 0.000001	 0.000001	 0.000138	 0.000001	 0.000220	 0.000001	 0.000472	 0.000001	 0.000000	 0.000002	 0.000390	 0.000231	 0.000812	 0.000846	 0.000001	 0.000001
143.00	 0.000002	 0.000254	 0.000471	 0.000560	 0.000001	 0.000001	 0.000001	 0.000081	 0.000001	 0.000001	 0.000765	 0.000190	 0.000001	 0.000599	 0.000065	 0.000097	 0.000423	 0.000236	 0.000000	 0.000005	 0.000003	 0.000836	 0.000500	 0.000002	 0.000269	 0.000136	 0.000001	 0.000004	 0.000150	 0.000001	 0.000744	 0.000388	 0.000000	 0.000001	 0.000138	 0.000278	 0.000004	 0.000001	 0.000001	 0.000002	 0.000001	 0.001164	 0.000001	 0.000598	 0.000001	 0.000001	 0.000242	 0.000170	 0.000139	 0.000000	 0.000362	 0.000396	 0.000001	 0.000419	 0.000002	 0.000001	 0.000000	 0.000113	 0.000000	 0.000166
144.00	 0.000002	 0.000183	 0.001240	 0.000002	 0.000004	 0.000001	 0.000086	 0.000996	 0.000554	 0.000335	 0.000001	 0.000285	 0.000001	 0.000001	 0.000266	 0.001052	 0.000018	 0.000002	 0.000037	 0.000001	 0.000001	 0.000001	 0.000002	 0.000496	 0.000336	 0.000004	 0.000642	 0.000627	 0.000001	 0.000046	 0.000486	 0.000055	 0.000001	 0.000001	 0.000002	 0.000527	 0.000336	 0.000002	 0.000001	 0.000607	 0.000001	 0.000487	 0.000056	 0.000001	 0.000000	 0.000002	 0.000000	 0.000289	 0.000316	 0.000001	 0.000269	 0.000574	 0.000001	 0.000003	 0.000000	 0.000000	 0.000001	 0.000108	 0.000002	 0.000001
145.00	 0.000018	 0.000001	 0.000404	 0.000003	 0.000784	 0.000087	 0.000069	 0.000000	 0.000316	 0.000773	 0.000357	 0.000531	 0.000203	 0.000001	 0.000811	 0.000001	 0.000001	 0.000307	 0.000001	 0.000410	 0.000122	 0.000000	 0.000766	 0.000001	 0.000322	 0.000585	 0.000001	 0.000001	 0.000136	 0.000624	 0.000001	 0.000001	 0.000375	 0.000001	 0.000001	 0.000002	 0.000000	 0.000462	 0.000013	 0.000003	 0.000087	 0.000001	 0.000309	 0.000173	 0.000684	 0.000000	 0.000000	 0.000117	 0.000456	 0.000525	 0.000007	 0.000628	 0.000001	 0.000002	 0.000003	 0.000001	 0.000001	 0.000002	 0.000002	 0.000004
146.00	 0.000361	 0.000452	 0.000139	 0.000390	 0.000000	 0.000126	 0.000125	 0.000000	 0.000282	 0.000348	 0.000001	 0.000002	 0.000001	 0.000058	 0.000590	 0.000107	 0.000000	 0.000001	 0.000000	 0.000000	 0.000755	 0.000000	 0.000001	 0.000001	 0.000001	 0.000003	 0.000001	 0.000001	 0.000484	 0.000001	 0.000000	 0.000031	 0.000116	 0.000149	 0.000001	 0.000008	 0.000002	 0.000000	 0.000001	 0.000001	 0.000000	 0.000001	 0.000426	 0.000001	 0.000667	 0.000001	 0.000001	 0.000001	 0.000006	 0.000003	 0.000115	 0.000002	 0.000001	 0.000038	 0.000426	 0.000871	 0.000518	 0.000001	 0.000004	 0.000754
147.00	 0.000001	 0.000003	 0.000001	 0.000260	 0.000001	 0.000003	 0.000002	 0.000000	 0.000001	 0.000000	 0.000001	 0.000000	 0.000000	 0.000012	 0.000002	 0.000007	 0.000001	 0.000002	 0.000001	 0.000000	 0.000001	 0.000000	 0.000002	 0.000001	 0.000000	 0.000001	 0.000000	 0.000001	 0.000026	 0.000001	 0.000000	 0.000004	 0.000719	 0.000001	 0.000002	 0.000106	 0.000007	 0.000001	 0.000171	 0.000317	 0.000049	 0.000571	 0.000000	 0.000341	 0.000000	 0.000005	 0.000001	 0.000001	 0.000446	 0.000001	 0.000001	 0.000198	 0.000040	 0.000513	 0.000002	 0.000001	 0.000000	 0.000003	 0.000245	 0.000002
148.00	 0.000051	 0.000458	 0.000000	 0.000007	 0.000007	 0.000011	 0.000458	 0.000001	 0.000003	 0.000010	 0.000056	 0.000131	 0.000057	 0.000283	 0.000266	 0.000001	 0.000001	 0.001134	 0.000011	 0.000000	 0.000540	 0.000001	 0.000001	 0.000005	 0.000428	 0.000174	 0.000001	 0.000308	 0.000001	 0.000001	 0.000000	 0.000000	 0.000004	 0.000001	 0.000000	 0.000001	 0.000000	 0.000002	 0.000001	 0.000001	 0.000757	 0.000001	 0.000000	 0.000184	 0.000070	 0.000412	 0.000001	 0.000388	 0.000377	 0.000001	 0.000045	 0.000003	 0.000620	 0.000475	 0.000001	 0.000001	 0.000001	 0.000453	 0.000001	 0.000000
149.00	 0.000002	 0.000004	 0.000001	 0.000219	 0.000609	 0.000004	 0.000646	 0.000001	 0.000000	 0.000024	 0.000001	 0.001153	 0.000172	 0.000001	 0.000008	 0.000051	 0.000166	 0.000228	 0.000000	 0.000001	 0.000425	 0.000000	 0.000002	 0.000780	 0.000000	 0.000229	 0.000181	 0.000001	 0.000002	 0.000001	 0.000000	 0.000001	 0.000000	 0.000525	 0.000398	 0.000002	 0.000000	 0.000002	 0.000164	 0.000000	 0.000103	 0.000001	 0.000001	 0.000779	 0.000557	 0.001035	 0.000000	 0.000001	 0.000052	 0.000272	 0.000720	 0.000285	 0.000972	 0.000001	 0.000001	 0.000260	 0.000056	 0.000001	 0.000003	 0.000001
150.00	 0.000182	 0.000068	 0.000189	 0.000343	 0.000001	 0.000526	 0.000529	 0.000314	 0.000001	 0.000482	 0.000001	 0.000002	 0.000001	 0.000006	 0.000005	 0.000485	 0.000000	 0.000000	 0.000000	 0.000001	 0.000001	 0.000001	 0.000636	 0.000007	 0.000001	 0.000028	 0.000383	 0.000210	 0.000364	 0.000522	 0.000011	 0.000097	 0.000021	 0.000538	 0.000503	 0.000024	 0.000088	 0.000217	 0.001330	 0.000001	 0.000001	 0.000000	 0.000016	 0.000001	 0.000156	 0.000431	 0.000001	 0.000607	 0.000317	 0.000001	 0.000840	 0.000954	 0.000069	 0.000029	 0.000001	 0.000210	 0.000001	 0.000052	 0.001251	 0.000009
