 0.00	0.0000	0.0000	0.0000	0.0000	0.0000
 1.00	0.0040	0.0040	0.0040	0.0040	0.0040
 2.00	0.0081	0.0081	0.0081	0.0081	0.0081
 3.00	0.0123	0.0123	0.0123	0.0123	0.0123
 4.00	0.0165	0.0165	0.0165	0.0165	0.0165
 5.00	0.0208	0.0208	0.0208	0.0208	0.0208
 6.00	0.0252	0.0252	0.0252	0.0252	0.0252
 7.00	0.0297	0.0297	0.0297	0.0297	0.0297
 8.00	0.0342	0.0342	0.0342	0.0342	0.0342
 9.00	0.0388	0.0388	0.0388	0.0388	0.0388
10.00	0.0434	0.0434	0.0434	0.0434	0.0434
11.00	0.0482	0.0482	0.0482	0.0482	0.0482
12.00	0.0530	0.0530	0.0530	0.0530	0.0530
13.00	0.0579	0.0579	0.0579	0.0579	0.0579
14.00	0.0629	0.0629	0.0629	0.0629	0.0629
15.00	0.0680	0.0680	0.0679	0.0680	0.0680
16.00	0.0731	0.0731	0.0731	0.0731	0.0731
17.00	0.0783	0.0783	0.0783	0.0783	0.0783
18.00	0.0837	0.0836	0.0836	0.0836	0.0837
19.00	0.0891	0.0890	0.0890	0.0890	0.0891
20.00	0.0946	0.0945	0.0945	0.0945	0.0946
21.00	0.1001	0.1001	0.1001	0.1001	0.1001
22.00	0.1058	0.1058	0.1058	0.1058	0.1058
23.00	0.1116	0.1115	0.1115	0.1115	0.1116
24.00	0.1174	0.1174	0.1174	0.1174	0.1174
25.00	0.1234	0.1234	0.1234	0.1233	0.1234
26.00	0.1294	0.1294	0.1294	0.1294	0.1294
27.00	0.1356	0.1355	0.1355	0.1355	0.1356
28.00	0.1418	0.1418	0.1418	0.1418	0.1418
29.00	0.1482	0.1481	0.1481	0.1481	0.1482
30.00	0.1546	0.1546	0.1546	0.1546	0.1546
31.00	0.1612	0.1611	0.1611	0.1611	0.1612
32.00	0.1679	0.1678	0.1678	0.1678	0.1679
33.00	0.1746	0.1746	0.1746	0.1746	0.1746
34.00	0.1815	0.1814	0.1814	0.1814	0.1815
35.00	0.1885	0.1884	0.1884	0.1884	0.1885
36.00	0.1956	0.1955	0.1955	0.1955	0.1956
37.00	0.2028	0.2027	0.2027	0.2028	0.2029
38.00	0.2101	0.2101	0.2101	0.2101	0.2102
39.00	0.2176	0.2175	0.2175	0.2175	0.2176
40.00	0.2252	0.2251	0.2251	0.2251	0.2252
41.00	0.2329	0.2328	0.2328	0.2328	0.2329
42.00	0.2407	0.2406	0.2406	0.2406	0.2407
43.00	0.2486	0.2485	0.2485	0.2485	0.2487
44.00	0.2567	0.2566	0.2566	0.2566	0.2567
45.00	0.2649	0.2648	0.2648	0.2648	0.2649
46.00	0.2732	0.2731	0.2731	0.2732	0.2733
47.00	0.2817	0.2816	0.2816	0.2816	0.2817
48.00	0.2903	0.2902	0.2902	0.2902	0.2903
49.00	0.2990	0.2989	0.2989	0.2990	0.2991
50.00	0.3079	0.3078	0.3078	0.3078	0.3079
51.00	0.3169	0.3168	0.3168	0.3169	0.3169
52.00	0.3261	0.3260	0.3260	0.3260	0.3261
53.00	0.3354	0.3353	0.3353	0.3353	0.3354
54.00	0.3449	0.3448	0.3448	0.3448	0.3448
55.00	0.3545	0.3544	0.3544	0.3544	0.3544
56.00	0.3642	0.3641	0.3641	0.3642	0.3641
57.00	0.3741	0.3741	0.3741	0.3741	0.3740
58.00	0.3842	0.3842	0.3841	0.3841	0.3841
59.00	0.3944	0.3944	0.3944	0.3944	0.3943
60.00	0.4048	0.4048	0.4048	0.4048	0.4047
61.00	0.4154	0.4154	0.4153	0.4153	0.4153
62.00	0.4261	0.4261	0.4260	0.4261	0.4260
63.00	0.4370	0.4370	0.4369	0.4370	0.4369
64.00	0.4481	0.4481	0.4480	0.4481	0.4480
65.00	0.4593	0.4593	0.4592	0.4593	0.4592
66.00	0.4708	0.4707	0.4706	0.4707	0.4706
67.00	0.4824	0.4823	0.4822	0.4824	0.4822
68.00	0.4942	0.4941	0.4940	0.4941	0.4940
69.00	0.5062	0.5060	0.5060	0.5061	0.5060
70.00	0.5183	0.5181	0.5181	0.5183	0.5181
71.00	0.5307	0.5305	0.5305	0.5306	0.5304
72.00	0.5432	0.5430	0.5430	0.5431	0.5430
73.00	0.5559	0.5557	0.5558	0.5558	0.5557
74.00	0.5689	0.5686	0.5687	0.5687	0.5686
75.00	0.5820	0.5818	0.5819	0.5819	0.5818
76.00	0.5955	0.5952	0.5953	0.5953	0.5952
77.00	0.6092	0.6089	0.6090	0.6090	0.6088
78.00	0.6232	0.6230	0.6230	0.6230	0.6228
79.00	0.6375	0.6373	0.6372	0.6374	0.6370
80.00	0.6521	0.6519	0.6518	0.6520	0.6516
81.00	0.6668	0.6666	0.6665	0.6667	0.6664
82.00	0.6816	0.6814	0.6813	0.6813	0.6810
83.00	0.6963	0.6961	0.6960	0.6960	0.6957
84.00	0.7109	0.7108	0.7104	0.7107	0.7105
85.00	0.7257	0.7245	0.7251	0.7255	0.7252
86.00	0.7389	0.7370	0.7399	0.7398	0.7397
87.00	0.7534	0.7507	0.7541	0.7536	0.7537
88.00	0.7682	0.7653	0.7665	0.7684	0.7668
89.00	0.7822	0.7801	0.7796	0.7831	0.7784
90.00	0.7968	0.7948	0.7911	0.7977	0.7908
91.00	0.8095	0.8081	0.8058	0.8118	0.8025
92.00	0.8215	0.8224	0.8206	0.8249	0.8132
93.00	0.8362	0.8371	0.8353	0.8396	0.8279
94.00	0.8509	0.8495	0.8482	0.8541	0.8420
95.00	0.8657	0.8642	0.8619	0.8670	0.8558
96.00	0.8778	0.8790	0.8730	0.8817	0.8703
97.00	0.8908	0.8934	0.8860	0.8960	0.8850
98.00	0.9044	0.9081	0.8997	0.9108	0.8997
99.00	0.9153	0.9219	0.9131	0.9255	0.9120
100.00	0.9282	0.9365	0.9269	0.9400	0.9267
101.00	0.9411	0.9513	0.9416	0.9547	0.9415
102.00	0.9559	0.9654	0.9555	0.9692	0.9562
103.00	0.9702	0.9790	0.9702	0.9839	0.9699
104.00	0.9849	0.9918	0.9849	0.9986	0.9836
105.00	0.9988	1.0056	0.9997	1.0130	0.9955
106.00	1.0135	1.0203	1.0144	1.0246	1.0081
107.00	1.0280	1.0350	1.0291	1.0379	1.0228
108.00	1.0427	1.0494	1.0409	1.0525	1.0375
109.00	1.0574	1.0637	1.0523	1.0672	1.0522
110.00	1.0721	1.0785	1.0655	1.0818	1.0650
111.00	1.0864	1.0899	1.0802	1.0965	1.0797
112.00	1.0985	1.1040	1.0950	1.1111	1.0939
113.00	1.1114	1.1187	1.1096	1.1258	1.1086
114.00	1.1261	1.1334	1.1243	1.1397	1.1233
115.00	1.1392	1.1453	1.1390	1.1544	1.1357
116.00	1.1539	1.1573	1.1538	1.1686	1.1475
117.00	1.1686	1.1700	1.1673	1.1834	1.1598
118.00	1.1833	1.1847	1.1796	1.1981	1.1739
119.00	1.1948	1.1979	1.1906	1.2119	1.1886
120.00	1.2065	1.2126	1.2038	1.2247	1.2009
121.00	1.2174	1.2258	1.2185	1.2394	1.2129
122.00	1.2321	1.2405	1.2328	1.2542	1.2261
123.00	1.2430	1.2552	1.2454	1.2673	1.2382
124.00	1.2573	1.2700	1.2588	1.2811	1.2528
125.00	1.2720	1.2847	1.2722	1.2947	1.2675
126.00	1.2867	1.2994	1.2867	1.3094	1.2819
127.00	1.2986	1.3141	1.3014	1.3241	1.2966
128.00	1.3111	1.3269	1.3161	1.3368	1.3113
129.00	1.3237	1.3407	1.3308	1.3515	1.3260
130.00	1.3384	1.3530	1.3455	1.3662	1.3402
131.00	1.3530	1.3638	1.3599	1.3796	1.3549
132.00	1.3677	1.3780	1.3746	1.3940	1.3671
133.00	1.3806	1.3927	1.3890	1.4079	1.3813
134.00	1.3930	1.4074	1.4037	1.4200	1.3960
135.00	1.4052	1.4221	1.4162	1.4321	1.4107
136.00	1.4174	1.4366	1.4297	1.4453	1.4239
137.00	1.4321	1.4511	1.4424	1.4600	1.4386
138.00	1.4468	1.4658	1.4568	1.4747	1.4530
139.00	1.4615	1.4805	1.4715	1.4894	1.4666
140.00	1.4747	1.4948	1.4839	1.5027	1.4808
141.00	1.4894	1.5073	1.4969	1.5166	1.4955
142.00	1.5041	1.5198	1.5103	1.5287	1.5082
143.00	1.5182	1.5345	1.5250	1.5408	1.5209
144.00	1.5328	1.5463	1.5397	1.5533	1.5329
145.00	1.5475	1.5599	1.5535	1.5680	1.5474
146.00	1.5605	1.5731	1.5682	1.5827	1.5598
147.00	1.5746	1.5878	1.5829	1.5966	1.5745
148.00	1.5886	1.6025	1.5941	1.6113	1.5883
149.00	1.6032	1.6164	1.6080	1.6252	1.6009
150.00	1.6179	1.6311	1.6226	1.6399	1.6156
