Time	5	10	20	30	50	80
 0.00	0.028357	0.028041	0.027802	0.028398	0.028251	0.028180
 1.00	0.028675	0.027905	0.027754	0.028749	0.028533	0.028427
 2.00	0.028948	0.027584	0.027846	0.029077	0.028864	0.028774
 3.00	0.029169	0.027082	0.028066	0.029401	0.029247	0.029203
 4.00	0.029330	0.026408	0.028398	0.029737	0.029676	0.029683
 5.00	0.029423	0.025586	0.028824	0.030095	0.030143	0.030189
 6.00	0.029441	0.024654	0.029327	0.030482	0.030638	0.030707
 7.00	0.029377	0.023666	0.029889	0.030902	0.031154	0.031231
 8.00	0.029222	0.022692	0.030494	0.031355	0.031684	0.031759
 9.00	0.028970	0.021817	0.031128	0.031839	0.032224	0.032294
10.00	0.028614	0.021128	0.031778	0.032353	0.032772	0.032837
11.00	0.028147	0.020714	0.032435	0.032892	0.033327	0.033388
12.00	0.027269	0.020644	0.033091	0.033452	0.033890	0.033948
13.00	0.026263	0.020964	0.033742	0.034032	0.034461	0.034517
14.00	0.025458	0.021686	0.034384	0.034626	0.035041	0.035097
15.00	0.024537	0.022789	0.035018	0.035234	0.035630	0.035686
16.00	0.023508	0.024223	0.035643	0.035852	0.036228	0.036285
17.00	0.022386	0.025916	0.036263	0.036479	0.036837	0.036894
18.00	0.021197	0.027784	0.036879	0.037116	0.037456	0.037514
19.00	0.019981	0.029738	0.037494	0.037761	0.038086	0.038144
20.00	0.018799	0.031492	0.038113	0.038415	0.038727	0.038784
21.00	0.017743	0.033270	0.038737	0.039077	0.039378	0.039436
22.00	0.016936	0.035001	0.039371	0.039749	0.040041	0.040098
23.00	0.016534	0.036630	0.040016	0.040431	0.040715	0.040771
24.00	0.016706	0.038125	0.040674	0.041123	0.041400	0.041456
25.00	0.017590	0.039469	0.041347	0.041826	0.042097	0.042152
26.00	0.018795	0.040663	0.042036	0.042540	0.042806	0.042860
27.00	0.021267	0.041717	0.042742	0.043265	0.043527	0.043579
28.00	0.024281	0.042653	0.043464	0.044003	0.044260	0.044311
29.00	0.027573	0.043493	0.044203	0.044752	0.045005	0.045054
30.00	0.030858	0.044264	0.044958	0.045514	0.045763	0.045811
31.00	0.033886	0.044988	0.045729	0.046288	0.046533	0.046579
32.00	0.036480	0.045757	0.046519	0.047075	0.047317	0.047361
33.00	0.038549	0.046480	0.047320	0.047876	0.048114	0.048156
34.00	0.040076	0.047180	0.048137	0.048689	0.048922	0.048964
35.00	0.041101	0.047876	0.048968	0.049516	0.049741	0.049786
36.00	0.041700	0.048581	0.049814	0.050357	0.050573	0.050621
37.00	0.041966	0.049303	0.050676	0.051212	0.051419	0.051470
38.00	0.042003	0.050049	0.051551	0.052081	0.052280	0.052333
39.00	0.041908	0.050821	0.052442	0.052964	0.053155	0.053211
40.00	0.041770	0.051617	0.053347	0.053862	0.054044	0.054103
41.00	0.041661	0.052436	0.054266	0.054775	0.054948	0.055010
42.00	0.041628	0.053277	0.055201	0.055703	0.055866	0.055932
43.00	0.041698	0.054137	0.056151	0.056646	0.056800	0.056869
44.00	0.041878	0.055014	0.057116	0.057605	0.057749	0.057822
45.00	0.042156	0.055905	0.058097	0.058581	0.058714	0.058791
46.00	0.042511	0.056811	0.059094	0.059572	0.059694	0.059775
47.00	0.042917	0.057729	0.060107	0.060580	0.060689	0.060776
48.00	0.043348	0.058660	0.061136	0.061605	0.061701	0.061793
49.00	0.043783	0.059603	0.062182	0.062646	0.062729	0.062827
50.00	0.044206	0.060558	0.063245	0.063706	0.063773	0.063878
51.00	0.044608	0.061527	0.064325	0.064782	0.064834	0.064945
52.00	0.044986	0.062510	0.065423	0.065877	0.065911	0.066030
53.00	0.045339	0.063506	0.066538	0.066990	0.067004	0.067133
54.00	0.045671	0.064517	0.067672	0.068101	0.068114	0.068253
55.00	0.045984	0.065543	0.068823	0.069201	0.069241	0.069390
56.00	0.046283	0.066584	0.069994	0.070298	0.070385	0.070546
57.00	0.046569	0.067642	0.071183	0.071401	0.071546	0.071719
58.00	0.046844	0.068716	0.072392	0.072518	0.072722	0.072911
59.00	0.047107	0.069806	0.073620	0.073649	0.073913	0.074121
60.00	0.047357	0.070913	0.074869	0.074792	0.075115	0.075349
61.00	0.047594	0.072037	0.076137	0.075944	0.076326	0.076594
62.00	0.047816	0.073178	0.077426	0.077102	0.077542	0.077854
63.00	0.048019	0.074337	0.078734	0.078272	0.078761	0.079122
64.00	0.048204	0.075513	0.079986	0.079465	0.079986	0.080394
65.00	0.048366	0.076708	0.081126	0.080704	0.081235	0.081665
66.00	0.048506	0.077920	0.082222	0.082020	0.082543	0.082945
67.00	0.048619	0.079151	0.083345	0.083449	0.083971	0.084276
68.00	0.048704	0.080400	0.084555	0.085019	0.085596	0.085749
69.00	0.048759	0.081668	0.085852	0.086712	0.087473	0.087500
70.00	0.048780	0.082954	0.087150	0.088414	0.089554	0.089644
71.00	0.048766	0.084259	0.088232	0.089828	0.091544	0.092053
72.00	0.048712	0.085582	0.088684	0.090415	0.092727	0.094125
73.00	0.048616	0.086922	0.087812	0.089207	0.091816	0.094310
74.00	0.048473	0.088278	0.084659	0.085032	0.086971	0.090008
75.00	0.048279	0.089638	0.078151	0.076514	0.076168	0.078120
76.00	0.048030	0.090335	0.067309	0.062542	0.058073	0.056779
77.00	0.047722	0.088357	0.051671	0.043255	0.033639	0.027334
78.00	0.047348	0.083219	0.032009	0.020045	0.008794	0.000132
79.00	0.046904	0.073422	0.011559	0.000629	0.000000	0.000000
80.00	0.046384	0.058814	0.000000	0.000000	0.000000	0.000000
81.00	0.045784	0.039815	0.000572	0.003042	0.003510	0.003675
82.00	0.045097	0.018359	0.009524	0.009526	0.009527	0.009527
83.00	0.044322	0.000000	0.009524	0.009526	0.009527	0.009527
84.00	0.043461	0.009524	0.009524	0.009526	0.009527	0.009527
85.00	0.042521	0.009524	0.009524	0.009526	0.009527	0.009527
86.00	0.041529	0.009524	0.009524	0.009526	0.009527	0.009527
87.00	0.040523	0.009524	0.009524	0.009526	0.009527	0.009527
88.00	0.039536	0.009524	0.009524	0.009526	0.009527	0.009527
89.00	0.038565	0.009524	0.009524	0.009526	0.009527	0.009527
90.00	0.037588	0.009524	0.009524	0.009526	0.009527	0.009527
91.00	0.036578	0.009524	0.009524	0.009526	0.009527	0.009527
92.00	0.035518	0.009524	0.009524	0.009526	0.009527	0.009527
93.00	0.034397	0.009524	0.009524	0.009526	0.009527	0.009527
94.00	0.032898	0.009524	0.009524	0.009526	0.009527	0.009527
95.00	0.031779	0.009524	0.009524	0.009526	0.009527	0.009527
96.00	0.030561	0.009524	0.009524	0.009526	0.009527	0.009527
97.00	0.029286	0.009524	0.009524	0.009526	0.009527	0.009527
98.00	0.027666	0.009524	0.009524	0.009526	0.009527	0.009527
99.00	0.026503	0.009524	0.009552	0.009526	0.009527	0.009527
100.00	0.025277	0.009759	0.009996	0.009526	0.009527	0.009527
101.00	0.024000	0.009950	0.009905	0.009526	0.009527	0.009527
102.00	0.022686	0.009895	0.009879	0.009526	0.009527	0.009527
103.00	0.021355	0.009887	0.009894	0.009879	0.009527	0.009527
104.00	0.020044	0.009894	0.009894	0.009938	0.009849	0.009678
105.00	0.018801	0.009894	0.009894	0.009887	0.009946	0.009994
106.00	0.017652	0.009894	0.009894	0.009891	0.009888	0.009895
107.00	0.016585	0.009945	0.009895	0.009896	0.009883	0.009877
108.00	0.015576	0.009883	0.009896	0.009896	0.009898	0.009899
109.00	0.014611	0.009893	0.009896	0.009896	0.009897	0.009897
110.00	0.013689	0.009850	0.009897	0.009897	0.009896	0.009896
111.00	0.012836	0.009907	0.009898	0.009898	0.009897	0.009897
112.00	0.011618	0.009949	0.009898	0.009898	0.009898	0.009898
113.00	0.010900	0.009885	0.009899	0.009899	0.009898	0.009899
114.00	0.010423	0.009850	0.009899	0.009899	0.009908	0.009908
115.00	0.010440	0.009911	0.009900	0.009900	0.009898	0.009898
116.00	0.010193	0.009903	0.009901	0.009912	0.009900	0.009900
117.00	0.009904	0.009900	0.009901	0.009899	0.009901	0.009901
118.00	0.009645	0.009902	0.009902	0.009901	0.009902	0.009902
119.00	0.008983	0.009902	0.009903	0.009903	0.009902	0.009902
120.00	0.009298	0.009903	0.009903	0.009903	0.009903	0.009903
121.00	0.008763	0.009904	0.009904	0.009893	0.009893	0.009893
122.00	0.009136	0.009904	0.009905	0.009907	0.009907	0.009907
123.00	0.008999	0.009905	0.009905	0.009905	0.009905	0.009905
124.00	0.008957	0.009905	0.009906	0.009905	0.009905	0.009905
125.00	0.008918	0.009906	0.009906	0.009918	0.009918	0.009918
126.00	0.008888	0.009907	0.009907	0.009904	0.009904	0.009904
127.00	0.008863	0.009907	0.009908	0.009907	0.009907	0.009907
128.00	0.008843	0.009908	0.009908	0.009908	0.009908	0.009908
129.00	0.008826	0.009909	0.009909	0.009909	0.009909	0.009909
130.00	0.008811	0.009909	0.009910	0.009893	0.009893	0.009893
131.00	0.008798	0.009910	0.009908	0.009913	0.009913	0.009913
132.00	0.008788	0.009910	0.009909	0.009910	0.009910	0.009910
133.00	0.008666	0.009911	0.009930	0.009929	0.009929	0.009929
134.00	0.008806	0.009912	0.009886	0.009886	0.009886	0.009886
135.00	0.008752	0.009912	0.009914	0.009914	0.009914	0.009914
136.00	0.008758	0.009913	0.009912	0.009912	0.009912	0.009912
137.00	0.008749	0.009913	0.009910	0.009910	0.009910	0.009910
138.00	0.008745	0.009914	0.009910	0.009910	0.009910	0.009910
139.00	0.008740	0.009915	0.009946	0.009946	0.009946	0.009946
140.00	0.008735	0.009957	0.009906	0.009906	0.009906	0.009906
141.00	0.008731	0.009846	0.009854	0.009854	0.009854	0.009855
142.00	0.008728	0.009922	0.009912	0.009912	0.009912	0.009912
143.00	0.008724	0.009521	0.009519	0.009519	0.009519	0.009519
144.00	0.008721	0.009610	0.009609	0.009609	0.009609	0.009609
145.00	0.008718	0.009580	0.009580	0.009580	0.009580	0.009580
146.00	0.008700	0.009585	0.009585	0.009585	0.009585	0.009585
147.00	0.008703	0.009586	0.009585	0.009585	0.009585	0.009585
148.00	0.008710	0.009538	0.009539	0.009539	0.009539	0.009539
149.00	0.008739	0.009632	0.009632	0.009632	0.009632	0.009632
