\tdplotsetmaincoords{70}{110}
\begin{tikzpicture}[scale=2, tdplot_main_coords]
	\def\a{0.50}
	\input{../Figures/ambiguityBase.tikz}
	%simplex
	\draw[fill=c3, fill opacity=0.7]  (0.4,0.6,0) -- (0.4,0,0.6) -- (0,0,1) -- (0,0.6,0.4) -- cycle;
	\node[anchor=west] at (0,0.5,1) {$\alpha=0.5$}; 
\end{tikzpicture}