\pgfplotstableread{"../FigData/optimalSolution.txt"}{\plotdata}
\begin{tikzpicture}
	\pgfplotsset{
		gridStyle/.style = {grid=both, grid style={line width=.1pt, draw=gray!20}},
		main/.style = {
			gridStyle,
			xmin=0,
			xmax=150,
			xtick={0,25,...,150},
			xlabel={Time $[\si{\hour}$]},
			xlabel shift = -1ex,
			title style={yshift=-2ex},
			scaled ticks=false,
			tick label style={/pgf/number format/fixed},
			width=0.5*(\textwidth-3cm),
		}
	}
	\begin{groupplot}[
		group style={
			group size=2 by 2,
			group name=g, % add a name to each axis
			horizontal sep=1cm,
			vertical sep=1.5cm
		},
		scale only axis
		] 
		\nextgroupplot[%Feed rate
			main,
			ymin=0,
			ymax=0.1,
			title={Feed rate $[\si{\liter/\hour}]$}]
			\addplot[line width=0.5mm] table [x index=0, y index=5] {\plotdata};
		\nextgroupplot[%Biomass
			main,
			ytick={0,1,...,4},
			ymin=0,
			ymax=4.5,
			title={Biomass $[\si{\gram/\liter}]$}]
			\addplot[line width=0.5mm] table [x index=0, y index=1] {\plotdata};
			\draw [dashed, c3,line width=0.5mm] (0,3.7) --  (150,3.7);
		\nextgroupplot[%Substrate
			main,
			ymin=0,
			ymax=0.7,
			title={Substrate $[\si{\gram/\liter}]$}]
			\addplot[line width=0.5mm] table [x index=0,y index=2] {\plotdata};
		\nextgroupplot[%Product
			main,
			ymax=1.8,
			ymin=0,
			title={Product $[\si{\gram/\liter}]$}]
		\addplot[line width=0.5mm] table [x index=0, y index=3] {\plotdata};
	\end{groupplot}
\end{tikzpicture}











%
%\begin{tikzpicture}
%	\begin{axis}[
%		height=5cm,
%		width=8cm,
%		xmin=0, xmax=160, ymin=0, ymax=0.105,
%		axis x line=bottom,
%		axis y line=left,
%		xtick={0, 50, 100, 150},
%		y tick label style={/pgf/number format/.cd,
%			fixed},
%		xlabel={Time [\si{\hour}]},
%		ylabel ={Input [\si{\liter/\hour}]}]
%		\addplot[] table [x index=0, y index=5] {\plotdata};
%	\end{axis}
%\end{tikzpicture}