\pgfplotstableread{"../FigData/optimalSolution.txt"}{\plotdata}
\begin{tikzpicture}
	\begin{axis}[
		height=5cm,
		width=7cm,
		xmin=0, xmax=160, ymin=0, ymax=0.105,
		axis x line=bottom,
		axis y line=left,
		xtick={0, 50, 100, 150},
		y tick label style={/pgf/number format/.cd,
			fixed},
		xlabel={Time [\si{\hour}]},
		ylabel ={Input [\si{\liter/\hour}]}]
		\addplot[] table [x index=0, y index=5] {\plotdata};
	\end{axis}
\end{tikzpicture}