\begin{tikzpicture}
	%water
	\node [draw, color=c6, fill, shape=rectangle, minimum width=3cm, minimum height=2cm, anchor=center] at (0,-1.4) {};
	\node [draw, color=c6, fill, shape=rectangle, minimum width=3cm, minimum height=2cm, anchor=center, rounded corners=30pt] at (0,-2) {};
	\onslide<3>{
	\node [draw, color=red, fill, shape=rectangle, minimum width=3cm, minimum height=2cm, anchor=center] at (0,-1.4) {};
	\node [draw, color=red, fill, shape=rectangle, minimum width=3cm, minimum height=2cm, anchor=center, rounded corners=30pt] at (0,-2) {};
	}
	%mixer
	\node [draw, color=c4, fill, shape=rectangle, minimum width=1mm, minimum height=1.5cm, anchor=center] at (0,-2) {};
	\draw[-{Latex[length=3mm]}, line width=1pt] (-0.3,-1.4) arc [start angle=-120, end angle=250, x radius=0.6cm, y radius=0.2cm];
	\node [draw, color=c4, fill, shape=rectangle, minimum width=2mm, minimum height=2.5cm, anchor=center] at (0,0) {};
	\coordinate (a) at (0,-2);
	\coordinate (b) at (0,-2.5);
	\fill[color=c4] (a) -- ($(a)+(0.8,0.2)$) -- ($(a)+(0.8,-0.2)$);
	\fill[color=c4] (a) -- ($(a)-(0.8,0.2)$) -- ($(a)-(0.8,-0.2)$);
	\fill[color=c4] (b) -- ($(b)+(0.8,0.2)$) -- ($(b)+(0.8,-0.2)$);
	\fill[color=c4] (b) -- ($(b)-(0.8,0.2)$) -- ($(b)-(0.8,-0.2)$);
	%container
	\node [draw, color=c5, line width=2mm, shape=rectangle, minimum width=3cm, minimum height=3.5cm, anchor=center, rounded corners=30pt] at (0,-1.25) {}; 
	\filldraw[c5] (-1.5,-0.2)  arc (90:270:2mm);
	\filldraw[c5] (-1.5,-0.8)  arc (90:270:2mm);
	\filldraw[c5] (-1.5,-1.4)  arc (90:270:2mm);
	\filldraw[c5] (-1.45,-2.35)  arc (120:310:2mm);
	\filldraw[c5] (-1.15,-2.75)  arc (150:330:2mm);
	\begin{scope}[yscale=1,xscale=-1]
		\filldraw[c5] (-1.5,-0.2)  arc (90:270:2mm);
		\filldraw[c5] (-1.5,-0.8)  arc (90:270:2mm);
		\filldraw[c5] (-1.5,-1.4)  arc (90:270:2mm);
		\filldraw[c5] (-1.45,-2.35)  arc (120:310:2mm);
		\filldraw[c5] (-1.15,-2.75)  arc (150:330:2mm);
	\end{scope}
	%Arrows
	\draw[-{Triangle[length=4mm,width=2mm]}, color=c1, line width=1mm] (-1.5,1) -- node[above,pos=0.5,black] {Feed} (-0.4,1) -- (-0.4,-0.9);
	\onslide<2,4>{
		\draw[-{Triangle[length=4mm,width=2mm]}, color=red, line width=1mm] (-1.5,1) -- (-0.4,1) -- (-0.4,-0.9);
	}
\end{tikzpicture}