Time	5	10	20	30	50	80
 0.00	0.027949	0.027302	0.027708	0.028359	0.028132	0.028024
 1.00	0.027868	0.026428	0.027604	0.028682	0.028372	0.028267
 2.00	0.027750	0.025370	0.027670	0.028991	0.028706	0.028664
 3.00	0.027587	0.024127	0.027885	0.029305	0.029116	0.029145
 4.00	0.027370	0.022718	0.028226	0.029637	0.029580	0.029661
 5.00	0.027090	0.021182	0.028670	0.029995	0.030080	0.030185
 6.00	0.026739	0.019594	0.029194	0.030385	0.030602	0.030708
 7.00	0.026309	0.018065	0.029777	0.030809	0.031136	0.031232
 8.00	0.025789	0.016747	0.030401	0.031268	0.031678	0.031759
 9.00	0.025171	0.015809	0.031051	0.031760	0.032224	0.032291
10.00	0.024446	0.015397	0.031712	0.032280	0.032774	0.032832
11.00	0.023606	0.015604	0.032375	0.032825	0.033329	0.033382
12.00	0.022644	0.016446	0.033032	0.033392	0.033890	0.033942
13.00	0.021555	0.017879	0.033681	0.033977	0.034460	0.034512
14.00	0.020335	0.019801	0.034317	0.034576	0.035037	0.035091
15.00	0.018988	0.022082	0.034943	0.035187	0.035625	0.035680
16.00	0.017523	0.024575	0.035559	0.035808	0.036222	0.036279
17.00	0.015966	0.027136	0.036168	0.036439	0.036830	0.036888
18.00	0.014367	0.029635	0.036774	0.037077	0.037449	0.037508
19.00	0.012818	0.031967	0.037380	0.037724	0.038078	0.038137
20.00	0.011482	0.034062	0.037990	0.038379	0.038719	0.038778
21.00	0.010609	0.035880	0.038608	0.039043	0.039370	0.039429
22.00	0.010493	0.037412	0.039236	0.039716	0.040033	0.040091
23.00	0.011357	0.038676	0.039876	0.040398	0.040707	0.040764
24.00	0.013234	0.039705	0.040532	0.041091	0.041392	0.041448
25.00	0.015937	0.040545	0.041204	0.041794	0.042089	0.042144
26.00	0.019117	0.041244	0.041893	0.042508	0.042797	0.042851
27.00	0.022377	0.041849	0.042599	0.043234	0.043518	0.043571
28.00	0.025388	0.042400	0.043323	0.043971	0.044251	0.044302
29.00	0.027950	0.042932	0.044064	0.044721	0.044996	0.045046
30.00	0.029979	0.043468	0.044822	0.045483	0.045753	0.045802
31.00	0.031477	0.044027	0.045596	0.046257	0.046524	0.046570
32.00	0.032491	0.044618	0.046386	0.047045	0.047307	0.047352
33.00	0.033098	0.045245	0.047191	0.047845	0.048104	0.048146
34.00	0.033381	0.045909	0.048011	0.048659	0.048914	0.048954
35.00	0.033430	0.046608	0.048845	0.049486	0.049735	0.049775
36.00	0.033326	0.047336	0.049694	0.050326	0.050567	0.050610
37.00	0.033143	0.048090	0.050557	0.051181	0.051411	0.051459
38.00	0.032938	0.048864	0.051435	0.052050	0.052270	0.052322
39.00	0.032753	0.049655	0.052327	0.052933	0.053144	0.053199
40.00	0.032614	0.050459	0.053233	0.053831	0.054032	0.054091
41.00	0.032530	0.051274	0.054154	0.054744	0.054936	0.054998
42.00	0.032498	0.052098	0.055091	0.055672	0.055855	0.055920
43.00	0.032507	0.052931	0.056042	0.056615	0.056788	0.056857
44.00	0.032544	0.053773	0.057008	0.057574	0.057737	0.057809
45.00	0.032593	0.054624	0.057991	0.058549	0.058700	0.058777
46.00	0.032641	0.055484	0.058988	0.059540	0.059679	0.059761
47.00	0.032679	0.056355	0.060002	0.060548	0.060674	0.060761
48.00	0.032699	0.057237	0.061032	0.061573	0.061685	0.061778
49.00	0.032699	0.058131	0.062079	0.062614	0.062711	0.062811
50.00	0.032677	0.059037	0.063143	0.063673	0.063755	0.063861
51.00	0.032632	0.059956	0.064223	0.064750	0.064814	0.064928
52.00	0.032565	0.060888	0.065321	0.065845	0.065890	0.066013
53.00	0.032475	0.061833	0.066436	0.066957	0.066982	0.067114
54.00	0.032363	0.062791	0.067570	0.068089	0.068092	0.068233
55.00	0.032227	0.063761	0.068721	0.069212	0.069217	0.069370
56.00	0.032067	0.064742	0.069891	0.070309	0.070359	0.070524
57.00	0.031880	0.065731	0.071079	0.071401	0.071518	0.071697
58.00	0.031666	0.066729	0.072287	0.072502	0.072691	0.072887
59.00	0.031423	0.067738	0.073514	0.073618	0.073879	0.074096
60.00	0.031148	0.068759	0.074760	0.074750	0.075078	0.075322
61.00	0.030840	0.069797	0.076027	0.075896	0.076285	0.076565
62.00	0.030496	0.070851	0.077315	0.077053	0.077496	0.077821
63.00	0.030114	0.071923	0.078623	0.078225	0.078709	0.079086
64.00	0.029693	0.073011	0.079953	0.079419	0.079931	0.080352
65.00	0.029233	0.074115	0.081196	0.080652	0.081180	0.081617
66.00	0.028742	0.075234	0.082299	0.081958	0.082494	0.082896
67.00	0.028240	0.076369	0.083363	0.083373	0.083935	0.084236
68.00	0.027764	0.077520	0.084461	0.084918	0.085578	0.085736
69.00	0.027322	0.078690	0.085596	0.086565	0.087464	0.087530
70.00	0.026899	0.079877	0.086675	0.088180	0.089515	0.089712
71.00	0.026479	0.081082	0.087477	0.089449	0.091391	0.092075
72.00	0.026049	0.082305	0.087608	0.089791	0.092313	0.093890
73.00	0.025604	0.083543	0.086460	0.088305	0.090941	0.093456
74.00	0.025143	0.084796	0.083207	0.083796	0.085433	0.088116
75.00	0.024667	0.086060	0.076869	0.074896	0.073855	0.074955
76.00	0.024177	0.087333	0.066313	0.060406	0.055092	0.052490
77.00	0.023672	0.088615	0.050804	0.040544	0.030452	0.023544
78.00	0.023150	0.089263	0.031303	0.017924	0.006398	0.000000
79.00	0.022608	0.085538	0.011318	0.000002	0.000000	0.000000
80.00	0.022044	0.077404	0.000000	0.000000	0.000000	0.000000
81.00	0.021456	0.064707	0.011942	0.011560	0.011453	0.011420
82.00	0.020846	0.047627	0.010559	0.010484	0.010457	0.010450
83.00	0.020220	0.027715	0.010146	0.010162	0.010158	0.010159
84.00	0.019584	0.010193	0.010012	0.010042	0.010045	0.010047
85.00	0.018947	0.011473	0.009949	0.009980	0.009985	0.009987
86.00	0.018317	0.010389	0.009909	0.009938	0.009944	0.009947
87.00	0.017694	0.010072	0.009880	0.009905	0.009913	0.009916
88.00	0.017076	0.009959	0.009878	0.009880	0.009887	0.009890
89.00	0.016459	0.009901	0.009877	0.009878	0.009877	0.009878
90.00	0.015840	0.009877	0.009878	0.009878	0.009879	0.009879
91.00	0.015216	0.009880	0.009878	0.009879	0.009879	0.009879
92.00	0.014593	0.009878	0.009880	0.009879	0.009880	0.009880
93.00	0.013975	0.009880	0.009880	0.009880	0.009880	0.009880
94.00	0.013375	0.009879	0.009881	0.009881	0.009881	0.009881
95.00	0.012804	0.009881	0.009881	0.009881	0.009881	0.009881
96.00	0.012272	0.009881	0.009882	0.009882	0.009882	0.009882
97.00	0.011782	0.009882	0.009882	0.009883	0.009883	0.009883
98.00	0.011330	0.009882	0.009883	0.009883	0.009883	0.009883
99.00	0.010912	0.009883	0.009884	0.009884	0.009884	0.009884
100.00	0.010522	0.009883	0.009885	0.009884	0.009884	0.009884
101.00	0.010159	0.009884	0.009885	0.009885	0.009885	0.009885
102.00	0.009822	0.009885	0.009886	0.009886	0.009886	0.009886
103.00	0.009514	0.009886	0.009886	0.009886	0.009886	0.009886
104.00	0.009238	0.009886	0.009887	0.009887	0.009887	0.009887
105.00	0.008996	0.009887	0.009888	0.009888	0.009888	0.009888
106.00	0.008787	0.009887	0.009888	0.009888	0.009888	0.009888
107.00	0.008610	0.009888	0.009889	0.009889	0.009889	0.009889
108.00	0.008460	0.009888	0.009890	0.009889	0.009890	0.009890
109.00	0.008333	0.009889	0.009890	0.009890	0.009890	0.009890
110.00	0.008225	0.009890	0.009891	0.009891	0.009891	0.009891
111.00	0.008132	0.009891	0.009891	0.009891	0.009891	0.009891
112.00	0.008051	0.009891	0.009892	0.009892	0.009892	0.009892
113.00	0.007981	0.009892	0.009893	0.009893	0.009893	0.009893
114.00	0.007919	0.009892	0.009893	0.009893	0.009893	0.009893
115.00	0.007864	0.009893	0.009894	0.009894	0.009894	0.009894
116.00	0.007815	0.009893	0.009895	0.009895	0.009895	0.009895
117.00	0.007771	0.009895	0.009895	0.009895	0.009895	0.009895
118.00	0.007731	0.009895	0.009896	0.009896	0.009896	0.009896
119.00	0.007695	0.009896	0.009896	0.009897	0.009896	0.009896
120.00	0.007662	0.009896	0.009897	0.009897	0.009897	0.009897
121.00	0.007632	0.009897	0.009898	0.009898	0.009898	0.009898
122.00	0.007604	0.009897	0.009898	0.009898	0.009898	0.009898
123.00	0.007579	0.009898	0.009899	0.009899	0.009899	0.009899
124.00	0.007555	0.009899	0.009900	0.009900	0.009900	0.009900
125.00	0.007533	0.009900	0.009900	0.009900	0.009900	0.009900
126.00	0.007512	0.009900	0.009901	0.009901	0.009901	0.009901
127.00	0.007493	0.009901	0.009901	0.009902	0.009901	0.009901
128.00	0.007475	0.009901	0.009902	0.009902	0.009902	0.009902
129.00	0.007458	0.009902	0.009903	0.009903	0.009903	0.009903
130.00	0.007442	0.009902	0.009904	0.009903	0.009904	0.009904
131.00	0.007427	0.009903	0.009904	0.009904	0.009904	0.009904
132.00	0.007412	0.009904	0.009905	0.009905	0.009905	0.009905
133.00	0.007399	0.009905	0.009905	0.009905	0.009905	0.009905
134.00	0.007386	0.009905	0.009906	0.009906	0.009906	0.009906
135.00	0.007374	0.009906	0.009906	0.009907	0.009907	0.009907
136.00	0.007363	0.009906	0.009907	0.009907	0.009907	0.009907
137.00	0.007352	0.009907	0.009908	0.009908	0.009908	0.009908
138.00	0.007341	0.009908	0.009909	0.009909	0.009909	0.009909
139.00	0.007331	0.009908	0.009909	0.009909	0.009909	0.009909
140.00	0.007322	0.009909	0.009910	0.009910	0.009910	0.009910
141.00	0.007313	0.009910	0.009910	0.009910	0.009910	0.009910
142.00	0.007304	0.009910	0.009911	0.009911	0.009911	0.009911
143.00	0.007296	0.009911	0.009912	0.009912	0.009912	0.009912
144.00	0.007288	0.009911	0.009912	0.009912	0.009912	0.009912
145.00	0.007280	0.009912	0.009913	0.009913	0.009913	0.009913
146.00	0.007145	0.009913	0.009914	0.009914	0.009914	0.009914
147.00	0.007057	0.009913	0.009914	0.009914	0.009914	0.009914
148.00	0.006985	0.009914	0.009915	0.009915	0.009915	0.009915
149.00	0.006884	0.009914	0.009915	0.009915	0.009915	0.009915
