 0.00	0.0000	0.0000	0.0000	0.0000	0.0000	0.0000	0.0000	0.0000	0.0000
 0.01	1.0000	0.2857	0.1667	0.1176	0.0909	0.0741	0.0625	0.0541	0.0476
 0.02	1.0000	0.4444	0.2857	0.2105	0.1667	0.1379	0.1176	0.1026	0.0909
 0.03	1.0000	0.5455	0.3750	0.2857	0.2308	0.1935	0.1667	0.1463	0.1304
 0.04	1.0000	0.6154	0.4444	0.3478	0.2857	0.2424	0.2105	0.1860	0.1667
 0.05	1.0000	0.6667	0.5000	0.4000	0.3333	0.2857	0.2500	0.2222	0.2000
 0.06	1.0000	0.7059	0.5455	0.4444	0.3750	0.3243	0.2857	0.2553	0.2308
 0.07	1.0000	0.7368	0.5833	0.4828	0.4118	0.3590	0.3182	0.2857	0.2593
 0.08	1.0000	0.7619	0.6154	0.5161	0.4444	0.3902	0.3478	0.3137	0.2857
 0.09	1.0000	0.7826	0.6429	0.5455	0.4737	0.4186	0.3750	0.3396	0.3103
 0.10	1.0000	0.8000	0.6667	0.5714	0.5000	0.4444	0.4000	0.3636	0.3333
 0.11	1.0000	0.8148	0.6875	0.5946	0.5238	0.4681	0.4231	0.3860	0.3548
 0.12	1.0000	0.8276	0.7059	0.6154	0.5455	0.4898	0.4444	0.4068	0.3750
 0.13	1.0000	0.8387	0.7222	0.6341	0.5652	0.5098	0.4643	0.4262	0.3939
 0.14	1.0000	0.8485	0.7368	0.6512	0.5833	0.5283	0.4828	0.4444	0.4118
 0.15	1.0000	0.8571	0.7500	0.6667	0.6000	0.5455	0.5000	0.4615	0.4286
 0.16	1.0000	0.8649	0.7619	0.6809	0.6154	0.5614	0.5161	0.4776	0.4444
 0.17	1.0000	0.8718	0.7727	0.6939	0.6296	0.5763	0.5312	0.4928	0.4595
 0.18	1.0000	0.8780	0.7826	0.7059	0.6429	0.5902	0.5455	0.5070	0.4737
 0.19	1.0000	0.8837	0.7917	0.7170	0.6552	0.6032	0.5588	0.5205	0.4872
 0.20	1.0000	0.8889	0.8000	0.7273	0.6667	0.6154	0.5714	0.5333	0.5000
 0.21	1.0000	0.8936	0.8077	0.7368	0.6774	0.6269	0.5833	0.5455	0.5122
 0.22	1.0000	0.8980	0.8148	0.7458	0.6875	0.6377	0.5946	0.5570	0.5238
 0.23	1.0000	0.9020	0.8214	0.7541	0.6970	0.6479	0.6053	0.5679	0.5349
 0.24	1.0000	0.9057	0.8276	0.7619	0.7059	0.6575	0.6154	0.5783	0.5455
 0.25	1.0000	0.9091	0.8333	0.7692	0.7143	0.6667	0.6250	0.5882	0.5556
 0.26	1.0000	0.9123	0.8387	0.7761	0.7222	0.6753	0.6341	0.5977	0.5652
 0.27	1.0000	0.9153	0.8438	0.7826	0.7297	0.6835	0.6429	0.6067	0.5745
 0.28	1.0000	0.9180	0.8485	0.7887	0.7368	0.6914	0.6512	0.6154	0.5833
 0.29	1.0000	0.9206	0.8529	0.7945	0.7436	0.6988	0.6591	0.6237	0.5918
 0.30	1.0000	0.9231	0.8571	0.8000	0.7500	0.7059	0.6667	0.6316	0.6000
 0.31	1.0000	0.9254	0.8611	0.8052	0.7561	0.7126	0.6739	0.6392	0.6078
 0.32	1.0000	0.9275	0.8649	0.8101	0.7619	0.7191	0.6809	0.6465	0.6154
 0.33	1.0000	0.9296	0.8684	0.8148	0.7674	0.7253	0.6875	0.6535	0.6226
 0.34	1.0000	0.9315	0.8718	0.8193	0.7727	0.7312	0.6939	0.6602	0.6296
 0.35	1.0000	0.9333	0.8750	0.8235	0.7778	0.7368	0.7000	0.6667	0.6364
 0.36	1.0000	0.9351	0.8780	0.8276	0.7826	0.7423	0.7059	0.6729	0.6429
 0.37	1.0000	0.9367	0.8810	0.8315	0.7872	0.7475	0.7115	0.6789	0.6491
 0.38	1.0000	0.9383	0.8837	0.8352	0.7917	0.7525	0.7170	0.6847	0.6552
 0.39	1.0000	0.9398	0.8864	0.8387	0.7959	0.7573	0.7222	0.6903	0.6610
 0.40	1.0000	0.9412	0.8889	0.8421	0.8000	0.7619	0.7273	0.6957	0.6667
 0.41	1.0000	0.9425	0.8913	0.8454	0.8039	0.7664	0.7321	0.7009	0.6721
 0.42	1.0000	0.9438	0.8936	0.8485	0.8077	0.7706	0.7368	0.7059	0.6774
 0.43	1.0000	0.9451	0.8958	0.8515	0.8113	0.7748	0.7414	0.7107	0.6825
 0.44	1.0000	0.9462	0.8980	0.8544	0.8148	0.7788	0.7458	0.7154	0.6875
 0.45	1.0000	0.9474	0.9000	0.8571	0.8182	0.7826	0.7500	0.7200	0.6923
 0.46	1.0000	0.9485	0.9020	0.8598	0.8214	0.7863	0.7541	0.7244	0.6970
 0.47	1.0000	0.9495	0.9038	0.8624	0.8246	0.7899	0.7581	0.7287	0.7015
 0.48	1.0000	0.9505	0.9057	0.8649	0.8276	0.7934	0.7619	0.7328	0.7059
 0.49	1.0000	0.9515	0.9074	0.8673	0.8305	0.7967	0.7656	0.7368	0.7101
 0.50	1.0000	0.9524	0.9091	0.8696	0.8333	0.8000	0.7692	0.7407	0.7143
 0.51	1.0000	0.9533	0.9107	0.8718	0.8361	0.8031	0.7727	0.7445	0.7183
 0.52	1.0000	0.9541	0.9123	0.8739	0.8387	0.8062	0.7761	0.7482	0.7222
 0.53	1.0000	0.9550	0.9138	0.8760	0.8413	0.8092	0.7794	0.7518	0.7260
 0.54	1.0000	0.9558	0.9153	0.8780	0.8438	0.8120	0.7826	0.7552	0.7297
 0.55	1.0000	0.9565	0.9167	0.8800	0.8462	0.8148	0.7857	0.7586	0.7333
 0.56	1.0000	0.9573	0.9180	0.8819	0.8485	0.8175	0.7887	0.7619	0.7368
 0.57	1.0000	0.9580	0.9194	0.8837	0.8507	0.8201	0.7917	0.7651	0.7403
 0.58	1.0000	0.9587	0.9206	0.8855	0.8529	0.8227	0.7945	0.7682	0.7436
 0.59	1.0000	0.9593	0.9219	0.8872	0.8551	0.8252	0.7973	0.7712	0.7468
 0.60	1.0000	0.9600	0.9231	0.8889	0.8571	0.8276	0.8000	0.7742	0.7500
 0.61	1.0000	0.9606	0.9242	0.8905	0.8592	0.8299	0.8026	0.7771	0.7531
 0.62	1.0000	0.9612	0.9254	0.8921	0.8611	0.8322	0.8052	0.7799	0.7561
 0.63	1.0000	0.9618	0.9265	0.8936	0.8630	0.8344	0.8077	0.7826	0.7590
 0.64	1.0000	0.9624	0.9275	0.8951	0.8649	0.8366	0.8101	0.7853	0.7619
 0.65	1.0000	0.9630	0.9286	0.8966	0.8667	0.8387	0.8125	0.7879	0.7647
 0.66	1.0000	0.9635	0.9296	0.8980	0.8684	0.8408	0.8148	0.7904	0.7674
 0.67	1.0000	0.9640	0.9306	0.8993	0.8701	0.8428	0.8171	0.7929	0.7701
 0.68	1.0000	0.9645	0.9315	0.9007	0.8718	0.8447	0.8193	0.7953	0.7727
 0.69	1.0000	0.9650	0.9324	0.9020	0.8734	0.8466	0.8214	0.7977	0.7753
 0.70	1.0000	0.9655	0.9333	0.9032	0.8750	0.8485	0.8235	0.8000	0.7778
 0.71	1.0000	0.9660	0.9342	0.9045	0.8765	0.8503	0.8256	0.8023	0.7802
 0.72	1.0000	0.9664	0.9351	0.9057	0.8780	0.8521	0.8276	0.8045	0.7826
 0.73	1.0000	0.9669	0.9359	0.9068	0.8795	0.8538	0.8295	0.8066	0.7849
 0.74	1.0000	0.9673	0.9367	0.9080	0.8810	0.8555	0.8315	0.8087	0.7872
 0.75	1.0000	0.9677	0.9375	0.9091	0.8824	0.8571	0.8333	0.8108	0.7895
 0.76	1.0000	0.9682	0.9383	0.9102	0.8837	0.8588	0.8352	0.8128	0.7917
 0.77	1.0000	0.9686	0.9390	0.9112	0.8851	0.8603	0.8370	0.8148	0.7938
 0.78	1.0000	0.9689	0.9398	0.9123	0.8864	0.8619	0.8387	0.8168	0.7959
 0.79	1.0000	0.9693	0.9405	0.9133	0.8876	0.8634	0.8404	0.8187	0.7980
 0.80	1.0000	0.9697	0.9412	0.9143	0.8889	0.8649	0.8421	0.8205	0.8000
 0.81	1.0000	0.9701	0.9419	0.9153	0.8901	0.8663	0.8438	0.8223	0.8020
 0.82	1.0000	0.9704	0.9425	0.9162	0.8913	0.8677	0.8454	0.8241	0.8039
 0.83	1.0000	0.9708	0.9432	0.9171	0.8925	0.8691	0.8469	0.8259	0.8058
 0.84	1.0000	0.9711	0.9438	0.9180	0.8936	0.8705	0.8485	0.8276	0.8077
 0.85	1.0000	0.9714	0.9444	0.9189	0.8947	0.8718	0.8500	0.8293	0.8095
 0.86	1.0000	0.9718	0.9451	0.9198	0.8958	0.8731	0.8515	0.8309	0.8113
 0.87	1.0000	0.9721	0.9457	0.9206	0.8969	0.8744	0.8529	0.8325	0.8131
 0.88	1.0000	0.9724	0.9462	0.9215	0.8980	0.8756	0.8544	0.8341	0.8148
 0.89	1.0000	0.9727	0.9468	0.9223	0.8990	0.8768	0.8558	0.8357	0.8165
 0.90	1.0000	0.9730	0.9474	0.9231	0.9000	0.8780	0.8571	0.8372	0.8182
 0.91	1.0000	0.9733	0.9479	0.9239	0.9010	0.8792	0.8585	0.8387	0.8198
 0.92	1.0000	0.9735	0.9485	0.9246	0.9020	0.8804	0.8598	0.8402	0.8214
 0.93	1.0000	0.9738	0.9490	0.9254	0.9029	0.8815	0.8611	0.8416	0.8230
 0.94	1.0000	0.9741	0.9495	0.9261	0.9038	0.8826	0.8624	0.8430	0.8246
 0.95	1.0000	0.9744	0.9500	0.9268	0.9048	0.8837	0.8636	0.8444	0.8261
 0.96	1.0000	0.9746	0.9505	0.9275	0.9057	0.8848	0.8649	0.8458	0.8276
 0.97	1.0000	0.9749	0.9510	0.9282	0.9065	0.8858	0.8661	0.8472	0.8291
 0.98	1.0000	0.9751	0.9515	0.9289	0.9074	0.8869	0.8673	0.8485	0.8305
 0.99	1.0000	0.9754	0.9519	0.9296	0.9083	0.8879	0.8684	0.8498	0.8319
 1.00	1.0000	0.9756	0.9524	0.9302	0.9091	0.8889	0.8696	0.8511	0.8333
 1.01	1.0000	0.9758	0.9528	0.9309	0.9099	0.8899	0.8707	0.8523	0.8347
 1.02	1.0000	0.9761	0.9533	0.9315	0.9107	0.8908	0.8718	0.8536	0.8361
 1.03	1.0000	0.9763	0.9537	0.9321	0.9115	0.8918	0.8729	0.8548	0.8374
 1.04	1.0000	0.9765	0.9541	0.9327	0.9123	0.8927	0.8739	0.8560	0.8387
 1.05	1.0000	0.9767	0.9545	0.9333	0.9130	0.8936	0.8750	0.8571	0.8400
 1.06	1.0000	0.9770	0.9550	0.9339	0.9138	0.8945	0.8760	0.8583	0.8413
 1.07	1.0000	0.9772	0.9554	0.9345	0.9145	0.8954	0.8770	0.8594	0.8425
 1.08	1.0000	0.9774	0.9558	0.9351	0.9153	0.8963	0.8780	0.8606	0.8438
 1.09	1.0000	0.9776	0.9561	0.9356	0.9160	0.8971	0.8790	0.8617	0.8450
 1.10	1.0000	0.9778	0.9565	0.9362	0.9167	0.8980	0.8800	0.8627	0.8462
 1.11	1.0000	0.9780	0.9569	0.9367	0.9174	0.8988	0.8810	0.8638	0.8473
 1.12	1.0000	0.9782	0.9573	0.9372	0.9180	0.8996	0.8819	0.8649	0.8485
 1.13	1.0000	0.9784	0.9576	0.9378	0.9187	0.9004	0.8828	0.8659	0.8496
 1.14	1.0000	0.9785	0.9580	0.9383	0.9194	0.9012	0.8837	0.8669	0.8507
 1.15	1.0000	0.9787	0.9583	0.9388	0.9200	0.9020	0.8846	0.8679	0.8519
 1.16	1.0000	0.9789	0.9587	0.9393	0.9206	0.9027	0.8855	0.8689	0.8529
 1.17	1.0000	0.9791	0.9590	0.9398	0.9213	0.9035	0.8864	0.8699	0.8540
 1.18	1.0000	0.9793	0.9593	0.9402	0.9219	0.9042	0.8872	0.8708	0.8551
 1.19	1.0000	0.9794	0.9597	0.9407	0.9225	0.9049	0.8881	0.8718	0.8561
 1.20	1.0000	0.9796	0.9600	0.9412	0.9231	0.9057	0.8889	0.8727	0.8571
 1.21	1.0000	0.9798	0.9603	0.9416	0.9237	0.9064	0.8897	0.8736	0.8582
 1.22	1.0000	0.9799	0.9606	0.9421	0.9242	0.9071	0.8905	0.8746	0.8592
 1.23	1.0000	0.9801	0.9609	0.9425	0.9248	0.9077	0.8913	0.8754	0.8601
 1.24	1.0000	0.9802	0.9612	0.9430	0.9254	0.9084	0.8921	0.8763	0.8611
 1.25	1.0000	0.9804	0.9615	0.9434	0.9259	0.9091	0.8929	0.8772	0.8621
 1.26	1.0000	0.9805	0.9618	0.9438	0.9265	0.9097	0.8936	0.8780	0.8630
 1.27	1.0000	0.9807	0.9621	0.9442	0.9270	0.9104	0.8944	0.8789	0.8639
 1.28	1.0000	0.9808	0.9624	0.9446	0.9275	0.9110	0.8951	0.8797	0.8649
 1.29	1.0000	0.9810	0.9627	0.9451	0.9281	0.9117	0.8958	0.8805	0.8658
 1.30	1.0000	0.9811	0.9630	0.9455	0.9286	0.9123	0.8966	0.8814	0.8667
 1.31	1.0000	0.9813	0.9632	0.9458	0.9291	0.9129	0.8973	0.8822	0.8675
 1.32	1.0000	0.9814	0.9635	0.9462	0.9296	0.9135	0.8980	0.8829	0.8684
 1.33	1.0000	0.9815	0.9638	0.9466	0.9301	0.9141	0.8986	0.8837	0.8693
 1.34	1.0000	0.9817	0.9640	0.9470	0.9306	0.9147	0.8993	0.8845	0.8701
 1.35	1.0000	0.9818	0.9643	0.9474	0.9310	0.9153	0.9000	0.8852	0.8710
 1.36	1.0000	0.9819	0.9645	0.9477	0.9315	0.9158	0.9007	0.8860	0.8718
 1.37	1.0000	0.9821	0.9648	0.9481	0.9320	0.9164	0.9013	0.8867	0.8726
 1.38	1.0000	0.9822	0.9650	0.9485	0.9324	0.9169	0.9020	0.8875	0.8734
 1.39	1.0000	0.9823	0.9653	0.9488	0.9329	0.9175	0.9026	0.8882	0.8742
 1.40	1.0000	0.9825	0.9655	0.9492	0.9333	0.9180	0.9032	0.8889	0.8750
 1.41	1.0000	0.9826	0.9658	0.9495	0.9338	0.9186	0.9038	0.8896	0.8758
 1.42	1.0000	0.9827	0.9660	0.9498	0.9342	0.9191	0.9045	0.8903	0.8765
 1.43	1.0000	0.9828	0.9662	0.9502	0.9346	0.9196	0.9051	0.8910	0.8773
 1.44	1.0000	0.9829	0.9664	0.9505	0.9351	0.9201	0.9057	0.8916	0.8780
 1.45	1.0000	0.9831	0.9667	0.9508	0.9355	0.9206	0.9062	0.8923	0.8788
 1.46	1.0000	0.9832	0.9669	0.9511	0.9359	0.9211	0.9068	0.8930	0.8795
 1.47	1.0000	0.9833	0.9671	0.9515	0.9363	0.9216	0.9074	0.8936	0.8802
 1.48	1.0000	0.9834	0.9673	0.9518	0.9367	0.9221	0.9080	0.8943	0.8810
 1.49	1.0000	0.9835	0.9675	0.9521	0.9371	0.9226	0.9085	0.8949	0.8817
 1.50	1.0000	0.9836	0.9677	0.9524	0.9375	0.9231	0.9091	0.8955	0.8824
 1.51	1.0000	0.9837	0.9679	0.9527	0.9379	0.9235	0.9096	0.8961	0.8830
 1.52	1.0000	0.9838	0.9682	0.9530	0.9383	0.9240	0.9102	0.8968	0.8837
 1.53	1.0000	0.9839	0.9684	0.9533	0.9387	0.9245	0.9107	0.8974	0.8844
 1.54	1.0000	0.9840	0.9686	0.9536	0.9390	0.9249	0.9112	0.8980	0.8851
 1.55	1.0000	0.9841	0.9688	0.9538	0.9394	0.9254	0.9118	0.8986	0.8857
 1.56	1.0000	0.9842	0.9689	0.9541	0.9398	0.9258	0.9123	0.8991	0.8864
 1.57	1.0000	0.9843	0.9691	0.9544	0.9401	0.9263	0.9128	0.8997	0.8870
 1.58	1.0000	0.9844	0.9693	0.9547	0.9405	0.9267	0.9133	0.9003	0.8876
 1.59	1.0000	0.9845	0.9695	0.9550	0.9408	0.9271	0.9138	0.9008	0.8883
 1.60	1.0000	0.9846	0.9697	0.9552	0.9412	0.9275	0.9143	0.9014	0.8889
 1.61	1.0000	0.9847	0.9699	0.9555	0.9415	0.9280	0.9148	0.9020	0.8895
 1.62	1.0000	0.9848	0.9701	0.9558	0.9419	0.9284	0.9153	0.9025	0.8901
 1.63	1.0000	0.9849	0.9702	0.9560	0.9422	0.9288	0.9157	0.9030	0.8907
 1.64	1.0000	0.9850	0.9704	0.9563	0.9425	0.9292	0.9162	0.9036	0.8913
 1.65	1.0000	0.9851	0.9706	0.9565	0.9429	0.9296	0.9167	0.9041	0.8919
 1.66	1.0000	0.9852	0.9708	0.9568	0.9432	0.9300	0.9171	0.9046	0.8925
 1.67	1.0000	0.9853	0.9709	0.9570	0.9435	0.9304	0.9176	0.9051	0.8930
 1.68	1.0000	0.9853	0.9711	0.9573	0.9438	0.9307	0.9180	0.9057	0.8936
 1.69	1.0000	0.9854	0.9713	0.9575	0.9441	0.9311	0.9185	0.9062	0.8942
 1.70	1.0000	0.9855	0.9714	0.9577	0.9444	0.9315	0.9189	0.9067	0.8947
 1.71	1.0000	0.9856	0.9716	0.9580	0.9448	0.9319	0.9194	0.9072	0.8953
 1.72	1.0000	0.9857	0.9718	0.9582	0.9451	0.9322	0.9198	0.9077	0.8958
 1.73	1.0000	0.9858	0.9719	0.9584	0.9454	0.9326	0.9202	0.9081	0.8964
 1.74	1.0000	0.9858	0.9721	0.9587	0.9457	0.9330	0.9206	0.9086	0.8969
 1.75	1.0000	0.9859	0.9722	0.9589	0.9459	0.9333	0.9211	0.9091	0.8974
 1.76	1.0000	0.9860	0.9724	0.9591	0.9462	0.9337	0.9215	0.9096	0.8980
 1.77	1.0000	0.9861	0.9725	0.9593	0.9465	0.9340	0.9219	0.9100	0.8985
 1.78	1.0000	0.9861	0.9727	0.9596	0.9468	0.9344	0.9223	0.9105	0.8990
 1.79	1.0000	0.9862	0.9728	0.9598	0.9471	0.9347	0.9227	0.9109	0.8995
 1.80	1.0000	0.9863	0.9730	0.9600	0.9474	0.9351	0.9231	0.9114	0.9000
 1.81	1.0000	0.9864	0.9731	0.9602	0.9476	0.9354	0.9235	0.9118	0.9005
 1.82	1.0000	0.9864	0.9733	0.9604	0.9479	0.9357	0.9239	0.9123	0.9010
 1.83	1.0000	0.9865	0.9734	0.9606	0.9482	0.9361	0.9242	0.9127	0.9015
 1.84	1.0000	0.9866	0.9735	0.9608	0.9485	0.9364	0.9246	0.9132	0.9020
 1.85	1.0000	0.9867	0.9737	0.9610	0.9487	0.9367	0.9250	0.9136	0.9024
 1.86	1.0000	0.9867	0.9738	0.9612	0.9490	0.9370	0.9254	0.9140	0.9029
 1.87	1.0000	0.9868	0.9740	0.9614	0.9492	0.9373	0.9257	0.9144	0.9034
 1.88	1.0000	0.9869	0.9741	0.9616	0.9495	0.9377	0.9261	0.9148	0.9038
 1.89	1.0000	0.9869	0.9742	0.9618	0.9497	0.9380	0.9265	0.9153	0.9043
 1.90	1.0000	0.9870	0.9744	0.9620	0.9500	0.9383	0.9268	0.9157	0.9048
 1.91	1.0000	0.9871	0.9745	0.9622	0.9502	0.9386	0.9272	0.9161	0.9052
 1.92	1.0000	0.9871	0.9746	0.9624	0.9505	0.9389	0.9275	0.9165	0.9057
 1.93	1.0000	0.9872	0.9747	0.9626	0.9507	0.9392	0.9279	0.9169	0.9061
 1.94	1.0000	0.9873	0.9749	0.9628	0.9510	0.9395	0.9282	0.9173	0.9065
 1.95	1.0000	0.9873	0.9750	0.9630	0.9512	0.9398	0.9286	0.9176	0.9070
 1.96	1.0000	0.9874	0.9751	0.9631	0.9515	0.9400	0.9289	0.9180	0.9074
 1.97	1.0000	0.9875	0.9752	0.9633	0.9517	0.9403	0.9292	0.9184	0.9078
 1.98	1.0000	0.9875	0.9754	0.9635	0.9519	0.9406	0.9296	0.9188	0.9083
 1.99	1.0000	0.9876	0.9755	0.9637	0.9522	0.9409	0.9299	0.9192	0.9087
 2.00	1.0000	0.9877	0.9756	0.9639	0.9524	0.9412	0.9302	0.9195	0.9091
