AvgTime	Flag
 0.53	0
 0.48	0
 0.44	0
 0.42	0
 0.47	0
 0.93	1
 0.46	0
 0.59	0
 0.49	1
 0.96	1
 0.46	0
 0.97	1
 0.48	0
 1.16	1
 0.57	0
 0.47	0
 0.48	1
 0.52	1
 0.46	0
 0.75	1
 0.87	1
 1.22	1
 0.48	0
 0.45	0
 0.77	1
 0.45	0
 0.52	1
 0.55	0
 0.52	1
 0.72	1
 0.50	0
 0.48	0
 1.08	1
 0.82	1
 0.54	0
 1.20	1
 1.19	1
 0.48	1
 0.52	0
 0.48	0
 0.61	1
 0.47	1
 0.51	0
 1.02	1
 0.48	0
 1.15	1
 0.51	0
 0.71	1
 0.48	0
 1.05	1
 0.52	1
 0.86	1
 0.45	0
 0.53	1
 0.49	1
 0.54	0
 0.64	1
 0.47	0
 0.51	0
 1.01	1
 0.53	0
 0.48	0
 0.81	1
 1.24	1
 0.50	0
 0.48	0
 0.48	0
 0.46	0
 0.51	0
 0.53	0
 0.94	1
 0.63	1
 1.05	1
 0.73	1
 0.55	0
 0.55	1
 1.13	1
 0.52	0
 0.48	0
 0.78	1
