AvgTime	Flag
 0.39	0
 0.42	0
 0.41	0
 0.39	0
 0.37	0
 0.37	0
 0.36	0
 0.38	0
 0.42	0
 0.43	0
 0.45	0
 0.36	0
 0.37	0
 0.37	0
 0.34	0
 0.35	0
 0.39	0
 0.39	0
 0.35	0
 0.34	0
 0.41	0
 0.50	0
 0.40	0
 0.37	0
 0.37	0
 0.35	0
 0.41	0
 0.38	0
 0.39	0
 0.37	0
 0.35	0
 0.38	0
 0.37	0
 0.35	0
 0.39	0
 0.34	0
 0.39	0
 0.41	0
 0.40	0
 0.35	0
 0.49	1
 0.38	0
 0.38	0
 0.37	0
 0.43	0
 0.34	0
 0.38	0
 0.44	0
 0.36	0
 0.38	0
 0.40	0
 0.37	0
 0.41	0
 0.34	0
 0.37	0
 0.35	0
 0.39	0
 0.40	0
 0.39	0
 0.37	0
 0.43	0
 0.35	0
 0.40	0
 0.37	0
 0.39	0
 0.41	0
 0.35	0
 0.43	0
 0.37	0
 0.39	0
 0.40	0
 0.39	0
 0.42	0
 0.38	0
 0.38	0
 0.39	0
 0.34	0
 0.42	0
 0.39	0
 0.39	0
