Time	5	10	20	30	50	80
 0.00	1.0000	1.0000	1.0000	1.0000	1.0000	1.0000
 1.00	1.0166	1.0166	1.0166	1.0166	1.0166	1.0166
 2.00	1.0335	1.0335	1.0335	1.0335	1.0335	1.0335
 3.00	1.0506	1.0506	1.0507	1.0507	1.0507	1.0507
 4.00	1.0681	1.0681	1.0681	1.0681	1.0681	1.0681
 5.00	1.0858	1.0858	1.0859	1.0859	1.0859	1.0859
 6.00	1.1037	1.1038	1.1039	1.1039	1.1039	1.1039
 7.00	1.1220	1.1221	1.1223	1.1222	1.1222	1.1222
 8.00	1.1406	1.1407	1.1409	1.1408	1.1408	1.1408
 9.00	1.1595	1.1596	1.1598	1.1598	1.1598	1.1598
10.00	1.1787	1.1789	1.1791	1.1790	1.1790	1.1790
11.00	1.1982	1.1985	1.1987	1.1986	1.1986	1.1986
12.00	1.2180	1.2184	1.2185	1.2184	1.2184	1.2184
13.00	1.2381	1.2387	1.2387	1.2386	1.2386	1.2386
14.00	1.2586	1.2593	1.2593	1.2592	1.2592	1.2592
15.00	1.2794	1.2802	1.2801	1.2800	1.2800	1.2800
16.00	1.3006	1.3015	1.3014	1.3012	1.3012	1.3012
17.00	1.3221	1.3232	1.3229	1.3228	1.3228	1.3228
18.00	1.3440	1.3451	1.3448	1.3447	1.3447	1.3447
19.00	1.3663	1.3674	1.3671	1.3670	1.3669	1.3669
20.00	1.3889	1.3901	1.3897	1.3896	1.3896	1.3895
21.00	1.4119	1.4130	1.4127	1.4126	1.4125	1.4125
22.00	1.4354	1.4362	1.4360	1.4360	1.4359	1.4359
23.00	1.4592	1.4597	1.4598	1.4597	1.4597	1.4596
24.00	1.4835	1.4835	1.4839	1.4838	1.4838	1.4838
25.00	1.5082	1.5076	1.5084	1.5084	1.5083	1.5083
26.00	1.5333	1.5320	1.5334	1.5333	1.5332	1.5332
27.00	1.5588	1.5567	1.5587	1.5586	1.5586	1.5585
28.00	1.5847	1.5817	1.5844	1.5844	1.5843	1.5843
29.00	1.6109	1.6071	1.6106	1.6105	1.6104	1.6104
30.00	1.6373	1.6328	1.6372	1.6371	1.6370	1.6370
31.00	1.6639	1.6589	1.6642	1.6641	1.6640	1.6640
32.00	1.6906	1.6854	1.6916	1.6916	1.6915	1.6915
33.00	1.7170	1.7123	1.7195	1.7194	1.7194	1.7194
34.00	1.7431	1.7396	1.7478	1.7478	1.7477	1.7477
35.00	1.7686	1.7673	1.7766	1.7766	1.7765	1.7765
36.00	1.7935	1.7954	1.8059	1.8059	1.8058	1.8058
37.00	1.8177	1.8240	1.8356	1.8356	1.8355	1.8355
38.00	1.8415	1.8530	1.8658	1.8658	1.8657	1.8657
39.00	1.8651	1.8825	1.8965	1.8965	1.8964	1.8964
40.00	1.8888	1.9125	1.9277	1.9277	1.9276	1.9276
41.00	1.9129	1.9429	1.9594	1.9594	1.9593	1.9593
42.00	1.9375	1.9737	1.9916	1.9916	1.9915	1.9915
43.00	1.9626	2.0051	2.0243	2.0243	2.0242	2.0242
44.00	1.9882	2.0369	2.0575	2.0576	2.0575	2.0575
45.00	2.0143	2.0692	2.0912	2.0914	2.0913	2.0913
46.00	2.0407	2.1020	2.1255	2.1257	2.1256	2.1256
47.00	2.0674	2.1353	2.1604	2.1606	2.1605	2.1604
48.00	2.0944	2.1691	2.1958	2.1960	2.1959	2.1959
49.00	2.1217	2.2035	2.2318	2.2320	2.2319	2.2319
50.00	2.1490	2.2383	2.2683	2.2686	2.2685	2.2685
51.00	2.1765	2.2737	2.3054	2.3057	2.3056	2.3056
52.00	2.2041	2.3097	2.3431	2.3435	2.3434	2.3434
53.00	2.2318	2.3462	2.3815	2.3818	2.3817	2.3817
54.00	2.2597	2.3832	2.4204	2.4208	2.4207	2.4207
55.00	2.2876	2.4208	2.4599	2.4604	2.4603	2.4602
56.00	2.3157	2.4590	2.5001	2.5006	2.5005	2.5005
57.00	2.3439	2.4977	2.5409	2.5414	2.5414	2.5413
58.00	2.3722	2.5371	2.5823	2.5829	2.5829	2.5828
59.00	2.4007	2.5770	2.6244	2.6251	2.6250	2.6250
60.00	2.4293	2.6176	2.6672	2.6679	2.6678	2.6678
61.00	2.4579	2.6587	2.7106	2.7114	2.7113	2.7113
62.00	2.4867	2.7005	2.7547	2.7556	2.7555	2.7555
63.00	2.5156	2.7429	2.7995	2.8005	2.8004	2.8003
64.00	2.5446	2.7860	2.8450	2.8461	2.8460	2.8459
65.00	2.5736	2.8296	2.8913	2.8924	2.8923	2.8923
66.00	2.6026	2.8740	2.9382	2.9395	2.9394	2.9393
67.00	2.6317	2.9190	2.9859	2.9872	2.9872	2.9871
68.00	2.6609	2.9647	3.0343	3.0358	3.0357	3.0356
69.00	2.6900	3.0110	3.0835	3.0851	3.0850	3.0849
70.00	2.7191	3.0580	3.1335	3.1351	3.1351	3.1350
71.00	2.7481	3.1058	3.1843	3.1859	3.1859	3.1858
72.00	2.7771	3.1542	3.2358	3.2376	3.2375	3.2374
73.00	2.8060	3.2033	3.2881	3.2900	3.2899	3.2898
74.00	2.8348	3.2532	3.3413	3.3433	3.3432	3.3430
75.00	2.8634	3.3038	3.3954	3.3976	3.3975	3.3972
76.00	2.8919	3.3551	3.4504	3.4529	3.4528	3.4526
77.00	2.9202	3.4072	3.5062	3.5091	3.5094	3.5092
78.00	2.9482	3.4600	3.5627	3.5662	3.5669	3.5670
79.00	2.9759	3.5133	3.6187	3.6229	3.6241	3.6245
80.00	3.0033	3.5668	3.6702	3.6743	3.6754	3.6757
81.00	3.0303	3.6191	3.7024	3.7037	3.7041	3.7042
82.00	3.0569	3.6667	3.7038	3.7047	3.7050	3.7051
83.00	3.0830	3.6985	3.7036	3.7045	3.7048	3.7049
84.00	3.1085	3.7024	3.7034	3.7043	3.7045	3.7047
85.00	3.1335	3.7021	3.7031	3.7040	3.7043	3.7044
86.00	3.1578	3.7019	3.7029	3.7038	3.7041	3.7042
87.00	3.1815	3.7017	3.7027	3.7036	3.7038	3.7040
88.00	3.2044	3.7014	3.7024	3.7033	3.7036	3.7037
89.00	3.2265	3.7012	3.7022	3.7031	3.7034	3.7035
90.00	3.2478	3.7010	3.7020	3.7029	3.7032	3.7033
91.00	3.2683	3.7008	3.7018	3.7027	3.7029	3.7031
92.00	3.2880	3.7005	3.7015	3.7024	3.7027	3.7028
93.00	3.3068	3.7003	3.7013	3.7022	3.7025	3.7026
94.00	3.3247	3.7001	3.7011	3.7020	3.7022	3.7024
95.00	3.3418	3.6999	3.7008	3.7017	3.7020	3.7021
96.00	3.3579	3.6999	3.7006	3.7015	3.7018	3.7019
97.00	3.3732	3.6998	3.7004	3.7013	3.7016	3.7017
98.00	3.3874	3.6998	3.7002	3.7011	3.7013	3.7015
99.00	3.4008	3.6998	3.7000	3.7008	3.7011	3.7012
100.00	3.4132	3.6998	3.6999	3.7006	3.7009	3.7010
101.00	3.4246	3.6998	3.6999	3.7004	3.7006	3.7008
102.00	3.4351	3.6999	3.6999	3.7001	3.7004	3.7005
103.00	3.4447	3.6999	3.6999	3.7000	3.7002	3.7003
104.00	3.4534	3.6999	3.6999	3.7000	3.7000	3.7001
105.00	3.4612	3.6999	3.6999	3.7000	3.7000	3.7000
106.00	3.4682	3.6999	3.6999	3.7000	3.7000	3.7000
107.00	3.4744	3.6999	3.6999	3.7000	3.7000	3.7000
108.00	3.4798	3.6999	3.6999	3.7000	3.7000	3.7000
109.00	3.4846	3.6999	3.6999	3.7000	3.7000	3.7000
110.00	3.4888	3.6999	3.6999	3.7000	3.7000	3.7000
111.00	3.4924	3.6999	3.6999	3.7000	3.7000	3.7000
112.00	3.4955	3.6999	3.7000	3.7000	3.7000	3.7000
113.00	3.4981	3.6999	3.7000	3.7000	3.7000	3.7000
114.00	3.5003	3.6999	3.7000	3.7000	3.7000	3.7000
115.00	3.5022	3.6999	3.7000	3.7000	3.7000	3.7000
116.00	3.5038	3.6999	3.7000	3.7000	3.7000	3.7000
117.00	3.5051	3.6999	3.7000	3.7000	3.7000	3.7000
118.00	3.5063	3.6999	3.7000	3.7000	3.7000	3.7000
119.00	3.5072	3.6999	3.7000	3.7000	3.7000	3.7000
120.00	3.5080	3.6999	3.7000	3.7000	3.7000	3.7000
121.00	3.5087	3.6999	3.7000	3.7000	3.7000	3.7000
122.00	3.5092	3.6999	3.7000	3.7000	3.7000	3.7000
123.00	3.5097	3.6999	3.7000	3.7000	3.7000	3.7000
124.00	3.5100	3.6999	3.7000	3.7000	3.7000	3.7000
125.00	3.5104	3.6999	3.7000	3.7000	3.7000	3.7000
126.00	3.5106	3.6999	3.7000	3.7000	3.7000	3.7000
127.00	3.5109	3.6999	3.7000	3.7000	3.7000	3.7000
128.00	3.5110	3.6999	3.7000	3.7000	3.7000	3.7000
129.00	3.5112	3.6999	3.7000	3.7000	3.7000	3.7000
130.00	3.5113	3.6999	3.7000	3.7000	3.7000	3.7000
131.00	3.5114	3.6999	3.7000	3.7000	3.7000	3.7000
132.00	3.5115	3.6999	3.7000	3.7000	3.7000	3.7000
133.00	3.5115	3.6999	3.7000	3.7000	3.7000	3.7000
134.00	3.5116	3.6999	3.6999	3.6999	3.6999	3.6999
135.00	3.5116	3.6999	3.6999	3.6999	3.6999	3.6999
136.00	3.5116	3.6999	3.6999	3.6999	3.6999	3.6999
137.00	3.5116	3.6999	3.6999	3.6999	3.6999	3.6999
138.00	3.5116	3.6999	3.6999	3.6999	3.6999	3.6999
139.00	3.5116	3.6999	3.6999	3.6999	3.6999	3.6999
140.00	3.5115	3.6999	3.6999	3.6999	3.6999	3.6999
141.00	3.5115	3.6999	3.6999	3.6999	3.6999	3.6999
142.00	3.5114	3.6998	3.6998	3.6998	3.6998	3.6998
143.00	3.5114	3.6997	3.6997	3.6997	3.6997	3.6997
144.00	3.5113	3.6996	3.6996	3.6996	3.6996	3.6996
145.00	3.5113	3.6994	3.6994	3.6994	3.6994	3.6994
146.00	3.5112	3.6992	3.6992	3.6992	3.6992	3.6992
147.00	3.5111	3.6991	3.6991	3.6991	3.6991	3.6991
148.00	3.5110	3.6989	3.6989	3.6989	3.6989	3.6989
149.00	3.5109	3.6987	3.6987	3.6987	3.6987	3.6987
150.00	3.5108	3.6986	3.6986	3.6986	3.6986	3.6986
