AvgTime	Flag
 0.47	1
 0.41	1
 0.36	1
 0.43	1
 0.46	1
 0.46	1
 0.97	1
 0.42	1
 0.82	1
 0.67	1
 0.79	1
 0.77	1
 0.34	1
 0.38	1
 0.42	1
 0.40	1
 0.39	1
 1.04	1
 0.45	1
 0.45	1
 1.09	1
 0.55	1
 1.22	1
 0.99	1
 0.84	1
 0.86	1
 0.51	1
 0.42	1
 0.92	1
 0.65	1
 0.87	1
 0.95	1
 0.82	1
 0.87	1
 0.85	1
 0.96	1
 0.50	1
 0.80	1
 1.04	1
 1.08	1
 0.75	1
 0.84	1
 0.75	1
 0.40	1
 0.78	1
 0.80	1
 1.13	1
 0.42	1
 0.38	1
 0.91	1
 0.91	1
 1.86	1
 0.90	1
 0.94	1
 1.02	1
 0.87	1
 0.39	1
 0.87	1
 0.45	1
 0.83	1
