 0.00	 0.000000	 0.000000	 0.000000	 0.000000	 0.000000	 0.000000	 0.000000	 0.000000	 0.000000	 0.000000	 0.000000	 0.000000	 0.000000	 0.000000	 0.000000	 0.000000	 0.000000	 0.000000	 0.000000	 0.000000	 0.000000	 0.000000	 0.000000	 0.000000	 0.000000	 0.000000	 0.000000	 0.000000	 0.000000	 0.000000	 0.000000	 0.000000	 0.000000	 0.000000	 0.000000	 0.000000	 0.000000	 0.000000	 0.000000	 0.000000	 0.000000	 0.000000	 0.000000	 0.000000	 0.000000	 0.000000	 0.000000	 0.000000	 0.000000	 0.000000	 0.000000	 0.000000	 0.000000	 0.000000	 0.000000	 0.000000	 0.000000	 0.000000	 0.000000	 0.000000
 1.00	 0.004033	 0.004033	 0.004033	 0.004033	 0.004033	 0.004033	 0.004033	 0.004033	 0.004033	 0.004033	 0.004033	 0.004033	 0.004033	 0.004033	 0.004033	 0.004033	 0.004033	 0.004033	 0.004033	 0.004033	 0.004033	 0.004033	 0.004033	 0.004033	 0.004033	 0.004033	 0.004033	 0.004033	 0.004033	 0.004033	 0.004033	 0.004033	 0.004033	 0.004033	 0.004033	 0.004033	 0.004033	 0.004033	 0.004033	 0.004033	 0.004033	 0.004033	 0.004033	 0.004033	 0.004033	 0.004033	 0.004033	 0.004033	 0.004033	 0.004033	 0.004033	 0.004033	 0.004033	 0.004033	 0.004033	 0.004033	 0.004033	 0.004033	 0.004033	 0.004033
 2.00	 0.008132	 0.008132	 0.008132	 0.008132	 0.008132	 0.008132	 0.008132	 0.008132	 0.008132	 0.008132	 0.008132	 0.008132	 0.008132	 0.008132	 0.008132	 0.008132	 0.008132	 0.008132	 0.008132	 0.008132	 0.008132	 0.008132	 0.008132	 0.008132	 0.008132	 0.008132	 0.008132	 0.008132	 0.008132	 0.008132	 0.008132	 0.008132	 0.008132	 0.008132	 0.008132	 0.008132	 0.008132	 0.008132	 0.008132	 0.008132	 0.008132	 0.008132	 0.008132	 0.008132	 0.008132	 0.008132	 0.008132	 0.008132	 0.008132	 0.008132	 0.008132	 0.008132	 0.008132	 0.008132	 0.008132	 0.008132	 0.008132	 0.008132	 0.008132	 0.008132
 3.00	 0.012298	 0.012298	 0.012298	 0.012298	 0.012298	 0.012298	 0.012298	 0.012298	 0.012298	 0.012298	 0.012298	 0.012298	 0.012298	 0.012298	 0.012298	 0.012298	 0.012298	 0.012298	 0.012298	 0.012298	 0.012298	 0.012298	 0.012298	 0.012298	 0.012298	 0.012298	 0.012298	 0.012298	 0.012298	 0.012298	 0.012298	 0.012298	 0.012298	 0.012298	 0.012298	 0.012298	 0.012298	 0.012298	 0.012298	 0.012298	 0.012298	 0.012298	 0.012298	 0.012298	 0.012298	 0.012298	 0.012298	 0.012298	 0.012298	 0.012298	 0.012298	 0.012298	 0.012298	 0.012298	 0.012298	 0.012298	 0.012298	 0.012298	 0.012298	 0.012298
 4.00	 0.016532	 0.016533	 0.016532	 0.016532	 0.016532	 0.016532	 0.016532	 0.016533	 0.016532	 0.016532	 0.016532	 0.016532	 0.016532	 0.016532	 0.016532	 0.016532	 0.016532	 0.016532	 0.016532	 0.016533	 0.016532	 0.016532	 0.016532	 0.016533	 0.016532	 0.016532	 0.016532	 0.016532	 0.016532	 0.016532	 0.016532	 0.016532	 0.016533	 0.016532	 0.016532	 0.016532	 0.016532	 0.016532	 0.016532	 0.016532	 0.016532	 0.016532	 0.016532	 0.016532	 0.016532	 0.016532	 0.016532	 0.016532	 0.016532	 0.016532	 0.016532	 0.016532	 0.016532	 0.016532	 0.016533	 0.016532	 0.016532	 0.016532	 0.016532	 0.016532
 5.00	 0.020836	 0.020837	 0.020837	 0.020837	 0.020836	 0.020836	 0.020836	 0.020837	 0.020836	 0.020836	 0.020837	 0.020837	 0.020836	 0.020837	 0.020836	 0.020837	 0.020836	 0.020836	 0.020836	 0.020837	 0.020836	 0.020837	 0.020837	 0.020837	 0.020836	 0.020837	 0.020836	 0.020836	 0.020836	 0.020837	 0.020836	 0.020836	 0.020837	 0.020836	 0.020837	 0.020836	 0.020836	 0.020836	 0.020837	 0.020837	 0.020836	 0.020837	 0.020837	 0.020836	 0.020836	 0.020836	 0.020836	 0.020836	 0.020837	 0.020836	 0.020837	 0.020837	 0.020836	 0.020836	 0.020837	 0.020837	 0.020836	 0.020836	 0.020837	 0.020836
 6.00	 0.025211	 0.025212	 0.025212	 0.025211	 0.025211	 0.025211	 0.025211	 0.025212	 0.025211	 0.025211	 0.025211	 0.025212	 0.025211	 0.025211	 0.025210	 0.025212	 0.025211	 0.025211	 0.025211	 0.025212	 0.025210	 0.025211	 0.025212	 0.025212	 0.025211	 0.025212	 0.025211	 0.025211	 0.025211	 0.025211	 0.025211	 0.025211	 0.025212	 0.025211	 0.025212	 0.025211	 0.025210	 0.025211	 0.025212	 0.025212	 0.025210	 0.025211	 0.025211	 0.025210	 0.025211	 0.025211	 0.025211	 0.025211	 0.025212	 0.025211	 0.025211	 0.025211	 0.025211	 0.025211	 0.025212	 0.025211	 0.025211	 0.025211	 0.025212	 0.025211
 7.00	 0.029658	 0.029658	 0.029659	 0.029658	 0.029657	 0.029657	 0.029657	 0.029659	 0.029657	 0.029657	 0.029658	 0.029658	 0.029657	 0.029658	 0.029656	 0.029658	 0.029657	 0.029658	 0.029658	 0.029659	 0.029657	 0.029658	 0.029658	 0.029659	 0.029657	 0.029658	 0.029657	 0.029657	 0.029657	 0.029658	 0.029658	 0.029657	 0.029658	 0.029658	 0.029658	 0.029657	 0.029656	 0.029657	 0.029658	 0.029658	 0.029657	 0.029658	 0.029658	 0.029657	 0.029657	 0.029658	 0.029657	 0.029658	 0.029659	 0.029657	 0.029658	 0.029658	 0.029657	 0.029657	 0.029658	 0.029658	 0.029657	 0.029657	 0.029659	 0.029657
 8.00	 0.034177	 0.034178	 0.034178	 0.034178	 0.034177	 0.034176	 0.034176	 0.034178	 0.034177	 0.034177	 0.034177	 0.034178	 0.034176	 0.034177	 0.034175	 0.034178	 0.034177	 0.034177	 0.034177	 0.034179	 0.034176	 0.034178	 0.034178	 0.034179	 0.034176	 0.034178	 0.034177	 0.034176	 0.034176	 0.034177	 0.034177	 0.034177	 0.034178	 0.034178	 0.034178	 0.034177	 0.034175	 0.034176	 0.034178	 0.034178	 0.034175	 0.034177	 0.034178	 0.034176	 0.034176	 0.034178	 0.034176	 0.034177	 0.034178	 0.034176	 0.034178	 0.034178	 0.034177	 0.034176	 0.034178	 0.034178	 0.034176	 0.034177	 0.034179	 0.034176
 9.00	 0.038771	 0.038771	 0.038772	 0.038772	 0.038770	 0.038769	 0.038770	 0.038773	 0.038770	 0.038770	 0.038771	 0.038772	 0.038769	 0.038771	 0.038768	 0.038772	 0.038770	 0.038771	 0.038772	 0.038772	 0.038769	 0.038771	 0.038772	 0.038773	 0.038770	 0.038772	 0.038771	 0.038769	 0.038770	 0.038771	 0.038771	 0.038770	 0.038771	 0.038771	 0.038772	 0.038771	 0.038769	 0.038770	 0.038772	 0.038772	 0.038768	 0.038770	 0.038772	 0.038768	 0.038770	 0.038772	 0.038770	 0.038771	 0.038772	 0.038769	 0.038771	 0.038772	 0.038771	 0.038769	 0.038771	 0.038772	 0.038770	 0.038770	 0.038773	 0.038769
10.00	 0.043439	 0.043439	 0.043441	 0.043441	 0.043439	 0.043437	 0.043439	 0.043442	 0.043440	 0.043438	 0.043440	 0.043441	 0.043437	 0.043439	 0.043435	 0.043441	 0.043439	 0.043440	 0.043441	 0.043441	 0.043437	 0.043440	 0.043441	 0.043443	 0.043439	 0.043441	 0.043440	 0.043437	 0.043438	 0.043441	 0.043440	 0.043439	 0.043440	 0.043441	 0.043441	 0.043440	 0.043437	 0.043438	 0.043441	 0.043441	 0.043437	 0.043438	 0.043441	 0.043437	 0.043438	 0.043441	 0.043438	 0.043440	 0.043442	 0.043438	 0.043441	 0.043441	 0.043440	 0.043437	 0.043440	 0.043441	 0.043438	 0.043438	 0.043442	 0.043438
11.00	 0.048184	 0.048184	 0.048186	 0.048187	 0.048184	 0.048181	 0.048184	 0.048188	 0.048186	 0.048183	 0.048185	 0.048186	 0.048182	 0.048184	 0.048179	 0.048187	 0.048185	 0.048186	 0.048187	 0.048187	 0.048182	 0.048185	 0.048186	 0.048189	 0.048184	 0.048187	 0.048185	 0.048181	 0.048183	 0.048187	 0.048185	 0.048184	 0.048186	 0.048186	 0.048186	 0.048185	 0.048182	 0.048184	 0.048187	 0.048186	 0.048181	 0.048183	 0.048187	 0.048181	 0.048183	 0.048187	 0.048183	 0.048185	 0.048187	 0.048183	 0.048186	 0.048187	 0.048185	 0.048182	 0.048186	 0.048186	 0.048183	 0.048183	 0.048188	 0.048182
12.00	 0.053007	 0.053007	 0.053008	 0.053011	 0.053007	 0.053002	 0.053007	 0.053011	 0.053010	 0.053005	 0.053009	 0.053009	 0.053005	 0.053007	 0.053001	 0.053011	 0.053008	 0.053009	 0.053012	 0.053010	 0.053005	 0.053008	 0.053009	 0.053013	 0.053007	 0.053010	 0.053009	 0.053004	 0.053006	 0.053011	 0.053008	 0.053007	 0.053010	 0.053009	 0.053009	 0.053009	 0.053005	 0.053007	 0.053011	 0.053009	 0.053004	 0.053005	 0.053010	 0.053003	 0.053006	 0.053010	 0.053005	 0.053008	 0.053010	 0.053005	 0.053010	 0.053009	 0.053008	 0.053004	 0.053009	 0.053009	 0.053006	 0.053005	 0.053012	 0.053004
13.00	 0.057908	 0.057908	 0.057910	 0.057913	 0.057909	 0.057903	 0.057909	 0.057913	 0.057912	 0.057906	 0.057911	 0.057910	 0.057906	 0.057908	 0.057901	 0.057913	 0.057910	 0.057911	 0.057914	 0.057912	 0.057906	 0.057909	 0.057911	 0.057915	 0.057910	 0.057912	 0.057911	 0.057905	 0.057907	 0.057914	 0.057910	 0.057909	 0.057912	 0.057911	 0.057911	 0.057911	 0.057907	 0.057909	 0.057913	 0.057911	 0.057905	 0.057906	 0.057913	 0.057904	 0.057908	 0.057913	 0.057905	 0.057910	 0.057912	 0.057907	 0.057912	 0.057911	 0.057910	 0.057906	 0.057911	 0.057910	 0.057907	 0.057906	 0.057915	 0.057905
14.00	 0.062889	 0.062889	 0.062891	 0.062896	 0.062892	 0.062883	 0.062891	 0.062895	 0.062895	 0.062887	 0.062893	 0.062892	 0.062887	 0.062890	 0.062882	 0.062896	 0.062892	 0.062893	 0.062897	 0.062895	 0.062887	 0.062891	 0.062893	 0.062898	 0.062892	 0.062894	 0.062894	 0.062888	 0.062889	 0.062897	 0.062891	 0.062891	 0.062895	 0.062893	 0.062893	 0.062893	 0.062889	 0.062891	 0.062895	 0.062892	 0.062887	 0.062887	 0.062896	 0.062884	 0.062890	 0.062895	 0.062886	 0.062892	 0.062893	 0.062889	 0.062894	 0.062893	 0.062891	 0.062887	 0.062894	 0.062892	 0.062888	 0.062887	 0.062897	 0.062886
15.00	 0.067952	 0.067953	 0.067953	 0.067960	 0.067956	 0.067944	 0.067955	 0.067957	 0.067959	 0.067949	 0.067957	 0.067954	 0.067949	 0.067953	 0.067945	 0.067960	 0.067956	 0.067957	 0.067961	 0.067959	 0.067949	 0.067953	 0.067956	 0.067962	 0.067956	 0.067958	 0.067958	 0.067952	 0.067952	 0.067962	 0.067953	 0.067955	 0.067960	 0.067956	 0.067956	 0.067957	 0.067952	 0.067954	 0.067958	 0.067955	 0.067949	 0.067949	 0.067960	 0.067946	 0.067954	 0.067959	 0.067948	 0.067955	 0.067957	 0.067952	 0.067958	 0.067956	 0.067954	 0.067949	 0.067959	 0.067955	 0.067951	 0.067949	 0.067961	 0.067947
16.00	 0.073096	 0.073099	 0.073098	 0.073107	 0.073103	 0.073088	 0.073101	 0.073103	 0.073105	 0.073095	 0.073103	 0.073099	 0.073094	 0.073098	 0.073090	 0.073108	 0.073103	 0.073103	 0.073108	 0.073106	 0.073094	 0.073099	 0.073102	 0.073108	 0.073102	 0.073105	 0.073104	 0.073099	 0.073097	 0.073109	 0.073098	 0.073102	 0.073107	 0.073102	 0.073101	 0.073104	 0.073098	 0.073100	 0.073103	 0.073101	 0.073095	 0.073095	 0.073107	 0.073091	 0.073101	 0.073105	 0.073093	 0.073102	 0.073103	 0.073098	 0.073103	 0.073101	 0.073098	 0.073094	 0.073106	 0.073101	 0.073097	 0.073094	 0.073108	 0.073092
17.00	 0.078325	 0.078329	 0.078327	 0.078337	 0.078335	 0.078316	 0.078330	 0.078333	 0.078335	 0.078323	 0.078334	 0.078328	 0.078323	 0.078327	 0.078319	 0.078339	 0.078334	 0.078333	 0.078338	 0.078337	 0.078322	 0.078328	 0.078332	 0.078339	 0.078333	 0.078335	 0.078334	 0.078330	 0.078326	 0.078340	 0.078326	 0.078333	 0.078339	 0.078332	 0.078331	 0.078335	 0.078327	 0.078330	 0.078332	 0.078330	 0.078326	 0.078324	 0.078338	 0.078320	 0.078331	 0.078336	 0.078322	 0.078332	 0.078333	 0.078329	 0.078333	 0.078330	 0.078327	 0.078322	 0.078338	 0.078331	 0.078327	 0.078324	 0.078339	 0.078321
18.00	 0.083639	 0.083645	 0.083641	 0.083652	 0.083652	 0.083629	 0.083645	 0.083648	 0.083650	 0.083638	 0.083648	 0.083642	 0.083638	 0.083641	 0.083633	 0.083656	 0.083651	 0.083650	 0.083654	 0.083652	 0.083636	 0.083643	 0.083647	 0.083655	 0.083648	 0.083650	 0.083649	 0.083647	 0.083641	 0.083657	 0.083640	 0.083651	 0.083657	 0.083647	 0.083646	 0.083651	 0.083642	 0.083645	 0.083647	 0.083646	 0.083642	 0.083638	 0.083654	 0.083635	 0.083647	 0.083652	 0.083636	 0.083646	 0.083649	 0.083645	 0.083647	 0.083645	 0.083640	 0.083635	 0.083654	 0.083647	 0.083643	 0.083639	 0.083654	 0.083636
19.00	 0.089040	 0.089046	 0.089043	 0.089055	 0.089055	 0.089030	 0.089046	 0.089050	 0.089051	 0.089039	 0.089050	 0.089044	 0.089040	 0.089041	 0.089033	 0.089060	 0.089054	 0.089053	 0.089056	 0.089055	 0.089036	 0.089045	 0.089049	 0.089058	 0.089050	 0.089052	 0.089051	 0.089050	 0.089042	 0.089060	 0.089041	 0.089055	 0.089061	 0.089048	 0.089047	 0.089055	 0.089044	 0.089048	 0.089048	 0.089049	 0.089045	 0.089040	 0.089056	 0.089037	 0.089049	 0.089056	 0.089036	 0.089047	 0.089052	 0.089047	 0.089049	 0.089046	 0.089040	 0.089033	 0.089057	 0.089049	 0.089046	 0.089041	 0.089056	 0.089038
20.00	 0.094529	 0.094535	 0.094532	 0.094546	 0.094547	 0.094518	 0.094535	 0.094540	 0.094541	 0.094528	 0.094539	 0.094532	 0.094530	 0.094529	 0.094521	 0.094552	 0.094545	 0.094544	 0.094545	 0.094545	 0.094525	 0.094536	 0.094538	 0.094549	 0.094540	 0.094542	 0.094541	 0.094541	 0.094532	 0.094551	 0.094530	 0.094548	 0.094553	 0.094537	 0.094535	 0.094545	 0.094535	 0.094538	 0.094536	 0.094541	 0.094536	 0.094530	 0.094546	 0.094526	 0.094539	 0.094547	 0.094525	 0.094536	 0.094542	 0.094538	 0.094538	 0.094535	 0.094528	 0.094520	 0.094547	 0.094539	 0.094537	 0.094532	 0.094547	 0.094529
21.00	 0.100106	 0.100114	 0.100112	 0.100127	 0.100128	 0.100095	 0.100114	 0.100120	 0.100121	 0.100107	 0.100118	 0.100111	 0.100110	 0.100106	 0.100098	 0.100133	 0.100125	 0.100125	 0.100124	 0.100124	 0.100102	 0.100115	 0.100116	 0.100129	 0.100120	 0.100123	 0.100121	 0.100120	 0.100112	 0.100131	 0.100109	 0.100130	 0.100136	 0.100114	 0.100113	 0.100125	 0.100114	 0.100118	 0.100114	 0.100123	 0.100116	 0.100110	 0.100126	 0.100105	 0.100119	 0.100128	 0.100103	 0.100114	 0.100123	 0.100117	 0.100117	 0.100113	 0.100106	 0.100096	 0.100127	 0.100118	 0.100118	 0.100113	 0.100126	 0.100110
22.00	 0.105775	 0.105782	 0.105782	 0.105799	 0.105798	 0.105763	 0.105784	 0.105790	 0.105792	 0.105776	 0.105789	 0.105780	 0.105781	 0.105772	 0.105766	 0.105804	 0.105794	 0.105796	 0.105793	 0.105794	 0.105771	 0.105786	 0.105786	 0.105800	 0.105791	 0.105794	 0.105793	 0.105790	 0.105783	 0.105802	 0.105780	 0.105802	 0.105809	 0.105782	 0.105781	 0.105795	 0.105785	 0.105790	 0.105782	 0.105796	 0.105787	 0.105781	 0.105797	 0.105774	 0.105790	 0.105800	 0.105772	 0.105784	 0.105794	 0.105787	 0.105788	 0.105782	 0.105774	 0.105764	 0.105798	 0.105789	 0.105791	 0.105784	 0.105796	 0.105783
23.00	 0.111535	 0.111542	 0.111545	 0.111564	 0.111560	 0.111524	 0.111547	 0.111553	 0.111555	 0.111538	 0.111553	 0.111541	 0.111544	 0.111532	 0.111527	 0.111566	 0.111555	 0.111558	 0.111554	 0.111558	 0.111533	 0.111548	 0.111547	 0.111561	 0.111554	 0.111557	 0.111557	 0.111552	 0.111546	 0.111566	 0.111542	 0.111567	 0.111575	 0.111543	 0.111540	 0.111558	 0.111548	 0.111555	 0.111543	 0.111561	 0.111548	 0.111545	 0.111561	 0.111535	 0.111553	 0.111566	 0.111534	 0.111546	 0.111558	 0.111548	 0.111552	 0.111544	 0.111534	 0.111526	 0.111561	 0.111551	 0.111556	 0.111547	 0.111558	 0.111548
24.00	 0.117389	 0.117396	 0.117401	 0.117422	 0.117416	 0.117378	 0.117403	 0.117408	 0.117411	 0.117392	 0.117411	 0.117395	 0.117400	 0.117385	 0.117380	 0.117423	 0.117409	 0.117414	 0.117409	 0.117416	 0.117388	 0.117403	 0.117401	 0.117417	 0.117411	 0.117414	 0.117416	 0.117408	 0.117403	 0.117423	 0.117398	 0.117427	 0.117436	 0.117398	 0.117394	 0.117415	 0.117405	 0.117413	 0.117398	 0.117420	 0.117403	 0.117404	 0.117417	 0.117390	 0.117409	 0.117425	 0.117390	 0.117402	 0.117415	 0.117403	 0.117410	 0.117401	 0.117387	 0.117382	 0.117419	 0.117408	 0.117415	 0.117403	 0.117413	 0.117407
25.00	 0.123338	 0.123345	 0.123352	 0.123374	 0.123366	 0.123327	 0.123354	 0.123360	 0.123363	 0.123343	 0.123364	 0.123343	 0.123352	 0.123333	 0.123329	 0.123375	 0.123358	 0.123365	 0.123360	 0.123369	 0.123339	 0.123354	 0.123351	 0.123367	 0.123364	 0.123367	 0.123370	 0.123358	 0.123354	 0.123375	 0.123349	 0.123382	 0.123391	 0.123349	 0.123343	 0.123367	 0.123357	 0.123365	 0.123349	 0.123374	 0.123353	 0.123358	 0.123369	 0.123339	 0.123360	 0.123379	 0.123342	 0.123352	 0.123368	 0.123354	 0.123363	 0.123352	 0.123336	 0.123332	 0.123372	 0.123360	 0.123370	 0.123355	 0.123363	 0.123362
26.00	 0.129385	 0.129392	 0.129399	 0.129424	 0.129414	 0.129373	 0.129402	 0.129407	 0.129412	 0.129390	 0.129413	 0.129387	 0.129400	 0.129377	 0.129374	 0.129423	 0.129405	 0.129412	 0.129408	 0.129419	 0.129386	 0.129402	 0.129398	 0.129414	 0.129413	 0.129416	 0.129419	 0.129405	 0.129402	 0.129424	 0.129397	 0.129434	 0.129443	 0.129397	 0.129389	 0.129416	 0.129406	 0.129412	 0.129396	 0.129424	 0.129399	 0.129410	 0.129418	 0.129385	 0.129408	 0.129428	 0.129389	 0.129399	 0.129419	 0.129402	 0.129414	 0.129399	 0.129383	 0.129379	 0.129422	 0.129408	 0.129421	 0.129404	 0.129410	 0.129415
27.00	 0.135531	 0.135538	 0.135546	 0.135572	 0.135560	 0.135517	 0.135548	 0.135554	 0.135558	 0.135536	 0.135559	 0.135529	 0.135548	 0.135521	 0.135516	 0.135569	 0.135548	 0.135558	 0.135554	 0.135566	 0.135531	 0.135549	 0.135543	 0.135559	 0.135559	 0.135563	 0.135566	 0.135549	 0.135549	 0.135570	 0.135544	 0.135584	 0.135592	 0.135544	 0.135534	 0.135562	 0.135551	 0.135556	 0.135541	 0.135572	 0.135543	 0.135558	 0.135564	 0.135529	 0.135554	 0.135575	 0.135535	 0.135545	 0.135568	 0.135548	 0.135561	 0.135542	 0.135528	 0.135524	 0.135569	 0.135555	 0.135570	 0.135549	 0.135556	 0.135566
28.00	 0.141778	 0.141786	 0.141793	 0.141819	 0.141805	 0.141760	 0.141793	 0.141800	 0.141805	 0.141782	 0.141804	 0.141771	 0.141796	 0.141766	 0.141756	 0.141815	 0.141792	 0.141804	 0.141801	 0.141813	 0.141776	 0.141796	 0.141788	 0.141805	 0.141805	 0.141808	 0.141811	 0.141791	 0.141795	 0.141816	 0.141789	 0.141834	 0.141840	 0.141791	 0.141780	 0.141807	 0.141796	 0.141798	 0.141785	 0.141819	 0.141786	 0.141805	 0.141809	 0.141774	 0.141800	 0.141822	 0.141780	 0.141791	 0.141817	 0.141793	 0.141808	 0.141786	 0.141772	 0.141767	 0.141816	 0.141801	 0.141818	 0.141795	 0.141803	 0.141816
29.00	 0.148127	 0.148134	 0.148141	 0.148168	 0.148151	 0.148104	 0.148138	 0.148148	 0.148151	 0.148130	 0.148152	 0.148115	 0.148146	 0.148113	 0.148098	 0.148163	 0.148137	 0.148152	 0.148149	 0.148161	 0.148122	 0.148143	 0.148134	 0.148152	 0.148151	 0.148155	 0.148158	 0.148134	 0.148142	 0.148164	 0.148135	 0.148183	 0.148190	 0.148138	 0.148128	 0.148155	 0.148141	 0.148140	 0.148129	 0.148165	 0.148133	 0.148153	 0.148155	 0.148120	 0.148145	 0.148171	 0.148126	 0.148138	 0.148168	 0.148138	 0.148156	 0.148130	 0.148118	 0.148113	 0.148164	 0.148149	 0.148168	 0.148142	 0.148152	 0.148167
30.00	 0.154581	 0.154586	 0.154592	 0.154621	 0.154600	 0.154551	 0.154583	 0.154599	 0.154602	 0.154580	 0.154604	 0.154561	 0.154599	 0.154565	 0.154543	 0.154613	 0.154585	 0.154602	 0.154600	 0.154612	 0.154571	 0.154592	 0.154584	 0.154603	 0.154601	 0.154603	 0.154606	 0.154579	 0.154592	 0.154616	 0.154586	 0.154634	 0.154644	 0.154588	 0.154580	 0.154607	 0.154590	 0.154584	 0.154575	 0.154613	 0.154583	 0.154603	 0.154601	 0.154567	 0.154593	 0.154624	 0.154575	 0.154588	 0.154621	 0.154586	 0.154607	 0.154579	 0.154568	 0.154562	 0.154616	 0.154600	 0.154621	 0.154593	 0.154604	 0.154621
31.00	 0.161140	 0.161141	 0.161148	 0.161178	 0.161154	 0.161102	 0.161134	 0.161156	 0.161157	 0.161133	 0.161160	 0.161111	 0.161157	 0.161122	 0.161094	 0.161169	 0.161138	 0.161158	 0.161156	 0.161169	 0.161126	 0.161145	 0.161139	 0.161159	 0.161155	 0.161154	 0.161157	 0.161130	 0.161146	 0.161173	 0.161140	 0.161190	 0.161202	 0.161143	 0.161134	 0.161164	 0.161144	 0.161130	 0.161126	 0.161163	 0.161141	 0.161157	 0.161152	 0.161119	 0.161144	 0.161183	 0.161129	 0.161143	 0.161178	 0.161138	 0.161164	 0.161132	 0.161121	 0.161117	 0.161171	 0.161156	 0.161179	 0.161148	 0.161161	 0.161178
32.00	 0.167806	 0.167801	 0.167810	 0.167842	 0.167816	 0.167760	 0.167790	 0.167820	 0.167817	 0.167792	 0.167823	 0.167769	 0.167820	 0.167786	 0.167753	 0.167832	 0.167799	 0.167819	 0.167818	 0.167831	 0.167787	 0.167802	 0.167801	 0.167822	 0.167815	 0.167811	 0.167814	 0.167789	 0.167808	 0.167836	 0.167800	 0.167853	 0.167867	 0.167804	 0.167793	 0.167826	 0.167804	 0.167783	 0.167785	 0.167819	 0.167807	 0.167818	 0.167808	 0.167776	 0.167801	 0.167847	 0.167790	 0.167804	 0.167842	 0.167795	 0.167828	 0.167793	 0.167779	 0.167780	 0.167832	 0.167818	 0.167842	 0.167811	 0.167823	 0.167839
33.00	 0.174579	 0.174568	 0.174578	 0.174612	 0.174586	 0.174526	 0.174557	 0.174590	 0.174587	 0.174557	 0.174595	 0.174537	 0.174591	 0.174557	 0.174520	 0.174604	 0.174566	 0.174588	 0.174588	 0.174601	 0.174557	 0.174566	 0.174571	 0.174594	 0.174584	 0.174577	 0.174578	 0.174555	 0.174580	 0.174609	 0.174566	 0.174625	 0.174639	 0.174573	 0.174559	 0.174596	 0.174573	 0.174541	 0.174553	 0.174583	 0.174580	 0.174588	 0.174569	 0.174541	 0.174565	 0.174617	 0.174558	 0.174571	 0.174614	 0.174561	 0.174601	 0.174563	 0.174545	 0.174552	 0.174599	 0.174590	 0.174613	 0.174583	 0.174595	 0.174606
34.00	 0.181459	 0.181444	 0.181454	 0.181490	 0.181465	 0.181401	 0.181434	 0.181468	 0.181465	 0.181432	 0.181478	 0.181414	 0.181472	 0.181437	 0.181398	 0.181486	 0.181442	 0.181464	 0.181466	 0.181480	 0.181436	 0.181438	 0.181449	 0.181475	 0.181462	 0.181454	 0.181452	 0.181431	 0.181464	 0.181492	 0.181441	 0.181508	 0.181518	 0.181451	 0.181435	 0.181475	 0.181452	 0.181410	 0.181432	 0.181458	 0.181462	 0.181467	 0.181439	 0.181414	 0.181438	 0.181497	 0.181433	 0.181447	 0.181495	 0.181435	 0.181484	 0.181444	 0.181420	 0.181433	 0.181475	 0.181472	 0.181494	 0.181463	 0.181476	 0.181484
35.00	 0.188449	 0.188432	 0.188441	 0.188478	 0.188456	 0.188387	 0.188422	 0.188456	 0.188454	 0.188419	 0.188471	 0.188403	 0.188464	 0.188427	 0.188388	 0.188480	 0.188431	 0.188453	 0.188456	 0.188468	 0.188427	 0.188418	 0.188436	 0.188468	 0.188451	 0.188445	 0.188437	 0.188418	 0.188458	 0.188487	 0.188425	 0.188503	 0.188508	 0.188440	 0.188421	 0.188465	 0.188444	 0.188391	 0.188422	 0.188447	 0.188452	 0.188457	 0.188418	 0.188398	 0.188423	 0.188490	 0.188421	 0.188435	 0.188487	 0.188422	 0.188478	 0.188435	 0.188407	 0.188425	 0.188465	 0.188464	 0.188488	 0.188456	 0.188466	 0.188474
36.00	 0.195551	 0.195532	 0.195543	 0.195578	 0.195559	 0.195486	 0.195527	 0.195558	 0.195555	 0.195521	 0.195575	 0.195505	 0.195570	 0.195529	 0.195491	 0.195587	 0.195537	 0.195555	 0.195557	 0.195568	 0.195531	 0.195511	 0.195535	 0.195573	 0.195551	 0.195549	 0.195538	 0.195517	 0.195565	 0.195592	 0.195519	 0.195612	 0.195610	 0.195541	 0.195523	 0.195567	 0.195551	 0.195486	 0.195523	 0.195551	 0.195553	 0.195558	 0.195512	 0.195496	 0.195520	 0.195597	 0.195523	 0.195535	 0.195589	 0.195520	 0.195583	 0.195538	 0.195506	 0.195531	 0.195568	 0.195568	 0.195594	 0.195560	 0.195571	 0.195579
37.00	 0.202766	 0.202745	 0.202760	 0.202790	 0.202775	 0.202700	 0.202746	 0.202775	 0.202769	 0.202740	 0.202795	 0.202722	 0.202793	 0.202747	 0.202707	 0.202805	 0.202758	 0.202772	 0.202772	 0.202783	 0.202752	 0.202719	 0.202751	 0.202794	 0.202765	 0.202767	 0.202755	 0.202732	 0.202785	 0.202810	 0.202729	 0.202837	 0.202828	 0.202756	 0.202738	 0.202783	 0.202774	 0.202698	 0.202741	 0.202769	 0.202767	 0.202773	 0.202720	 0.202709	 0.202731	 0.202820	 0.202742	 0.202751	 0.202804	 0.202731	 0.202803	 0.202753	 0.202718	 0.202748	 0.202789	 0.202784	 0.202815	 0.202777	 0.202791	 0.202801
38.00	 0.210095	 0.210072	 0.210095	 0.210118	 0.210109	 0.210031	 0.210081	 0.210106	 0.210100	 0.210076	 0.210132	 0.210053	 0.210134	 0.210083	 0.210039	 0.210139	 0.210098	 0.210108	 0.210102	 0.210114	 0.210090	 0.210045	 0.210081	 0.210131	 0.210095	 0.210101	 0.210090	 0.210061	 0.210120	 0.210144	 0.210056	 0.210179	 0.210162	 0.210091	 0.210067	 0.210118	 0.210111	 0.210029	 0.210075	 0.210104	 0.210096	 0.210103	 0.210046	 0.210038	 0.210056	 0.210156	 0.210077	 0.210085	 0.210137	 0.210058	 0.210138	 0.210083	 0.210047	 0.210080	 0.210126	 0.210115	 0.210152	 0.210110	 0.210127	 0.210141
39.00	 0.217541	 0.217515	 0.217550	 0.217564	 0.217559	 0.217480	 0.217533	 0.217557	 0.217546	 0.217528	 0.217590	 0.217501	 0.217594	 0.217540	 0.217489	 0.217590	 0.217555	 0.217561	 0.217550	 0.217564	 0.217545	 0.217489	 0.217531	 0.217588	 0.217542	 0.217552	 0.217544	 0.217510	 0.217571	 0.217596	 0.217501	 0.217638	 0.217615	 0.217545	 0.217512	 0.217569	 0.217564	 0.217478	 0.217528	 0.217555	 0.217539	 0.217554	 0.217487	 0.217486	 0.217501	 0.217607	 0.217529	 0.217537	 0.217589	 0.217501	 0.217589	 0.217531	 0.217494	 0.217527	 0.217581	 0.217562	 0.217605	 0.217561	 0.217580	 0.217601
40.00	 0.225110	 0.225079	 0.225126	 0.225129	 0.225126	 0.225049	 0.225106	 0.225131	 0.225113	 0.225097	 0.225170	 0.225069	 0.225173	 0.225117	 0.225061	 0.225161	 0.225129	 0.225136	 0.225117	 0.225137	 0.225118	 0.225055	 0.225103	 0.225164	 0.225106	 0.225124	 0.225118	 0.225077	 0.225139	 0.225169	 0.225066	 0.225215	 0.225189	 0.225119	 0.225078	 0.225139	 0.225135	 0.225046	 0.225101	 0.225126	 0.225104	 0.225126	 0.225048	 0.225053	 0.225069	 0.225176	 0.225100	 0.225110	 0.225161	 0.225061	 0.225162	 0.225098	 0.225061	 0.225095	 0.225155	 0.225131	 0.225176	 0.225131	 0.225152	 0.225182
41.00	 0.232801	 0.232766	 0.232824	 0.232820	 0.232814	 0.232740	 0.232801	 0.232828	 0.232804	 0.232789	 0.232876	 0.232760	 0.232875	 0.232815	 0.232757	 0.232856	 0.232826	 0.232834	 0.232805	 0.232832	 0.232813	 0.232744	 0.232797	 0.232862	 0.232792	 0.232816	 0.232811	 0.232763	 0.232829	 0.232864	 0.232756	 0.232911	 0.232888	 0.232815	 0.232764	 0.232832	 0.232828	 0.232733	 0.232797	 0.232820	 0.232793	 0.232822	 0.232735	 0.232742	 0.232758	 0.232866	 0.232793	 0.232803	 0.232855	 0.232744	 0.232855	 0.232784	 0.232751	 0.232786	 0.232851	 0.232821	 0.232871	 0.232825	 0.232848	 0.232883
42.00	 0.240621	 0.240577	 0.240645	 0.240638	 0.240628	 0.240554	 0.240618	 0.240647	 0.240622	 0.240607	 0.240703	 0.240575	 0.240700	 0.240636	 0.240577	 0.240674	 0.240646	 0.240655	 0.240617	 0.240654	 0.240630	 0.240558	 0.240617	 0.240680	 0.240599	 0.240629	 0.240626	 0.240568	 0.240645	 0.240684	 0.240573	 0.240732	 0.240708	 0.240632	 0.240571	 0.240647	 0.240644	 0.240540	 0.240615	 0.240640	 0.240606	 0.240643	 0.240546	 0.240553	 0.240569	 0.240681	 0.240609	 0.240619	 0.240674	 0.240551	 0.240670	 0.240593	 0.240566	 0.240603	 0.240673	 0.240639	 0.240691	 0.240645	 0.240667	 0.240709
43.00	 0.248568	 0.248512	 0.248588	 0.248581	 0.248569	 0.248496	 0.248558	 0.248593	 0.248568	 0.248552	 0.248651	 0.248514	 0.248650	 0.248582	 0.248521	 0.248620	 0.248590	 0.248597	 0.248558	 0.248601	 0.248575	 0.248499	 0.248564	 0.248623	 0.248532	 0.248562	 0.248565	 0.248496	 0.248589	 0.248626	 0.248515	 0.248681	 0.248653	 0.248570	 0.248504	 0.248588	 0.248587	 0.248475	 0.248559	 0.248587	 0.248541	 0.248586	 0.248483	 0.248494	 0.248505	 0.248619	 0.248547	 0.248561	 0.248619	 0.248487	 0.248613	 0.248527	 0.248505	 0.248548	 0.248623	 0.248584	 0.248637	 0.248589	 0.248611	 0.248658
44.00	 0.256643	 0.256574	 0.256657	 0.256656	 0.256634	 0.256566	 0.256624	 0.256665	 0.256643	 0.256626	 0.256722	 0.256579	 0.256724	 0.256656	 0.256593	 0.256692	 0.256666	 0.256663	 0.256628	 0.256675	 0.256648	 0.256568	 0.256639	 0.256693	 0.256595	 0.256623	 0.256630	 0.256553	 0.256661	 0.256694	 0.256587	 0.256757	 0.256728	 0.256634	 0.256564	 0.256660	 0.256657	 0.256536	 0.256633	 0.256664	 0.256603	 0.256655	 0.256548	 0.256562	 0.256572	 0.256686	 0.256611	 0.256630	 0.256690	 0.256555	 0.256682	 0.256591	 0.256568	 0.256623	 0.256702	 0.256658	 0.256711	 0.256658	 0.256681	 0.256735
45.00	 0.264846	 0.264770	 0.264857	 0.264859	 0.264828	 0.264765	 0.264822	 0.264865	 0.264846	 0.264831	 0.264921	 0.264774	 0.264925	 0.264861	 0.264795	 0.264892	 0.264872	 0.264860	 0.264826	 0.264877	 0.264849	 0.264768	 0.264844	 0.264891	 0.264788	 0.264812	 0.264823	 0.264742	 0.264859	 0.264892	 0.264787	 0.264961	 0.264931	 0.264832	 0.264753	 0.264861	 0.264856	 0.264729	 0.264834	 0.264871	 0.264791	 0.264851	 0.264741	 0.264760	 0.264769	 0.264881	 0.264804	 0.264830	 0.264893	 0.264751	 0.264881	 0.264788	 0.264762	 0.264825	 0.264913	 0.264864	 0.264915	 0.264859	 0.264884	 0.264943
46.00	 0.273181	 0.273097	 0.273191	 0.273192	 0.273153	 0.273095	 0.273154	 0.273196	 0.273174	 0.273167	 0.273251	 0.273103	 0.273252	 0.273201	 0.273129	 0.273227	 0.273211	 0.273191	 0.273152	 0.273210	 0.273182	 0.273097	 0.273182	 0.273217	 0.273111	 0.273130	 0.273147	 0.273066	 0.273192	 0.273225	 0.273121	 0.273292	 0.273264	 0.273163	 0.273071	 0.273196	 0.273182	 0.273059	 0.273163	 0.273211	 0.273111	 0.273176	 0.273065	 0.273093	 0.273099	 0.273206	 0.273133	 0.273164	 0.273227	 0.273073	 0.273214	 0.273116	 0.273091	 0.273157	 0.273249	 0.273199	 0.273250	 0.273189	 0.273221	 0.273282
47.00	 0.281653	 0.281558	 0.281660	 0.281656	 0.281611	 0.281557	 0.281618	 0.281658	 0.281633	 0.281634	 0.281717	 0.281568	 0.281712	 0.281673	 0.281596	 0.281696	 0.281681	 0.281661	 0.281614	 0.281677	 0.281647	 0.281562	 0.281649	 0.281680	 0.281567	 0.281579	 0.281603	 0.281523	 0.281657	 0.281692	 0.281585	 0.281753	 0.281724	 0.281631	 0.281528	 0.281667	 0.281642	 0.281527	 0.281623	 0.281682	 0.281566	 0.281628	 0.281521	 0.281563	 0.281568	 0.281666	 0.281596	 0.281631	 0.281693	 0.281526	 0.281682	 0.281573	 0.281554	 0.281619	 0.281714	 0.281667	 0.281719	 0.281650	 0.281693	 0.281755
48.00	 0.290265	 0.290155	 0.290264	 0.290253	 0.290210	 0.290156	 0.290211	 0.290256	 0.290229	 0.290233	 0.290320	 0.290168	 0.290307	 0.290280	 0.290196	 0.290304	 0.290285	 0.290266	 0.290210	 0.290277	 0.290245	 0.290160	 0.290250	 0.290282	 0.290160	 0.290161	 0.290197	 0.290120	 0.290255	 0.290292	 0.290185	 0.290349	 0.290324	 0.290236	 0.290124	 0.290276	 0.290239	 0.290131	 0.290218	 0.290284	 0.290163	 0.290214	 0.290108	 0.290169	 0.290175	 0.290266	 0.290193	 0.290233	 0.290299	 0.290116	 0.290286	 0.290165	 0.290151	 0.290216	 0.290313	 0.290270	 0.290323	 0.290250	 0.290298	 0.290366
49.00	 0.299013	 0.298888	 0.299005	 0.298985	 0.298953	 0.298892	 0.298934	 0.298990	 0.298963	 0.298968	 0.299058	 0.298903	 0.299039	 0.299023	 0.298934	 0.299053	 0.299028	 0.299010	 0.298939	 0.299014	 0.298982	 0.298893	 0.298986	 0.299024	 0.298890	 0.298886	 0.298926	 0.298854	 0.298995	 0.299032	 0.298926	 0.299082	 0.299059	 0.298976	 0.298863	 0.299016	 0.298977	 0.298866	 0.298953	 0.299020	 0.298899	 0.298941	 0.298833	 0.298916	 0.298918	 0.299005	 0.298924	 0.298973	 0.299045	 0.298844	 0.299026	 0.298891	 0.298886	 0.298948	 0.299053	 0.299012	 0.299066	 0.298986	 0.299042	 0.299111
50.00	 0.307896	 0.307757	 0.307886	 0.307858	 0.307841	 0.307770	 0.307793	 0.307863	 0.307832	 0.307841	 0.307929	 0.307778	 0.307910	 0.307904	 0.307807	 0.307939	 0.307915	 0.307891	 0.307809	 0.307890	 0.307863	 0.307770	 0.307866	 0.307909	 0.307759	 0.307756	 0.307792	 0.307731	 0.307874	 0.307910	 0.307804	 0.307955	 0.307936	 0.307856	 0.307740	 0.307893	 0.307858	 0.307733	 0.307827	 0.307896	 0.307775	 0.307811	 0.307704	 0.307799	 0.307797	 0.307877	 0.307791	 0.307853	 0.307934	 0.307711	 0.307901	 0.307758	 0.307766	 0.307817	 0.307931	 0.307894	 0.307949	 0.307861	 0.307922	 0.307994
51.00	 0.316916	 0.316763	 0.316905	 0.316875	 0.316866	 0.316788	 0.316794	 0.316882	 0.316844	 0.316858	 0.316936	 0.316788	 0.316926	 0.316921	 0.316821	 0.316961	 0.316946	 0.316917	 0.316822	 0.316910	 0.316888	 0.316790	 0.316893	 0.316935	 0.316767	 0.316769	 0.316800	 0.316745	 0.316893	 0.316929	 0.316822	 0.316970	 0.316956	 0.316874	 0.316754	 0.316908	 0.316878	 0.316740	 0.316841	 0.316916	 0.316792	 0.316825	 0.316719	 0.316822	 0.316813	 0.316891	 0.316802	 0.316869	 0.316970	 0.316718	 0.316922	 0.316765	 0.316783	 0.316827	 0.316949	 0.316917	 0.316972	 0.316874	 0.316944	 0.317020
52.00	 0.326076	 0.325912	 0.326067	 0.326036	 0.326027	 0.325948	 0.325946	 0.326048	 0.325999	 0.326016	 0.326083	 0.325934	 0.326082	 0.326080	 0.325979	 0.326126	 0.326122	 0.326091	 0.325984	 0.326078	 0.326059	 0.325957	 0.326065	 0.326108	 0.325925	 0.325923	 0.325954	 0.325902	 0.326055	 0.326089	 0.325979	 0.326132	 0.326120	 0.326034	 0.325909	 0.326067	 0.326038	 0.325896	 0.326001	 0.326084	 0.325951	 0.325983	 0.325877	 0.325983	 0.325967	 0.326046	 0.325962	 0.326031	 0.326151	 0.325867	 0.326091	 0.325923	 0.325940	 0.325986	 0.326107	 0.326075	 0.326139	 0.326026	 0.326109	 0.326192
53.00	 0.335375	 0.335212	 0.335368	 0.335342	 0.335328	 0.335251	 0.335245	 0.335362	 0.335303	 0.335317	 0.335377	 0.335224	 0.335389	 0.335385	 0.335287	 0.335439	 0.335438	 0.335412	 0.335294	 0.335391	 0.335373	 0.335270	 0.335382	 0.335423	 0.335237	 0.335217	 0.335255	 0.335209	 0.335361	 0.335399	 0.335283	 0.335447	 0.335430	 0.335337	 0.335203	 0.335371	 0.335341	 0.335203	 0.335307	 0.335398	 0.335258	 0.335291	 0.335183	 0.335292	 0.335268	 0.335341	 0.335264	 0.335344	 0.335471	 0.335164	 0.335405	 0.335227	 0.335240	 0.335288	 0.335412	 0.335384	 0.335451	 0.335323	 0.335416	 0.335502
54.00	 0.344822	 0.344662	 0.344810	 0.344801	 0.344769	 0.344707	 0.344690	 0.344821	 0.344750	 0.344774	 0.344824	 0.344659	 0.344847	 0.344841	 0.344739	 0.344902	 0.344900	 0.344879	 0.344754	 0.344854	 0.344837	 0.344731	 0.344843	 0.344887	 0.344699	 0.344656	 0.344704	 0.344656	 0.344808	 0.344864	 0.344740	 0.344915	 0.344887	 0.344790	 0.344641	 0.344829	 0.344792	 0.344652	 0.344764	 0.344856	 0.344715	 0.344753	 0.344640	 0.344749	 0.344716	 0.344786	 0.344709	 0.344801	 0.344936	 0.344612	 0.344865	 0.344677	 0.344681	 0.344736	 0.344869	 0.344849	 0.344907	 0.344770	 0.344867	 0.344960
55.00	 0.354413	 0.354264	 0.354406	 0.354413	 0.354363	 0.354317	 0.354283	 0.354433	 0.354350	 0.354385	 0.354420	 0.354238	 0.354456	 0.354451	 0.354342	 0.354513	 0.354509	 0.354494	 0.354364	 0.354466	 0.354448	 0.354340	 0.354449	 0.354505	 0.354316	 0.354245	 0.354303	 0.354258	 0.354409	 0.354475	 0.354351	 0.354536	 0.354490	 0.354402	 0.354228	 0.354436	 0.354394	 0.354256	 0.354379	 0.354461	 0.354329	 0.354367	 0.354245	 0.354357	 0.354318	 0.354381	 0.354299	 0.354413	 0.354548	 0.354214	 0.354472	 0.354277	 0.354276	 0.354341	 0.354471	 0.354465	 0.354513	 0.354374	 0.354466	 0.354566
56.00	 0.364149	 0.364019	 0.364159	 0.364175	 0.364107	 0.364076	 0.364033	 0.364199	 0.364101	 0.364151	 0.364165	 0.363969	 0.364222	 0.364216	 0.364092	 0.364275	 0.364270	 0.364256	 0.364124	 0.364227	 0.364211	 0.364095	 0.364205	 0.364272	 0.364084	 0.363985	 0.364049	 0.364014	 0.364159	 0.364236	 0.364113	 0.364313	 0.364243	 0.364166	 0.363973	 0.364190	 0.364156	 0.364010	 0.364148	 0.364215	 0.364094	 0.364135	 0.363997	 0.364110	 0.364081	 0.364134	 0.364034	 0.364179	 0.364308	 0.363971	 0.364228	 0.364022	 0.364024	 0.364098	 0.364228	 0.364231	 0.364278	 0.364125	 0.364217	 0.364324
57.00	 0.374042	 0.373931	 0.374065	 0.374084	 0.374001	 0.373994	 0.373939	 0.374125	 0.374005	 0.374073	 0.374070	 0.373861	 0.374145	 0.374141	 0.373991	 0.374183	 0.374184	 0.374171	 0.374037	 0.374151	 0.374124	 0.374003	 0.374126	 0.374188	 0.374004	 0.373879	 0.373956	 0.373918	 0.374062	 0.374158	 0.374026	 0.374251	 0.374154	 0.374079	 0.373876	 0.374088	 0.374072	 0.373921	 0.374070	 0.374125	 0.374006	 0.374054	 0.373906	 0.374016	 0.374003	 0.374053	 0.373928	 0.374100	 0.374221	 0.373886	 0.374130	 0.373920	 0.373934	 0.374011	 0.374143	 0.374148	 0.374198	 0.374028	 0.374123	 0.374235
58.00	 0.384102	 0.383992	 0.384128	 0.384145	 0.384054	 0.384064	 0.384004	 0.384209	 0.384069	 0.384149	 0.384142	 0.383916	 0.384222	 0.384220	 0.384049	 0.384247	 0.384260	 0.384239	 0.384107	 0.384233	 0.384196	 0.384071	 0.384214	 0.384252	 0.384076	 0.383929	 0.384029	 0.383975	 0.384119	 0.384247	 0.384095	 0.384351	 0.384223	 0.384146	 0.383936	 0.384136	 0.384143	 0.383983	 0.384147	 0.384188	 0.384071	 0.384123	 0.383976	 0.384082	 0.384078	 0.384138	 0.383980	 0.384180	 0.384287	 0.383957	 0.384186	 0.383976	 0.384001	 0.384088	 0.384218	 0.384220	 0.384270	 0.384083	 0.384182	 0.384303
59.00	 0.394322	 0.394216	 0.394350	 0.394360	 0.394267	 0.394290	 0.394224	 0.394451	 0.394299	 0.394383	 0.394384	 0.394129	 0.394449	 0.394453	 0.394260	 0.394463	 0.394495	 0.394465	 0.394337	 0.394481	 0.394432	 0.394304	 0.394464	 0.394474	 0.394313	 0.394149	 0.394261	 0.394192	 0.394342	 0.394497	 0.394324	 0.394604	 0.394450	 0.394362	 0.394162	 0.394345	 0.394382	 0.394201	 0.394383	 0.394405	 0.394296	 0.394347	 0.394207	 0.394302	 0.394315	 0.394392	 0.394200	 0.394416	 0.394508	 0.394191	 0.394405	 0.394192	 0.394234	 0.394319	 0.394453	 0.394449	 0.394498	 0.394300	 0.394400	 0.394528
60.00	 0.404700	 0.404596	 0.404730	 0.404741	 0.404654	 0.404683	 0.404608	 0.404857	 0.404692	 0.404781	 0.404790	 0.404508	 0.404839	 0.404840	 0.404622	 0.404850	 0.404897	 0.404859	 0.404726	 0.404892	 0.404829	 0.404698	 0.404867	 0.404856	 0.404712	 0.404545	 0.404653	 0.404579	 0.404729	 0.404905	 0.404725	 0.405013	 0.404840	 0.404732	 0.404555	 0.404723	 0.404782	 0.404582	 0.404784	 0.404784	 0.404680	 0.404734	 0.404602	 0.404680	 0.404706	 0.404803	 0.404585	 0.404807	 0.404890	 0.404581	 0.404784	 0.404574	 0.404640	 0.404710	 0.404852	 0.404833	 0.404886	 0.404685	 0.404782	 0.404907
61.00	 0.415239	 0.415135	 0.415274	 0.415293	 0.415219	 0.415230	 0.415161	 0.415433	 0.415253	 0.415346	 0.415360	 0.415053	 0.415399	 0.415392	 0.415143	 0.415407	 0.415464	 0.415421	 0.415283	 0.415461	 0.415399	 0.415252	 0.415435	 0.415403	 0.415280	 0.415110	 0.415212	 0.415132	 0.415284	 0.415470	 0.415300	 0.415579	 0.415397	 0.415266	 0.415119	 0.415262	 0.415342	 0.415129	 0.415353	 0.415326	 0.415232	 0.415284	 0.415160	 0.415222	 0.415264	 0.415378	 0.415134	 0.415371	 0.415437	 0.415131	 0.415331	 0.415130	 0.415217	 0.415258	 0.415415	 0.415389	 0.415452	 0.415247	 0.415327	 0.415453
62.00	 0.425938	 0.425842	 0.425979	 0.426017	 0.425964	 0.425932	 0.425885	 0.426174	 0.425977	 0.426080	 0.426083	 0.425759	 0.426131	 0.426114	 0.425829	 0.426130	 0.426192	 0.426149	 0.426018	 0.426194	 0.426135	 0.425966	 0.426171	 0.426114	 0.426010	 0.425838	 0.425933	 0.425852	 0.426004	 0.426188	 0.426045	 0.426305	 0.426118	 0.425961	 0.425855	 0.425967	 0.426074	 0.425838	 0.426090	 0.426037	 0.425947	 0.426002	 0.425880	 0.425928	 0.425984	 0.426115	 0.425857	 0.426102	 0.426148	 0.425849	 0.426050	 0.425848	 0.425958	 0.425972	 0.426145	 0.426117	 0.426193	 0.425981	 0.426036	 0.426166
63.00	 0.436808	 0.436720	 0.436864	 0.436914	 0.436882	 0.436805	 0.436776	 0.437081	 0.436867	 0.436980	 0.436972	 0.436635	 0.437034	 0.436999	 0.436683	 0.437034	 0.437081	 0.437045	 0.436926	 0.437084	 0.437036	 0.436845	 0.437084	 0.436996	 0.436898	 0.436731	 0.436817	 0.436737	 0.436891	 0.437075	 0.436955	 0.437209	 0.437009	 0.436840	 0.436759	 0.436840	 0.436970	 0.436725	 0.436996	 0.436921	 0.436828	 0.436897	 0.436761	 0.436811	 0.436877	 0.437011	 0.436752	 0.437004	 0.437030	 0.436728	 0.436933	 0.436729	 0.436860	 0.436855	 0.437042	 0.437021	 0.437109	 0.436894	 0.436926	 0.437050
64.00	 0.447862	 0.447765	 0.447925	 0.447979	 0.447964	 0.447859	 0.447839	 0.448154	 0.447937	 0.448040	 0.448021	 0.447686	 0.448112	 0.448064	 0.447720	 0.448111	 0.448144	 0.448119	 0.448004	 0.448133	 0.448112	 0.447891	 0.448171	 0.448065	 0.447958	 0.447803	 0.447870	 0.447796	 0.447942	 0.448148	 0.448029	 0.448288	 0.448072	 0.447904	 0.447833	 0.447884	 0.448039	 0.447787	 0.448073	 0.447990	 0.447882	 0.447960	 0.447807	 0.447871	 0.447945	 0.448078	 0.447818	 0.448085	 0.448084	 0.447786	 0.447980	 0.447784	 0.447926	 0.447918	 0.448110	 0.448094	 0.448196	 0.447989	 0.447983	 0.448110
65.00	 0.459100	 0.458994	 0.459158	 0.459207	 0.459211	 0.459094	 0.459076	 0.459384	 0.459178	 0.459270	 0.459241	 0.458902	 0.459366	 0.459299	 0.458951	 0.459355	 0.459395	 0.459373	 0.459263	 0.459366	 0.459366	 0.459126	 0.459424	 0.459327	 0.459196	 0.459048	 0.459096	 0.459021	 0.459167	 0.459398	 0.459268	 0.459546	 0.459311	 0.459148	 0.459071	 0.459114	 0.459286	 0.459030	 0.459325	 0.459244	 0.459115	 0.459200	 0.459033	 0.459096	 0.459195	 0.459313	 0.459055	 0.459351	 0.459316	 0.459012	 0.459208	 0.459011	 0.459170	 0.459158	 0.459354	 0.459342	 0.459449	 0.459268	 0.459204	 0.459361
66.00	 0.470505	 0.470404	 0.470570	 0.470606	 0.470626	 0.470499	 0.470489	 0.470787	 0.470593	 0.470679	 0.470632	 0.470297	 0.470798	 0.470710	 0.470369	 0.470775	 0.470829	 0.470805	 0.470704	 0.470780	 0.470798	 0.470556	 0.470859	 0.470758	 0.470606	 0.470478	 0.470499	 0.470425	 0.470579	 0.470820	 0.470676	 0.470991	 0.470730	 0.470567	 0.470478	 0.470520	 0.470702	 0.470446	 0.470739	 0.470675	 0.470528	 0.470616	 0.470447	 0.470499	 0.470635	 0.470724	 0.470464	 0.470793	 0.470723	 0.470419	 0.470619	 0.470406	 0.470595	 0.470576	 0.470773	 0.470779	 0.470881	 0.470722	 0.470602	 0.470802
67.00	 0.482080	 0.481996	 0.482163	 0.482191	 0.482226	 0.482091	 0.482076	 0.482372	 0.482189	 0.482266	 0.482207	 0.481869	 0.482406	 0.482304	 0.481971	 0.482375	 0.482442	 0.482415	 0.482314	 0.482370	 0.482415	 0.482173	 0.482476	 0.482364	 0.482186	 0.482082	 0.482079	 0.482017	 0.482177	 0.482429	 0.482273	 0.482614	 0.482326	 0.482175	 0.482056	 0.482103	 0.482288	 0.482028	 0.482336	 0.482297	 0.482124	 0.482215	 0.482043	 0.482092	 0.482258	 0.482322	 0.482049	 0.482408	 0.482313	 0.482002	 0.482222	 0.481986	 0.482201	 0.482163	 0.482378	 0.482397	 0.482500	 0.482346	 0.482169	 0.482425
68.00	 0.493833	 0.493764	 0.493939	 0.493956	 0.494005	 0.493881	 0.493848	 0.494145	 0.493954	 0.494029	 0.493966	 0.493636	 0.494192	 0.494084	 0.493750	 0.494160	 0.494240	 0.494208	 0.494096	 0.494156	 0.494211	 0.493963	 0.494279	 0.494157	 0.493949	 0.493857	 0.493844	 0.493790	 0.493952	 0.494209	 0.494063	 0.494421	 0.494093	 0.493963	 0.493812	 0.493852	 0.494039	 0.493776	 0.494128	 0.494096	 0.493909	 0.494005	 0.493826	 0.493882	 0.494058	 0.494106	 0.493814	 0.494203	 0.494073	 0.493775	 0.494012	 0.493757	 0.493975	 0.493930	 0.494174	 0.494190	 0.494305	 0.494148	 0.493927	 0.494230
69.00	 0.505786	 0.505714	 0.505885	 0.505921	 0.505976	 0.505870	 0.505819	 0.506100	 0.505900	 0.505978	 0.505930	 0.505592	 0.506166	 0.506057	 0.505708	 0.506117	 0.506226	 0.506196	 0.506061	 0.506122	 0.506175	 0.505928	 0.506259	 0.506121	 0.505908	 0.505804	 0.505802	 0.505758	 0.505919	 0.506173	 0.506043	 0.506414	 0.506055	 0.505928	 0.505751	 0.505784	 0.505976	 0.505696	 0.506105	 0.506084	 0.505883	 0.505982	 0.505792	 0.505864	 0.506043	 0.506067	 0.505754	 0.506176	 0.506007	 0.505743	 0.505994	 0.505724	 0.505937	 0.505881	 0.506151	 0.506169	 0.506279	 0.506129	 0.505889	 0.506213
70.00	 0.517936	 0.517858	 0.518005	 0.518072	 0.518132	 0.518043	 0.517989	 0.518232	 0.518046	 0.518120	 0.518090	 0.517741	 0.518324	 0.518233	 0.517847	 0.518261	 0.518384	 0.518366	 0.518220	 0.518274	 0.518313	 0.518078	 0.518425	 0.518271	 0.518065	 0.517924	 0.517947	 0.517917	 0.518083	 0.518327	 0.518217	 0.518578	 0.518222	 0.518074	 0.517876	 0.517904	 0.518103	 0.517808	 0.518263	 0.518257	 0.518044	 0.518148	 0.517940	 0.518042	 0.518196	 0.518217	 0.517876	 0.518330	 0.518122	 0.517909	 0.518155	 0.517887	 0.518085	 0.518025	 0.518298	 0.518331	 0.518433	 0.518296	 0.518051	 0.518361
71.00	 0.530282	 0.530204	 0.530317	 0.530424	 0.530471	 0.530398	 0.530350	 0.530560	 0.530386	 0.530453	 0.530444	 0.530084	 0.530668	 0.530608	 0.530167	 0.530593	 0.530710	 0.530717	 0.530563	 0.530619	 0.530633	 0.530427	 0.530784	 0.530614	 0.530420	 0.530231	 0.530284	 0.530259	 0.530445	 0.530674	 0.530584	 0.530925	 0.530593	 0.530408	 0.530203	 0.530220	 0.530416	 0.530113	 0.530610	 0.530617	 0.530392	 0.530500	 0.530279	 0.530411	 0.530533	 0.530557	 0.530182	 0.530659	 0.530431	 0.530265	 0.530494	 0.530248	 0.530431	 0.530359	 0.530622	 0.530676	 0.530772	 0.530647	 0.530407	 0.530684
72.00	 0.542821	 0.542743	 0.542833	 0.542975	 0.543008	 0.542944	 0.542903	 0.543084	 0.542918	 0.542969	 0.542992	 0.542627	 0.543202	 0.543174	 0.542670	 0.543115	 0.543219	 0.543241	 0.543085	 0.543161	 0.543162	 0.542971	 0.543341	 0.543150	 0.542974	 0.542738	 0.542826	 0.542786	 0.543004	 0.543210	 0.543131	 0.543452	 0.543158	 0.542931	 0.542728	 0.542738	 0.542913	 0.542607	 0.543148	 0.543151	 0.542923	 0.543050	 0.542804	 0.542975	 0.543063	 0.543103	 0.542692	 0.543180	 0.542937	 0.542817	 0.543029	 0.542802	 0.542971	 0.542882	 0.543132	 0.543210	 0.543302	 0.543199	 0.542945	 0.543210
73.00	 0.555550	 0.555490	 0.555556	 0.555722	 0.555733	 0.555678	 0.555654	 0.555813	 0.555649	 0.555692	 0.555741	 0.555384	 0.555939	 0.555937	 0.555373	 0.555846	 0.555923	 0.555958	 0.555793	 0.555889	 0.555902	 0.555711	 0.556093	 0.555881	 0.555727	 0.555447	 0.555574	 0.555508	 0.555768	 0.555933	 0.555860	 0.556180	 0.555915	 0.555644	 0.555458	 0.555467	 0.555615	 0.555304	 0.555882	 0.555872	 0.555665	 0.555805	 0.555514	 0.555734	 0.555794	 0.555837	 0.555404	 0.555894	 0.555646	 0.555572	 0.555771	 0.555540	 0.555702	 0.555611	 0.555855	 0.555952	 0.556030	 0.555962	 0.555681	 0.555931
74.00	 0.568490	 0.568433	 0.568482	 0.568672	 0.568657	 0.568618	 0.568598	 0.568762	 0.568592	 0.568626	 0.568699	 0.568349	 0.568896	 0.568904	 0.568287	 0.568795	 0.568843	 0.568881	 0.568722	 0.568807	 0.568868	 0.568663	 0.569036	 0.568820	 0.568682	 0.568366	 0.568526	 0.568434	 0.568734	 0.568862	 0.568781	 0.569138	 0.568865	 0.568583	 0.568413	 0.568403	 0.568526	 0.568209	 0.568812	 0.568788	 0.568618	 0.568776	 0.568436	 0.568704	 0.568729	 0.568767	 0.568327	 0.568810	 0.568581	 0.568520	 0.568728	 0.568469	 0.568636	 0.568564	 0.568788	 0.568906	 0.568971	 0.568930	 0.568617	 0.568848
75.00	 0.581642	 0.581601	 0.581621	 0.581834	 0.581808	 0.581792	 0.581765	 0.581948	 0.581769	 0.581782	 0.581879	 0.581527	 0.582087	 0.582087	 0.581442	 0.581971	 0.581985	 0.582028	 0.581880	 0.581961	 0.582066	 0.581855	 0.582207	 0.581978	 0.581843	 0.581515	 0.581700	 0.581575	 0.581912	 0.582011	 0.581923	 0.582339	 0.582017	 0.581760	 0.581603	 0.581558	 0.581668	 0.581351	 0.581981	 0.581928	 0.581796	 0.581970	 0.581584	 0.581897	 0.581891	 0.581905	 0.581460	 0.581949	 0.581744	 0.581670	 0.581907	 0.581611	 0.581776	 0.581737	 0.581943	 0.582091	 0.582138	 0.582110	 0.581788	 0.581987
76.00	 0.595040	 0.595007	 0.594990	 0.595229	 0.595216	 0.595221	 0.595184	 0.595373	 0.595198	 0.595189	 0.595301	 0.594949	 0.595519	 0.595505	 0.594857	 0.595393	 0.595371	 0.595427	 0.595279	 0.595366	 0.595521	 0.595289	 0.595624	 0.595388	 0.595252	 0.594901	 0.595118	 0.594949	 0.595327	 0.595425	 0.595303	 0.595801	 0.595402	 0.595177	 0.595030	 0.594962	 0.595056	 0.594749	 0.595399	 0.595323	 0.595209	 0.595401	 0.594986	 0.595347	 0.595290	 0.595297	 0.594822	 0.595353	 0.595165	 0.595048	 0.595315	 0.594993	 0.595166	 0.595145	 0.595347	 0.595535	 0.595549	 0.595535	 0.595212	 0.595377
77.00	 0.608717	 0.608696	 0.608636	 0.608887	 0.608901	 0.608937	 0.608893	 0.609062	 0.608897	 0.608877	 0.608994	 0.608635	 0.609222	 0.609209	 0.608563	 0.609089	 0.609062	 0.609097	 0.608967	 0.609051	 0.609256	 0.608984	 0.609316	 0.609065	 0.608946	 0.608540	 0.608805	 0.608600	 0.609015	 0.609138	 0.608961	 0.609543	 0.609067	 0.608851	 0.608706	 0.608655	 0.608721	 0.608441	 0.609101	 0.609005	 0.608879	 0.609084	 0.608686	 0.609058	 0.608966	 0.608960	 0.608450	 0.609041	 0.608849	 0.608686	 0.608970	 0.608643	 0.608824	 0.608813	 0.609010	 0.609257	 0.609229	 0.609212	 0.608917	 0.609038
78.00	 0.622715	 0.622682	 0.622592	 0.622873	 0.622881	 0.622935	 0.622902	 0.623053	 0.622907	 0.622877	 0.622977	 0.622600	 0.623226	 0.623237	 0.622575	 0.623086	 0.623073	 0.623074	 0.622971	 0.623053	 0.623301	 0.622976	 0.623300	 0.623033	 0.622944	 0.622472	 0.622790	 0.622552	 0.622996	 0.623184	 0.622953	 0.623567	 0.623050	 0.622812	 0.622676	 0.622640	 0.622707	 0.622467	 0.623090	 0.622986	 0.622841	 0.623052	 0.622699	 0.623073	 0.622942	 0.622931	 0.622390	 0.623024	 0.622823	 0.622637	 0.622927	 0.622587	 0.622784	 0.622780	 0.622956	 0.623261	 0.623227	 0.623190	 0.622923	 0.623019
79.00	 0.637087	 0.637054	 0.636958	 0.637248	 0.637256	 0.637313	 0.637216	 0.637432	 0.637218	 0.637185	 0.637279	 0.636883	 0.637610	 0.637622	 0.636944	 0.637467	 0.637452	 0.637391	 0.637349	 0.637433	 0.637637	 0.637354	 0.637596	 0.637324	 0.637322	 0.636729	 0.637076	 0.636918	 0.637276	 0.637540	 0.637264	 0.637886	 0.637363	 0.637105	 0.636982	 0.636921	 0.637078	 0.636835	 0.637398	 0.637289	 0.637119	 0.637327	 0.637071	 0.637455	 0.637251	 0.637242	 0.636661	 0.637402	 0.637195	 0.636908	 0.637204	 0.636854	 0.637086	 0.637067	 0.637222	 0.637579	 0.637610	 0.637501	 0.637239	 0.637335
80.00	 0.651673	 0.651637	 0.651539	 0.651834	 0.651842	 0.651903	 0.651780	 0.652023	 0.651808	 0.651774	 0.651869	 0.651465	 0.652202	 0.652218	 0.651526	 0.652057	 0.652042	 0.651964	 0.651937	 0.652025	 0.652238	 0.651944	 0.652192	 0.651895	 0.651911	 0.651285	 0.651630	 0.651496	 0.651865	 0.652138	 0.651854	 0.652460	 0.651954	 0.651666	 0.651567	 0.651475	 0.651660	 0.651419	 0.651991	 0.651879	 0.651704	 0.651889	 0.651656	 0.652046	 0.651841	 0.651831	 0.651236	 0.651990	 0.651779	 0.651490	 0.651791	 0.651415	 0.651672	 0.651653	 0.651778	 0.652176	 0.652202	 0.652076	 0.651812	 0.651925
81.00	 0.666404	 0.666362	 0.666264	 0.666560	 0.666564	 0.666634	 0.666524	 0.666751	 0.666552	 0.666516	 0.666611	 0.666201	 0.666923	 0.666951	 0.666253	 0.666784	 0.666767	 0.666709	 0.666663	 0.666760	 0.666986	 0.666674	 0.666937	 0.666639	 0.666640	 0.666021	 0.666371	 0.666214	 0.666587	 0.666885	 0.666595	 0.667210	 0.666695	 0.666407	 0.666308	 0.666214	 0.666385	 0.666161	 0.666716	 0.666621	 0.666443	 0.666633	 0.666383	 0.666774	 0.666584	 0.666574	 0.665971	 0.666713	 0.666502	 0.666229	 0.666529	 0.666153	 0.666411	 0.666393	 0.666518	 0.666920	 0.666927	 0.666823	 0.666556	 0.666666
82.00	 0.681114	 0.681060	 0.680966	 0.681258	 0.681257	 0.681335	 0.681251	 0.681447	 0.681275	 0.681240	 0.681333	 0.680920	 0.681616	 0.681653	 0.680954	 0.681481	 0.681463	 0.681435	 0.681357	 0.681468	 0.681709	 0.681374	 0.681658	 0.681371	 0.681341	 0.680745	 0.679013	 0.680904	 0.681317	 0.681301	 0.681314	 0.681935	 0.681415	 0.681131	 0.681030	 0.680942	 0.681081	 0.680887	 0.681448	 0.681339	 0.681159	 0.681363	 0.681082	 0.681470	 0.681308	 0.681297	 0.680690	 0.681407	 0.681195	 0.680951	 0.681247	 0.680879	 0.681131	 0.681113	 0.681241	 0.681639	 0.681621	 0.681567	 0.680739	 0.681383
83.00	 0.693779	 0.695766	 0.695687	 0.695965	 0.695956	 0.696045	 0.692958	 0.696148	 0.696020	 0.693791	 0.696082	 0.695503	 0.696317	 0.696362	 0.695670	 0.696185	 0.696166	 0.696173	 0.696056	 0.696189	 0.696447	 0.696078	 0.696390	 0.693836	 0.696053	 0.695023	 0.687646	 0.695599	 0.696055	 0.696030	 0.696047	 0.696672	 0.696152	 0.695014	 0.695775	 0.694995	 0.695785	 0.695628	 0.695400	 0.696068	 0.695886	 0.696109	 0.695789	 0.696172	 0.696054	 0.695793	 0.695425	 0.696109	 0.695894	 0.695687	 0.695977	 0.695632	 0.695870	 0.695843	 0.695979	 0.696366	 0.696319	 0.693673	 0.690562	 0.696109
84.00	 0.705933	 0.710492	 0.710412	 0.710415	 0.710670	 0.707989	 0.706536	 0.710855	 0.710767	 0.708522	 0.710823	 0.710215	 0.711035	 0.711083	 0.710397	 0.710909	 0.710887	 0.710922	 0.710763	 0.709485	 0.711201	 0.710787	 0.711130	 0.708575	 0.710780	 0.707373	 0.696886	 0.710300	 0.710801	 0.709662	 0.709217	 0.709426	 0.710900	 0.709756	 0.710524	 0.708981	 0.710500	 0.710019	 0.710135	 0.710809	 0.710626	 0.710589	 0.710516	 0.710888	 0.710802	 0.710537	 0.710167	 0.710832	 0.710599	 0.710428	 0.708728	 0.707579	 0.707501	 0.710582	 0.710723	 0.711107	 0.711022	 0.705467	 0.702230	 0.710843
85.00	 0.718017	 0.724588	 0.724654	 0.725133	 0.725395	 0.720520	 0.721278	 0.725572	 0.723955	 0.723270	 0.725354	 0.724955	 0.725754	 0.725809	 0.724732	 0.725637	 0.725619	 0.723406	 0.725468	 0.723086	 0.725949	 0.725510	 0.725872	 0.723313	 0.725228	 0.721918	 0.708004	 0.725011	 0.725559	 0.721431	 0.720362	 0.717892	 0.725647	 0.724506	 0.725270	 0.723725	 0.725224	 0.723457	 0.724878	 0.725544	 0.725362	 0.725332	 0.725239	 0.725619	 0.723988	 0.721434	 0.722987	 0.725543	 0.725312	 0.722185	 0.721803	 0.721962	 0.718343	 0.723859	 0.723648	 0.723387	 0.725733	 0.717733	 0.711656	 0.725590
86.00	 0.732604	 0.738763	 0.739376	 0.739090	 0.738867	 0.733354	 0.732636	 0.740289	 0.738625	 0.735946	 0.738938	 0.739110	 0.740478	 0.739381	 0.739433	 0.739055	 0.740352	 0.738152	 0.740186	 0.737807	 0.740569	 0.740236	 0.739383	 0.737932	 0.739944	 0.736653	 0.722735	 0.739736	 0.734125	 0.736159	 0.733903	 0.727299	 0.738153	 0.735584	 0.737941	 0.735644	 0.739943	 0.738184	 0.739622	 0.740286	 0.740106	 0.738529	 0.739966	 0.739138	 0.737673	 0.732965	 0.735231	 0.740264	 0.739939	 0.734904	 0.736534	 0.736594	 0.729980	 0.737252	 0.735321	 0.735880	 0.740459	 0.727680	 0.722100	 0.740340
87.00	 0.747304	 0.753485	 0.753437	 0.753278	 0.752265	 0.745804	 0.747370	 0.755011	 0.751416	 0.746726	 0.753679	 0.751354	 0.754992	 0.753714	 0.751513	 0.753781	 0.754282	 0.749308	 0.754913	 0.752534	 0.755314	 0.753281	 0.754124	 0.752678	 0.753368	 0.751393	 0.733664	 0.754464	 0.747661	 0.750892	 0.748645	 0.737734	 0.751060	 0.746770	 0.752686	 0.747642	 0.754665	 0.752928	 0.753864	 0.752885	 0.754849	 0.753269	 0.754696	 0.750241	 0.750584	 0.747697	 0.749418	 0.754994	 0.754653	 0.749638	 0.751277	 0.751342	 0.743799	 0.751974	 0.750067	 0.749918	 0.755186	 0.738290	 0.734635	 0.753477
88.00	 0.762023	 0.768214	 0.766934	 0.767994	 0.764663	 0.760526	 0.762114	 0.769738	 0.766147	 0.760301	 0.766185	 0.761171	 0.769703	 0.768432	 0.766233	 0.768429	 0.767331	 0.763966	 0.768957	 0.767261	 0.769680	 0.768001	 0.768867	 0.766733	 0.768090	 0.766140	 0.743279	 0.769187	 0.762374	 0.763001	 0.762917	 0.749808	 0.765795	 0.757301	 0.766490	 0.759573	 0.769392	 0.764655	 0.768589	 0.763317	 0.769596	 0.767886	 0.768128	 0.764278	 0.765249	 0.762445	 0.764161	 0.768774	 0.769365	 0.764379	 0.764330	 0.765233	 0.758540	 0.766712	 0.760681	 0.764664	 0.769867	 0.750940	 0.748623	 0.764988
89.00	 0.775790	 0.782941	 0.780888	 0.782720	 0.779379	 0.775240	 0.776552	 0.784466	 0.780892	 0.775038	 0.780087	 0.770227	 0.784087	 0.783160	 0.780947	 0.781711	 0.780066	 0.778707	 0.783662	 0.781990	 0.783141	 0.782726	 0.783613	 0.778247	 0.782691	 0.777180	 0.753415	 0.783914	 0.777111	 0.776396	 0.775767	 0.764538	 0.779793	 0.768941	 0.781233	 0.772980	 0.782783	 0.774354	 0.783328	 0.778063	 0.782931	 0.782614	 0.782833	 0.778928	 0.779001	 0.775534	 0.778080	 0.780431	 0.784086	 0.779095	 0.777713	 0.777923	 0.772325	 0.781446	 0.771982	 0.777167	 0.784591	 0.761305	 0.763349	 0.776617
90.00	 0.790508	 0.796813	 0.795595	 0.797070	 0.794058	 0.789324	 0.791291	 0.798766	 0.791156	 0.788173	 0.794831	 0.781719	 0.798734	 0.795094	 0.795241	 0.796435	 0.794749	 0.793449	 0.796922	 0.793070	 0.796935	 0.796204	 0.796681	 0.791366	 0.797402	 0.787469	 0.765731	 0.798644	 0.790659	 0.789511	 0.790504	 0.779281	 0.794316	 0.783678	 0.792790	 0.787723	 0.795842	 0.785073	 0.798067	 0.791453	 0.792755	 0.797351	 0.797054	 0.793648	 0.793608	 0.787438	 0.789905	 0.794027	 0.798817	 0.793830	 0.792413	 0.788475	 0.784476	 0.795419	 0.785076	 0.789037	 0.796677	 0.774201	 0.778080	 0.791358
91.00	 0.804536	 0.810917	 0.809344	 0.811792	 0.808768	 0.803928	 0.805481	 0.811926	 0.801395	 0.802916	 0.805735	 0.790562	 0.813388	 0.805859	 0.809926	 0.811162	 0.809467	 0.806978	 0.811642	 0.806787	 0.811663	 0.810928	 0.811110	 0.805463	 0.812126	 0.795778	 0.778802	 0.810876	 0.805398	 0.803490	 0.805251	 0.791998	 0.809045	 0.798423	 0.802799	 0.799640	 0.809395	 0.799584	 0.812808	 0.806197	 0.806112	 0.811850	 0.811774	 0.807882	 0.808343	 0.797579	 0.804645	 0.807990	 0.813541	 0.808570	 0.807150	 0.799918	 0.799187	 0.810152	 0.798469	 0.799274	 0.810435	 0.787836	 0.791805	 0.802604
92.00	 0.819201	 0.825629	 0.824058	 0.826519	 0.823485	 0.818643	 0.820220	 0.824095	 0.812008	 0.815943	 0.818765	 0.803299	 0.828098	 0.819959	 0.824642	 0.825891	 0.824172	 0.821679	 0.826344	 0.819022	 0.826404	 0.822504	 0.825854	 0.820206	 0.826853	 0.805580	 0.791089	 0.825598	 0.818656	 0.817556	 0.819011	 0.804690	 0.823785	 0.813170	 0.816164	 0.808831	 0.821580	 0.813147	 0.827111	 0.818671	 0.820442	 0.826586	 0.826486	 0.821573	 0.822088	 0.810259	 0.819392	 0.822692	 0.823601	 0.823315	 0.821893	 0.811006	 0.813926	 0.824648	 0.813197	 0.812042	 0.825153	 0.800027	 0.805333	 0.814656
93.00	 0.832267	 0.837615	 0.838779	 0.837070	 0.838205	 0.833363	 0.832789	 0.838388	 0.825567	 0.828937	 0.832789	 0.817313	 0.842086	 0.831635	 0.838217	 0.839513	 0.838898	 0.834226	 0.841060	 0.830197	 0.840585	 0.835675	 0.839205	 0.832264	 0.841585	 0.815051	 0.802428	 0.837812	 0.833381	 0.832279	 0.829434	 0.819417	 0.835762	 0.825597	 0.830904	 0.817558	 0.835534	 0.826705	 0.841532	 0.831980	 0.835050	 0.840956	 0.839299	 0.833804	 0.835871	 0.824511	 0.832059	 0.837417	 0.838274	 0.835013	 0.832664	 0.821057	 0.828211	 0.839366	 0.827931	 0.824066	 0.839877	 0.814371	 0.818737	 0.829365
94.00	 0.846847	 0.850995	 0.853500	 0.849254	 0.852909	 0.847855	 0.847530	 0.851114	 0.837296	 0.843664	 0.847515	 0.832051	 0.856799	 0.846304	 0.852560	 0.854227	 0.852081	 0.847385	 0.855776	 0.844404	 0.855326	 0.848696	 0.850527	 0.843215	 0.855185	 0.828265	 0.814793	 0.852433	 0.848120	 0.844861	 0.842555	 0.834159	 0.850496	 0.838697	 0.842407	 0.829484	 0.850248	 0.841438	 0.856267	 0.846718	 0.849787	 0.855694	 0.854013	 0.848517	 0.850315	 0.839237	 0.842946	 0.851504	 0.850027	 0.843786	 0.845715	 0.833731	 0.842950	 0.854101	 0.842665	 0.838810	 0.854600	 0.829091	 0.832132	 0.841575
95.00	 0.860845	 0.865661	 0.868224	 0.863975	 0.867631	 0.862564	 0.862144	 0.865827	 0.851367	 0.858402	 0.862256	 0.842216	 0.871520	 0.861022	 0.867278	 0.867280	 0.863723	 0.862111	 0.870500	 0.859122	 0.868263	 0.863416	 0.861078	 0.857389	 0.869910	 0.843004	 0.829507	 0.867122	 0.860437	 0.859580	 0.855424	 0.848161	 0.865237	 0.853034	 0.857143	 0.844207	 0.864972	 0.856178	 0.870465	 0.859032	 0.861208	 0.867940	 0.865542	 0.862818	 0.865050	 0.853966	 0.851854	 0.865300	 0.864740	 0.855657	 0.860362	 0.848456	 0.855531	 0.866929	 0.857404	 0.852244	 0.868451	 0.843813	 0.845129	 0.856309
96.00	 0.875548	 0.880378	 0.880157	 0.876147	 0.879679	 0.877285	 0.875922	 0.879879	 0.866098	 0.871609	 0.874248	 0.854636	 0.883481	 0.875746	 0.882001	 0.882004	 0.878224	 0.876844	 0.883576	 0.873845	 0.879138	 0.878140	 0.871184	 0.872103	 0.880699	 0.853286	 0.844228	 0.881842	 0.873910	 0.873574	 0.870014	 0.858383	 0.875276	 0.867767	 0.871063	 0.858941	 0.878237	 0.869144	 0.885204	 0.873759	 0.873638	 0.882643	 0.876071	 0.877489	 0.877695	 0.866143	 0.865091	 0.878990	 0.879459	 0.870388	 0.875091	 0.862981	 0.868348	 0.881663	 0.871667	 0.862794	 0.882644	 0.857880	 0.858060	 0.871024
97.00	 0.890261	 0.894095	 0.892926	 0.887836	 0.891371	 0.890092	 0.890631	 0.894573	 0.880841	 0.886343	 0.886542	 0.869375	 0.895567	 0.888571	 0.892804	 0.893919	 0.892914	 0.891579	 0.894304	 0.888555	 0.891601	 0.892049	 0.883260	 0.886835	 0.891507	 0.866671	 0.858951	 0.894973	 0.888638	 0.886169	 0.884747	 0.868470	 0.889569	 0.882508	 0.885797	 0.873668	 0.888415	 0.883874	 0.896029	 0.888167	 0.886739	 0.897365	 0.890121	 0.892203	 0.890710	 0.879308	 0.877143	 0.893647	 0.892964	 0.882321	 0.889828	 0.877706	 0.880584	 0.896400	 0.886400	 0.873149	 0.897362	 0.872601	 0.872172	 0.884472
98.00	 0.904976	 0.908802	 0.904608	 0.901987	 0.905779	 0.901150	 0.904046	 0.909284	 0.892412	 0.899592	 0.899802	 0.883972	 0.910274	 0.900908	 0.906574	 0.905195	 0.906674	 0.906319	 0.904235	 0.902497	 0.905801	 0.906749	 0.894253	 0.901563	 0.903080	 0.880475	 0.872210	 0.908401	 0.903375	 0.899162	 0.899433	 0.879520	 0.904298	 0.895367	 0.897817	 0.888406	 0.901067	 0.897782	 0.908029	 0.902895	 0.901466	 0.912098	 0.904834	 0.906930	 0.902289	 0.894010	 0.888460	 0.908321	 0.907596	 0.897014	 0.904560	 0.892444	 0.895323	 0.909778	 0.897073	 0.886142	 0.911333	 0.883694	 0.886064	 0.899195
99.00	 0.919698	 0.923525	 0.919191	 0.914963	 0.920437	 0.914316	 0.918775	 0.923840	 0.901834	 0.914308	 0.913790	 0.896031	 0.924991	 0.914411	 0.921292	 0.916597	 0.920196	 0.921052	 0.916767	 0.917191	 0.919386	 0.921226	 0.907214	 0.916288	 0.914817	 0.895209	 0.886927	 0.922240	 0.916186	 0.913863	 0.914112	 0.892250	 0.919036	 0.908216	 0.911709	 0.898772	 0.914947	 0.911876	 0.921257	 0.917632	 0.916202	 0.926710	 0.919319	 0.918615	 0.916845	 0.908736	 0.900144	 0.922812	 0.922314	 0.911261	 0.915957	 0.905770	 0.909118	 0.922058	 0.909559	 0.900871	 0.925675	 0.896241	 0.900775	 0.913930
100.00	 0.933518	 0.935567	 0.933902	 0.929664	 0.934814	 0.926194	 0.933512	 0.938548	 0.909962	 0.929039	 0.928520	 0.908685	 0.939708	 0.927506	 0.932394	 0.929522	 0.934846	 0.932733	 0.930055	 0.931865	 0.934121	 0.935002	 0.921413	 0.931021	 0.926109	 0.907617	 0.901626	 0.936953	 0.930804	 0.928354	 0.928849	 0.906510	 0.930571	 0.922916	 0.926046	 0.913129	 0.929663	 0.926589	 0.935414	 0.932376	 0.929525	 0.941443	 0.934036	 0.933327	 0.931083	 0.923190	 0.914277	 0.936608	 0.936328	 0.925991	 0.928904	 0.920504	 0.920682	 0.936793	 0.924280	 0.915608	 0.940386	 0.909171	 0.913040	 0.924056
101.00	 0.944006	 0.946889	 0.948620	 0.944379	 0.948748	 0.940875	 0.948066	 0.953257	 0.917251	 0.943775	 0.943259	 0.920671	 0.953252	 0.941811	 0.943190	 0.944097	 0.949556	 0.941442	 0.944771	 0.946537	 0.947824	 0.949701	 0.936141	 0.945309	 0.939459	 0.922087	 0.915141	 0.950965	 0.945529	 0.942767	 0.942554	 0.921235	 0.945306	 0.937643	 0.940768	 0.927856	 0.944384	 0.941320	 0.950145	 0.944046	 0.943131	 0.955326	 0.946612	 0.948048	 0.945807	 0.937918	 0.928995	 0.949784	 0.949430	 0.939672	 0.942969	 0.931142	 0.932763	 0.950162	 0.936665	 0.928862	 0.954746	 0.922129	 0.926351	 0.936327
102.00	 0.953784	 0.958585	 0.960277	 0.959103	 0.963452	 0.955587	 0.962794	 0.967968	 0.925246	 0.957552	 0.957991	 0.935408	 0.967963	 0.956221	 0.955031	 0.958389	 0.964272	 0.950491	 0.957861	 0.959303	 0.959118	 0.963682	 0.949531	 0.959649	 0.950787	 0.936813	 0.929842	 0.965680	 0.960264	 0.957479	 0.953839	 0.935972	 0.960031	 0.952375	 0.955400	 0.940230	 0.959051	 0.954166	 0.961718	 0.957797	 0.957077	 0.970046	 0.959414	 0.960867	 0.960541	 0.950301	 0.943722	 0.964489	 0.962313	 0.954402	 0.956564	 0.943653	 0.946534	 0.959397	 0.950016	 0.943590	 0.969460	 0.935264	 0.941062	 0.949179
103.00	 0.963814	 0.971034	 0.972688	 0.970975	 0.978165	 0.969550	 0.977048	 0.982660	 0.938940	 0.970582	 0.972730	 0.947192	 0.981773	 0.970917	 0.969747	 0.973084	 0.978919	 0.957817	 0.972566	 0.973976	 0.969942	 0.976856	 0.964258	 0.974373	 0.965502	 0.951548	 0.944547	 0.979305	 0.973326	 0.969281	 0.962405	 0.949471	 0.973863	 0.964712	 0.969465	 0.952463	 0.973768	 0.968868	 0.976451	 0.971128	 0.971807	 0.984781	 0.973288	 0.971179	 0.975075	 0.962641	 0.958250	 0.979204	 0.977029	 0.967047	 0.971292	 0.958343	 0.961262	 0.970557	 0.964098	 0.958328	 0.982778	 0.949977	 0.954610	 0.963088
104.00	 0.978186	 0.985635	 0.984580	 0.983034	 0.992881	 0.984256	 0.991766	 0.997370	 0.953669	 0.985310	 0.984933	 0.957939	 0.996224	 0.985621	 0.984467	 0.987795	 0.993629	 0.970013	 0.986077	 0.988682	 0.982061	 0.991547	 0.978989	 0.987262	 0.980217	 0.966285	 0.959263	 0.992960	 0.985119	 0.980040	 0.972589	 0.964206	 0.988592	 0.979299	 0.984189	 0.967191	 0.987631	 0.982033	 0.987396	 0.985856	 0.985393	 0.997380	 0.987810	 0.982806	 0.989369	 0.973513	 0.972977	 0.990864	 0.989072	 0.981781	 0.984729	 0.972144	 0.975999	 0.981969	 0.978374	 0.970929	 0.997485	 0.964539	 0.969313	 0.977187
105.00	 0.992839	 1.000349	 0.999286	 0.997566	 1.003202	 0.998972	 1.004220	 1.011423	 0.968409	 0.996573	 0.997516	 0.968671	 1.010060	 0.999477	 0.996015	 1.001641	 1.008049	 0.984103	 1.000564	 1.003395	 0.995082	 1.006252	 0.993724	 1.000684	 0.994936	 0.980936	 0.972869	 1.007659	 0.996867	 0.993433	 0.980584	 0.977347	 0.999379	 0.994021	 0.997672	 0.981712	 1.002248	 0.996749	 1.002124	 0.997414	 1.000106	 1.011004	 1.002057	 0.995184	 1.004085	 0.988226	 0.984464	 1.003327	 1.001516	 0.995030	 0.998948	 0.985864	 0.988186	 0.995732	 0.993090	 0.984769	 1.012199	 0.978525	 0.980872	 0.991911
106.00	 1.007381	 1.011691	 1.014000	 1.012265	 1.014379	 1.011421	 1.018944	 1.024562	 0.977916	 1.010697	 1.010235	 0.982584	 1.024765	 1.014134	 1.005842	 1.016345	 1.022754	 0.995624	 1.015273	 1.018108	 1.009767	 1.020963	 1.006216	 1.015411	 1.009621	 0.995448	 0.987576	 1.022338	 1.009206	 1.007873	 0.990246	 0.992084	 1.011212	 1.008753	 1.012130	 0.996412	 1.016963	 1.011217	 1.016856	 1.011675	 1.014835	 1.022513	 1.016764	 1.008360	 1.018515	 1.002957	 0.997306	 1.017734	 1.014174	 1.005442	 1.013663	 1.000541	 0.998653	 1.008418	 1.007818	 0.999499	 1.026920	 0.993241	 0.993906	 1.003162
107.00	 1.022085	 1.024800	 1.028646	 1.026645	 1.028654	 1.024336	 1.032715	 1.038642	 0.988820	 1.024031	 1.021395	 0.996855	 1.038865	 1.028837	 1.016786	 1.031034	 1.037461	 1.010352	 1.029985	 1.032820	 1.024494	 1.035672	 1.020583	 1.028362	 1.023878	 1.010174	 0.999899	 1.036715	 1.023567	 1.022285	 1.001698	 1.004167	 1.025924	 1.022192	 1.025914	 1.011078	 1.030865	 1.024378	 1.029054	 1.026404	 1.029575	 1.037229	 1.031478	 1.023067	 1.033237	 1.016993	 1.011195	 1.031617	 1.028691	 1.019818	 1.028391	 1.015259	 1.010149	 1.023129	 1.020638	 1.014230	 1.036313	 1.007425	 1.008611	 1.017887
108.00	 1.036799	 1.037933	 1.043156	 1.038030	 1.041388	 1.035623	 1.047272	 1.053348	 1.003504	 1.038749	 1.033926	 1.011581	 1.052516	 1.043550	 1.027982	 1.045556	 1.051745	 1.024765	 1.044685	 1.046150	 1.037733	 1.049998	 1.034874	 1.041800	 1.033629	 1.024787	 1.012189	 1.051412	 1.036852	 1.036986	 1.015333	 1.014951	 1.039908	 1.032484	 1.040273	 1.025803	 1.044076	 1.037670	 1.043781	 1.039723	 1.039992	 1.051956	 1.044705	 1.037253	 1.046616	 1.026900	 1.025925	 1.045381	 1.043400	 1.034392	 1.041372	 1.029529	 1.024347	 1.037851	 1.035353	 1.027778	 1.051006	 1.020278	 1.023322	 1.032618
109.00	 1.050394	 1.051244	 1.057868	 1.051022	 1.053987	 1.049822	 1.061994	 1.067449	 1.018236	 1.052603	 1.048641	 1.024067	 1.067222	 1.058007	 1.040476	 1.060259	 1.066440	 1.039494	 1.056779	 1.059866	 1.048815	 1.064685	 1.049602	 1.056421	 1.044819	 1.039475	 1.026322	 1.066007	 1.051548	 1.051698	 1.029609	 1.028636	 1.054623	 1.042644	 1.054993	 1.038491	 1.057064	 1.052388	 1.056823	 1.052158	 1.050596	 1.065943	 1.059420	 1.051764	 1.059928	 1.037914	 1.038504	 1.058026	 1.054571	 1.047086	 1.056065	 1.044250	 1.039074	 1.052580	 1.050071	 1.038619	 1.065705	 1.034981	 1.036147	 1.042682
110.00	 1.063752	 1.065355	 1.069357	 1.065725	 1.068293	 1.064530	 1.075973	 1.080032	 1.032974	 1.067320	 1.063345	 1.034889	 1.080588	 1.068260	 1.054880	 1.074771	 1.080704	 1.052891	 1.069145	 1.074466	 1.061296	 1.079032	 1.062311	 1.070585	 1.054880	 1.054195	 1.041029	 1.080696	 1.066255	 1.061891	 1.044305	 1.040596	 1.069346	 1.054838	 1.069735	 1.046407	 1.071559	 1.065959	 1.071545	 1.063236	 1.063601	 1.080662	 1.072623	 1.066467	 1.074654	 1.048647	 1.050348	 1.072726	 1.065950	 1.061810	 1.070792	 1.058978	 1.050103	 1.064956	 1.064799	 1.050741	 1.080414	 1.049690	 1.049649	 1.054212
111.00	 1.076990	 1.080061	 1.079062	 1.079953	 1.082911	 1.078798	 1.090170	 1.094288	 1.044169	 1.082048	 1.078060	 1.045112	 1.092656	 1.078587	 1.069591	 1.089476	 1.095398	 1.066280	 1.083708	 1.087669	 1.073796	 1.093709	 1.072735	 1.085304	 1.066786	 1.068921	 1.054603	 1.095392	 1.080972	 1.074087	 1.057450	 1.055309	 1.084076	 1.069566	 1.080675	 1.055495	 1.086207	 1.079958	 1.085851	 1.075985	 1.078326	 1.093811	 1.083768	 1.079468	 1.086398	 1.060006	 1.062548	 1.086188	 1.080652	 1.076158	 1.085075	 1.073148	 1.063340	 1.075275	 1.077789	 1.065463	 1.092916	 1.064030	 1.064358	 1.067767
112.00	 1.087867	 1.094352	 1.089741	 1.091649	 1.097603	 1.093504	 1.104769	 1.105869	 1.053640	 1.092729	 1.091477	 1.057337	 1.103557	 1.089816	 1.081520	 1.103623	 1.110105	 1.077219	 1.098312	 1.102373	 1.088521	 1.108412	 1.084130	 1.098313	 1.078853	 1.083651	 1.065171	 1.110092	 1.094952	 1.087130	 1.072151	 1.069196	 1.097362	 1.082307	 1.095346	 1.064910	 1.100913	 1.094682	 1.100564	 1.090705	 1.091708	 1.107175	 1.094975	 1.091864	 1.097651	 1.071579	 1.075224	 1.100003	 1.093769	 1.090870	 1.098829	 1.087850	 1.078057	 1.088222	 1.088504	 1.079072	 1.107578	 1.078740	 1.077496	 1.082492
113.00	 1.098436	 1.109061	 1.101852	 1.106348	 1.112304	 1.106916	 1.119486	 1.118464	 1.062910	 1.101820	 1.106192	 1.072059	 1.117767	 1.102767	 1.093495	 1.117350	 1.124811	 1.087347	 1.112016	 1.115525	 1.100359	 1.121379	 1.094319	 1.113009	 1.091690	 1.098381	 1.077335	 1.124798	 1.109530	 1.098291	 1.086866	 1.083888	 1.109568	 1.091666	 1.110058	 1.077727	 1.115456	 1.105397	 1.115290	 1.105432	 1.106420	 1.120739	 1.107578	 1.106567	 1.112365	 1.085294	 1.088439	 1.114667	 1.107232	 1.104786	 1.113555	 1.102099	 1.090028	 1.102946	 1.097295	 1.093539	 1.122277	 1.093309	 1.091316	 1.095556
114.00	 1.112223	 1.120282	 1.116510	 1.121055	 1.126672	 1.120170	 1.134203	 1.132179	 1.073596	 1.114325	 1.120918	 1.086777	 1.130678	 1.116649	 1.105950	 1.132042	 1.139515	 1.098761	 1.126713	 1.130222	 1.114375	 1.135609	 1.106140	 1.127731	 1.105534	 1.108493	 1.089530	 1.139479	 1.124252	 1.110468	 1.101588	 1.098606	 1.123310	 1.103576	 1.124781	 1.089133	 1.128467	 1.115875	 1.128021	 1.116694	 1.120750	 1.132792	 1.121757	 1.121267	 1.126852	 1.100006	 1.103166	 1.127402	 1.121433	 1.119506	 1.124580	 1.116810	 1.104752	 1.116369	 1.108723	 1.108240	 1.136985	 1.106194	 1.106025	 1.107730
115.00	 1.126919	 1.132074	 1.129069	 1.135375	 1.141363	 1.132135	 1.146366	 1.146839	 1.086519	 1.127728	 1.134646	 1.101504	 1.143925	 1.131357	 1.119236	 1.146609	 1.154223	 1.110699	 1.139869	 1.144744	 1.129095	 1.149956	 1.120867	 1.141394	 1.120205	 1.118020	 1.104221	 1.149523	 1.135002	 1.124860	 1.115489	 1.113316	 1.137739	 1.115182	 1.139488	 1.103854	 1.143074	 1.127259	 1.142746	 1.131334	 1.133824	 1.147489	 1.134964	 1.135920	 1.141558	 1.114721	 1.115501	 1.142087	 1.136133	 1.133175	 1.133937	 1.131286	 1.117585	 1.130455	 1.120237	 1.122958	 1.150229	 1.120892	 1.119316	 1.120070
116.00	 1.140615	 1.145993	 1.140161	 1.148128	 1.156062	 1.143822	 1.161077	 1.159660	 1.100185	 1.140767	 1.146690	 1.113382	 1.158612	 1.145342	 1.133279	 1.161311	 1.166527	 1.125413	 1.154373	 1.156422	 1.140637	 1.164483	 1.134690	 1.153166	 1.134909	 1.129266	 1.117579	 1.164030	 1.149012	 1.139559	 1.130192	 1.128038	 1.152452	 1.128550	 1.151846	 1.118576	 1.157756	 1.141981	 1.155387	 1.143167	 1.148541	 1.162192	 1.148395	 1.150614	 1.156271	 1.129294	 1.124046	 1.156783	 1.150663	 1.147896	 1.146344	 1.145987	 1.131739	 1.143014	 1.132914	 1.137463	 1.162491	 1.135600	 1.130338	 1.133610
117.00	 1.155230	 1.160478	 1.154862	 1.159480	 1.170241	 1.158516	 1.175797	 1.174323	 1.113818	 1.152796	 1.156720	 1.123637	 1.172469	 1.159814	 1.146259	 1.173187	 1.181232	 1.140137	 1.169068	 1.171119	 1.153329	 1.179171	 1.149216	 1.165326	 1.148464	 1.140429	 1.132275	 1.175118	 1.163725	 1.152883	 1.144839	 1.139770	 1.167173	 1.143262	 1.166068	 1.133301	 1.172418	 1.155073	 1.169942	 1.155851	 1.159776	 1.176901	 1.163096	 1.164752	 1.170985	 1.144010	 1.135273	 1.170807	 1.165175	 1.161311	 1.161061	 1.160696	 1.146453	 1.156435	 1.147634	 1.148230	 1.173840	 1.150124	 1.142823	 1.148315
118.00	 1.169926	 1.175182	 1.169194	 1.174003	 1.182965	 1.171763	 1.187887	 1.189015	 1.128536	 1.167073	 1.170523	 1.133083	 1.186126	 1.174508	 1.160956	 1.186189	 1.194342	 1.153342	 1.183772	 1.183145	 1.166713	 1.192331	 1.163931	 1.176830	 1.161070	 1.152449	 1.146980	 1.187474	 1.178441	 1.166720	 1.159552	 1.151844	 1.179498	 1.157985	 1.180777	 1.144651	 1.186480	 1.169795	 1.184653	 1.170570	 1.174487	 1.191621	 1.177791	 1.179448	 1.185138	 1.156760	 1.146436	 1.184316	 1.178342	 1.175414	 1.174259	 1.175408	 1.159985	 1.170372	 1.161729	 1.160067	 1.185818	 1.163981	 1.157520	 1.162807
119.00	 1.184270	 1.188853	 1.183590	 1.188706	 1.197661	 1.186224	 1.198838	 1.203723	 1.142812	 1.181775	 1.185219	 1.142961	 1.200813	 1.188025	 1.175655	 1.200784	 1.206729	 1.164093	 1.197206	 1.197842	 1.181260	 1.206956	 1.178657	 1.189369	 1.175729	 1.167149	 1.160527	 1.199785	 1.193132	 1.181236	 1.171794	 1.164879	 1.192251	 1.172725	 1.195346	 1.157495	 1.201169	 1.182088	 1.199374	 1.182960	 1.189052	 1.203580	 1.191145	 1.194150	 1.199831	 1.171473	 1.161156	 1.198987	 1.193044	 1.190133	 1.187121	 1.188657	 1.174687	 1.185076	 1.173976	 1.174249	 1.199286	 1.175670	 1.172222	 1.176243
120.00	 1.198971	 1.200857	 1.198285	 1.202047	 1.212187	 1.200479	 1.210824	 1.218291	 1.157532	 1.196488	 1.199935	 1.156216	 1.215506	 1.201495	 1.190351	 1.214803	 1.217216	 1.176353	 1.210848	 1.211504	 1.194738	 1.221634	 1.192958	 1.203612	 1.190229	 1.180954	 1.174402	 1.214488	 1.207505	 1.195615	 1.186516	 1.179600	 1.206783	 1.179649	 1.209258	 1.172214	 1.215869	 1.193860	 1.212419	 1.193089	 1.202942	 1.215432	 1.202692	 1.207906	 1.214266	 1.186194	 1.175882	 1.213625	 1.206236	 1.201560	 1.201289	 1.203368	 1.189403	 1.199791	 1.188623	 1.187796	 1.212888	 1.189628	 1.186336	 1.190124
121.00	 1.212697	 1.215284	 1.210258	 1.216737	 1.226869	 1.215165	 1.224199	 1.232360	 1.171860	 1.210120	 1.213771	 1.170935	 1.229285	 1.215588	 1.205047	 1.229481	 1.231913	 1.191076	 1.225508	 1.225141	 1.207802	 1.236322	 1.207525	 1.218325	 1.204887	 1.195664	 1.189101	 1.228695	 1.222198	 1.210307	 1.200039	 1.193536	 1.220743	 1.193132	 1.223955	 1.184027	 1.226297	 1.208263	 1.225718	 1.203468	 1.217644	 1.225801	 1.217336	 1.220526	 1.228971	 1.200817	 1.187388	 1.227172	 1.220938	 1.212602	 1.215982	 1.218083	 1.202239	 1.212538	 1.203331	 1.202504	 1.227586	 1.204320	 1.197874	 1.204823
122.00	 1.227401	 1.229856	 1.224848	 1.231438	 1.241557	 1.228094	 1.238911	 1.247054	 1.186553	 1.223430	 1.228177	 1.182619	 1.243980	 1.229478	 1.219109	 1.244177	 1.246613	 1.200782	 1.240199	 1.239828	 1.222506	 1.250299	 1.222111	 1.231409	 1.219587	 1.210380	 1.203803	 1.243395	 1.236910	 1.225007	 1.214758	 1.204554	 1.235291	 1.205646	 1.238569	 1.198734	 1.239042	 1.222966	 1.240382	 1.216774	 1.232342	 1.236275	 1.232031	 1.232768	 1.243330	 1.215526	 1.198960	 1.241846	 1.234481	 1.223840	 1.230692	 1.232802	 1.216156	 1.224775	 1.216146	 1.217221	 1.242292	 1.219016	 1.210606	 1.219537
123.00	 1.239822	 1.244489	 1.238202	 1.245854	 1.256253	 1.241524	 1.251032	 1.261736	 1.200526	 1.236102	 1.242884	 1.197338	 1.256805	 1.244139	 1.233103	 1.257596	 1.260786	 1.212869	 1.252628	 1.254497	 1.236738	 1.263836	 1.236822	 1.245935	 1.231780	 1.224968	 1.217982	 1.255269	 1.248612	 1.239704	 1.226712	 1.217574	 1.249978	 1.220337	 1.252542	 1.213115	 1.251877	 1.237450	 1.255092	 1.230546	 1.245916	 1.247857	 1.245025	 1.247452	 1.256244	 1.228985	 1.211965	 1.256513	 1.246176	 1.235645	 1.242663	 1.244050	 1.230764	 1.237958	 1.230795	 1.228353	 1.256152	 1.233310	 1.222013	 1.232660
124.00	 1.252622	 1.259183	 1.252775	 1.260546	 1.269355	 1.256209	 1.265235	 1.272932	 1.215209	 1.250806	 1.256381	 1.210701	 1.269376	 1.258808	 1.247787	 1.271591	 1.275391	 1.227348	 1.266339	 1.269170	 1.251447	 1.277668	 1.248691	 1.260647	 1.244658	 1.238631	 1.232657	 1.269051	 1.263302	 1.254403	 1.239677	 1.232290	 1.264682	 1.235045	 1.267243	 1.227820	 1.266576	 1.252140	 1.269813	 1.245256	 1.260618	 1.261881	 1.257959	 1.262146	 1.268892	 1.243691	 1.225869	 1.271197	 1.259508	 1.249362	 1.257372	 1.254042	 1.245477	 1.251805	 1.245502	 1.241091	 1.270048	 1.245174	 1.236686	 1.247360
125.00	 1.265434	 1.271896	 1.267120	 1.275029	 1.284053	 1.270903	 1.279877	 1.286723	 1.229704	 1.265515	 1.271082	 1.225412	 1.283326	 1.273496	 1.260377	 1.286165	 1.289008	 1.242063	 1.280679	 1.283858	 1.265799	 1.290875	 1.261567	 1.274451	 1.255495	 1.253089	 1.245831	 1.283253	 1.276440	 1.269096	 1.250704	 1.243908	 1.277236	 1.245991	 1.278385	 1.242535	 1.280789	 1.266850	 1.282231	 1.259985	 1.274920	 1.276594	 1.271028	 1.276843	 1.283596	 1.258404	 1.240396	 1.284998	 1.274187	 1.262536	 1.272090	 1.265301	 1.255951	 1.266505	 1.257970	 1.255811	 1.284729	 1.259865	 1.251377	 1.259759
126.00	 1.280011	 1.286530	 1.280498	 1.286609	 1.298677	 1.284148	 1.294458	 1.298862	 1.244411	 1.280227	 1.285794	 1.239129	 1.297925	 1.288185	 1.275060	 1.300843	 1.302218	 1.256775	 1.295358	 1.298102	 1.280506	 1.305565	 1.276273	 1.287555	 1.267931	 1.266491	 1.257976	 1.297928	 1.291151	 1.283469	 1.263401	 1.258591	 1.289030	 1.258923	 1.291973	 1.256637	 1.295483	 1.279359	 1.294434	 1.273272	 1.289613	 1.289419	 1.285666	 1.291553	 1.298308	 1.273056	 1.253945	 1.299669	 1.287943	 1.276423	 1.283926	 1.273049	 1.265225	 1.281210	 1.269165	 1.270224	 1.299426	 1.274556	 1.266026	 1.274425
127.00	 1.293003	 1.301221	 1.295170	 1.300921	 1.311849	 1.298828	 1.309159	 1.313543	 1.258940	 1.293796	 1.295998	 1.252983	 1.312356	 1.300278	 1.289597	 1.315516	 1.316912	 1.269031	 1.310045	 1.310465	 1.295219	 1.318306	 1.289648	 1.301745	 1.282545	 1.281197	 1.272645	 1.312621	 1.303385	 1.294995	 1.278090	 1.273308	 1.303742	 1.271558	 1.306680	 1.269039	 1.308809	 1.289408	 1.308030	 1.287880	 1.304322	 1.302078	 1.300355	 1.302778	 1.310178	 1.287763	 1.268568	 1.314346	 1.302634	 1.291121	 1.296484	 1.279959	 1.274755	 1.294707	 1.281260	 1.282042	 1.314139	 1.287678	 1.280718	 1.289118
128.00	 1.307695	 1.315917	 1.309196	 1.314155	 1.326524	 1.310529	 1.321914	 1.328234	 1.273651	 1.308406	 1.308667	 1.267665	 1.327033	 1.313750	 1.304277	 1.330204	 1.330963	 1.283501	 1.324731	 1.325144	 1.309933	 1.332985	 1.304359	 1.316453	 1.297226	 1.294466	 1.287259	 1.327314	 1.313087	 1.308613	 1.292794	 1.284224	 1.316074	 1.286252	 1.321394	 1.282312	 1.322246	 1.297959	 1.322714	 1.301559	 1.316314	 1.315935	 1.314525	 1.314834	 1.323927	 1.301625	 1.283270	 1.329028	 1.317331	 1.305809	 1.307571	 1.290053	 1.285187	 1.309414	 1.295971	 1.291865	 1.326031	 1.299281	 1.295418	 1.303822
129.00	 1.322390	 1.326593	 1.323835	 1.327904	 1.341218	 1.325225	 1.336623	 1.342720	 1.285184	 1.323095	 1.323377	 1.282366	 1.341722	 1.328431	 1.318612	 1.344898	 1.344972	 1.298209	 1.339420	 1.339186	 1.322386	 1.347680	 1.318707	 1.329162	 1.311665	 1.306611	 1.301944	 1.340781	 1.325283	 1.321530	 1.307506	 1.294814	 1.328498	 1.300956	 1.332804	 1.296067	 1.335770	 1.308210	 1.337423	 1.316263	 1.327914	 1.330641	 1.329006	 1.325684	 1.337312	 1.313673	 1.297978	 1.340935	 1.328206	 1.320511	 1.319471	 1.300820	 1.297639	 1.323625	 1.310689	 1.304370	 1.340710	 1.313945	 1.308814	 1.317956
130.00	 1.333736	 1.339321	 1.338505	 1.342591	 1.355761	 1.339923	 1.349934	 1.353683	 1.298019	 1.337789	 1.336172	 1.296512	 1.355544	 1.343120	 1.333294	 1.355544	 1.358081	 1.312932	 1.354114	 1.353429	 1.335742	 1.361793	 1.330283	 1.343858	 1.326340	 1.318193	 1.316516	 1.355468	 1.339969	 1.336021	 1.319641	 1.304267	 1.343206	 1.315651	 1.346459	 1.310770	 1.350463	 1.321731	 1.347518	 1.330974	 1.340877	 1.343072	 1.343692	 1.336302	 1.352014	 1.328375	 1.312689	 1.353649	 1.340099	 1.335027	 1.330272	 1.309531	 1.310589	 1.332600	 1.325406	 1.317699	 1.355385	 1.328138	 1.323506	 1.332658
131.00	 1.345607	 1.353055	 1.353185	 1.354558	 1.368648	 1.353043	 1.363682	 1.364598	 1.312733	 1.352487	 1.350884	 1.310224	 1.369080	 1.357122	 1.347987	 1.366118	 1.372026	 1.324118	 1.366683	 1.368106	 1.349944	 1.375024	 1.340677	 1.358560	 1.341012	 1.332905	 1.330746	 1.369515	 1.354670	 1.350703	 1.329385	 1.315019	 1.354615	 1.330354	 1.360156	 1.325485	 1.362274	 1.333837	 1.359410	 1.344313	 1.355585	 1.357285	 1.358317	 1.350925	 1.365194	 1.342187	 1.323864	 1.368312	 1.354751	 1.349100	 1.344042	 1.319650	 1.325243	 1.341805	 1.338479	 1.332299	 1.370063	 1.342817	 1.336776	 1.346392
132.00	 1.358167	 1.365384	 1.367473	 1.367847	 1.383319	 1.366504	 1.378386	 1.378652	 1.323199	 1.367179	 1.363407	 1.324915	 1.381380	 1.371796	 1.360155	 1.378124	 1.386707	 1.338580	 1.380256	 1.382798	 1.364644	 1.387478	 1.354417	 1.373266	 1.355685	 1.346233	 1.345430	 1.381337	 1.369366	 1.365392	 1.337229	 1.326806	 1.366926	 1.345048	 1.374861	 1.339243	 1.373752	 1.348464	 1.370411	 1.358426	 1.366142	 1.371980	 1.373008	 1.365550	 1.378722	 1.356891	 1.337453	 1.382533	 1.369434	 1.363535	 1.358431	 1.330546	 1.339943	 1.350903	 1.349818	 1.345941	 1.384747	 1.357227	 1.348960	 1.361094
133.00	 1.372823	 1.376437	 1.381220	 1.380081	 1.397209	 1.380576	 1.391192	 1.392640	 1.336593	 1.381877	 1.374718	 1.339610	 1.392880	 1.386482	 1.374851	 1.392761	 1.401394	 1.353285	 1.394947	 1.397016	 1.379357	 1.399444	 1.369125	 1.387163	 1.370368	 1.358428	 1.360117	 1.395626	 1.384057	 1.378622	 1.346193	 1.340632	 1.380860	 1.359743	 1.387113	 1.350590	 1.386778	 1.363165	 1.385098	 1.373123	 1.377165	 1.384444	 1.387515	 1.379448	 1.393428	 1.368280	 1.349827	 1.397204	 1.384126	 1.378237	 1.373130	 1.340469	 1.353418	 1.361546	 1.364529	 1.360640	 1.399398	 1.370099	 1.363646	 1.375804
134.00	 1.387453	 1.391116	 1.395905	 1.392562	 1.411892	 1.395261	 1.404096	 1.407326	 1.351295	 1.396584	 1.386634	 1.354309	 1.407464	 1.401162	 1.388521	 1.404570	 1.416084	 1.365982	 1.408181	 1.411290	 1.392064	 1.410652	 1.381670	 1.401824	 1.384401	 1.371244	 1.374809	 1.410307	 1.398759	 1.393280	 1.356960	 1.355090	 1.395558	 1.374207	 1.397063	 1.363977	 1.399906	 1.374043	 1.399759	 1.387831	 1.390748	 1.399144	 1.399124	 1.394113	 1.405706	 1.380747	 1.364534	 1.411306	 1.397479	 1.392651	 1.387839	 1.349609	 1.368128	 1.376215	 1.376414	 1.375351	 1.414079	 1.382358	 1.376107	 1.388278
135.00	 1.401374	 1.405795	 1.410497	 1.405834	 1.426582	 1.409955	 1.418075	 1.422020	 1.366004	 1.407593	 1.400693	 1.368690	 1.421768	 1.414505	 1.400644	 1.419261	 1.429562	 1.380602	 1.422864	 1.424495	 1.402956	 1.425291	 1.393174	 1.416522	 1.399006	 1.385947	 1.387794	 1.424994	 1.411031	 1.407967	 1.369264	 1.369788	 1.410269	 1.387959	 1.405453	 1.377853	 1.414024	 1.385565	 1.414461	 1.401630	 1.405430	 1.413809	 1.411643	 1.408792	 1.418888	 1.394356	 1.377449	 1.424395	 1.411366	 1.405154	 1.401138	 1.359619	 1.379654	 1.390914	 1.390210	 1.387395	 1.427530	 1.395036	 1.388240	 1.399139
136.00	 1.416055	 1.420091	 1.424326	 1.420514	 1.438223	 1.421699	 1.432777	 1.433890	 1.380700	 1.420332	 1.414912	 1.383390	 1.435119	 1.429179	 1.413879	 1.433949	 1.440254	 1.395291	 1.437555	 1.436699	 1.412409	 1.439978	 1.406031	 1.430885	 1.413691	 1.398967	 1.400585	 1.439523	 1.425341	 1.419776	 1.381255	 1.384323	 1.424989	 1.402655	 1.413380	 1.392463	 1.428699	 1.397936	 1.428722	 1.416340	 1.420130	 1.428494	 1.422279	 1.423477	 1.433570	 1.407553	 1.392114	 1.437082	 1.426053	 1.415754	 1.415581	 1.370489	 1.393020	 1.405618	 1.402250	 1.398255	 1.440780	 1.407018	 1.402915	 1.410948
137.00	 1.430489	 1.434519	 1.439010	 1.433621	 1.452486	 1.430148	 1.446411	 1.446591	 1.395407	 1.433823	 1.429608	 1.398075	 1.449269	 1.443859	 1.425857	 1.448571	 1.453848	 1.407609	 1.452207	 1.448348	 1.420495	 1.452576	 1.420737	 1.445585	 1.425626	 1.413675	 1.415249	 1.453262	 1.440008	 1.433383	 1.395160	 1.396816	 1.436446	 1.417365	 1.424821	 1.407152	 1.443383	 1.411755	 1.443407	 1.426755	 1.433727	 1.443196	 1.434078	 1.436113	 1.448272	 1.420639	 1.406809	 1.451749	 1.437732	 1.429393	 1.430284	 1.382295	 1.407718	 1.420331	 1.416924	 1.409064	 1.455451	 1.421511	 1.415441	 1.425362
138.00	 1.442180	 1.449195	 1.453694	 1.447310	 1.467174	 1.440982	 1.456530	 1.461273	 1.407132	 1.448472	 1.443922	 1.412780	 1.463933	 1.458544	 1.440542	 1.462852	 1.465486	 1.422312	 1.466080	 1.458662	 1.431161	 1.465191	 1.433576	 1.458787	 1.439015	 1.425286	 1.429860	 1.467936	 1.454700	 1.444948	 1.409860	 1.411502	 1.448835	 1.430206	 1.435917	 1.421852	 1.456570	 1.425315	 1.458106	 1.438531	 1.448423	 1.455900	 1.446652	 1.450799	 1.460225	 1.435301	 1.421506	 1.466386	 1.450108	 1.444081	 1.443189	 1.391000	 1.422401	 1.434885	 1.431615	 1.420457	 1.469746	 1.436178	 1.429976	 1.439627
139.00	 1.456603	 1.463882	 1.466922	 1.461987	 1.479833	 1.452472	 1.466732	 1.472996	 1.418052	 1.461553	 1.456436	 1.423682	 1.478618	 1.472953	 1.453411	 1.477536	 1.476828	 1.435228	 1.480656	 1.472552	 1.443528	 1.479877	 1.443852	 1.472724	 1.453700	 1.439868	 1.444535	 1.482546	 1.467693	 1.457744	 1.424507	 1.426198	 1.462915	 1.443666	 1.450612	 1.432165	 1.470392	 1.439987	 1.471911	 1.452399	 1.463129	 1.469141	 1.458746	 1.465485	 1.474902	 1.449993	 1.436209	 1.481050	 1.463732	 1.458781	 1.455668	 1.400616	 1.437098	 1.449577	 1.444893	 1.434092	 1.484420	 1.450829	 1.444516	 1.454319
140.00	 1.471272	 1.478563	 1.479867	 1.476670	 1.491316	 1.465310	 1.476985	 1.485497	 1.432730	 1.476241	 1.466366	 1.436158	 1.492387	 1.487638	 1.464584	 1.491413	 1.491429	 1.447163	 1.495338	 1.485757	 1.456406	 1.493586	 1.457149	 1.487426	 1.468152	 1.454550	 1.459216	 1.497224	 1.482390	 1.472367	 1.438140	 1.438382	 1.477611	 1.458368	 1.465312	 1.442135	 1.485071	 1.454676	 1.486608	 1.465997	 1.476424	 1.479964	 1.470269	 1.477681	 1.488951	 1.464345	 1.448423	 1.495724	 1.477779	 1.472425	 1.470043	 1.411364	 1.451805	 1.464278	 1.459581	 1.448786	 1.498688	 1.465468	 1.459185	 1.468509
141.00	 1.485911	 1.493248	 1.492704	 1.490473	 1.501108	 1.476618	 1.488991	 1.499828	 1.447435	 1.490241	 1.477812	 1.450838	 1.504167	 1.498069	 1.479270	 1.503514	 1.505131	 1.461867	 1.510034	 1.500366	 1.467536	 1.507327	 1.471612	 1.499598	 1.482813	 1.469253	 1.473898	 1.511908	 1.493975	 1.487040	 1.452838	 1.451152	 1.489671	 1.470170	 1.480028	 1.456533	 1.498091	 1.469000	 1.501308	 1.478210	 1.487617	 1.494305	 1.482904	 1.492240	 1.503553	 1.479038	 1.459833	 1.509892	 1.492459	 1.486724	 1.484740	 1.421848	 1.464602	 1.478801	 1.474278	 1.463490	 1.513358	 1.480138	 1.473854	 1.483203
142.00	 1.500574	 1.506850	 1.507082	 1.505150	 1.512610	 1.489716	 1.503504	 1.514501	 1.462153	 1.504932	 1.491102	 1.465535	 1.516023	 1.511607	 1.493953	 1.516177	 1.517484	 1.475462	 1.520571	 1.515028	 1.480300	 1.522006	 1.486306	 1.511392	 1.495668	 1.480810	 1.488584	 1.523371	 1.507398	 1.501717	 1.463599	 1.465832	 1.503759	 1.481461	 1.489828	 1.471219	 1.512767	 1.483682	 1.516002	 1.492775	 1.502256	 1.508481	 1.497573	 1.506624	 1.518231	 1.493743	 1.473336	 1.522463	 1.506276	 1.501406	 1.498624	 1.432230	 1.474358	 1.493498	 1.488983	 1.476228	 1.528038	 1.492315	 1.488530	 1.497352
143.00	 1.515238	 1.521534	 1.521756	 1.519430	 1.524561	 1.504399	 1.518192	 1.529184	 1.474448	 1.515775	 1.505793	 1.478407	 1.527258	 1.526269	 1.508641	 1.529200	 1.532150	 1.489675	 1.531108	 1.529699	 1.494987	 1.535258	 1.497703	 1.525083	 1.508623	 1.490416	 1.500371	 1.536898	 1.521434	 1.516252	 1.478296	 1.480524	 1.518450	 1.496145	 1.499922	 1.485921	 1.525823	 1.498378	 1.530706	 1.507451	 1.516851	 1.523169	 1.511379	 1.519550	 1.532920	 1.506925	 1.487901	 1.537141	 1.520956	 1.516090	 1.509453	 1.441630	 1.483964	 1.506720	 1.502146	 1.490933	 1.540474	 1.504802	 1.502114	 1.512048
144.00	 1.529874	 1.532655	 1.536244	 1.533432	 1.535750	 1.515815	 1.530370	 1.541052	 1.483781	 1.527949	 1.520495	 1.493106	 1.541386	 1.540948	 1.522234	 1.542572	 1.546819	 1.504371	 1.545109	 1.544371	 1.509682	 1.549936	 1.512408	 1.539377	 1.523094	 1.502395	 1.512161	 1.549432	 1.536130	 1.530929	 1.492979	 1.495019	 1.533146	 1.509564	 1.511653	 1.498207	 1.540506	 1.511942	 1.541654	 1.521172	 1.531533	 1.537876	 1.526044	 1.534002	 1.547619	 1.517012	 1.502599	 1.549582	 1.535394	 1.530783	 1.524148	 1.450412	 1.493895	 1.521418	 1.514969	 1.502243	 1.551165	 1.519484	 1.516801	 1.524717
145.00	 1.543219	 1.545650	 1.550916	 1.548109	 1.549328	 1.526740	 1.542320	 1.553395	 1.493731	 1.541620	 1.530633	 1.504071	 1.553211	 1.554474	 1.536007	 1.557249	 1.561456	 1.518521	 1.559748	 1.559048	 1.520713	 1.563758	 1.522984	 1.554070	 1.537759	 1.516527	 1.526278	 1.563849	 1.549614	 1.544002	 1.506271	 1.509710	 1.547837	 1.524124	 1.526356	 1.508668	 1.552644	 1.524870	 1.554033	 1.535849	 1.546001	 1.552574	 1.540716	 1.548674	 1.561774	 1.528568	 1.513288	 1.562867	 1.548780	 1.544207	 1.538850	 1.459619	 1.504729	 1.535713	 1.529665	 1.514917	 1.561936	 1.533560	 1.529637	 1.535853
146.00	 1.557880	 1.557433	 1.565597	 1.561023	 1.562516	 1.539019	 1.557001	 1.566047	 1.502732	 1.556308	 1.543949	 1.518772	 1.565993	 1.567741	 1.547446	 1.569744	 1.576118	 1.530982	 1.574426	 1.572453	 1.532303	 1.578419	 1.537392	 1.568090	 1.552437	 1.531212	 1.540934	 1.578525	 1.560234	 1.558653	 1.520965	 1.523332	 1.562526	 1.538806	 1.537045	 1.520606	 1.567177	 1.535732	 1.568717	 1.550538	 1.560688	 1.564084	 1.555390	 1.563368	 1.576477	 1.539013	 1.524945	 1.576922	 1.563450	 1.553539	 1.553015	 1.468900	 1.516044	 1.550398	 1.544382	 1.529419	 1.576606	 1.545280	 1.543493	 1.550469
147.00	 1.572552	 1.572106	 1.575359	 1.574332	 1.577149	 1.553699	 1.571688	 1.580219	 1.510861	 1.569017	 1.558642	 1.532534	 1.580647	 1.581786	 1.558871	 1.584426	 1.590792	 1.545157	 1.589101	 1.585680	 1.547002	 1.592505	 1.552089	 1.581275	 1.564789	 1.545903	 1.555610	 1.593209	 1.570529	 1.572680	 1.532769	 1.538030	 1.577223	 1.553498	 1.548322	 1.535283	 1.581731	 1.547249	 1.583412	 1.565257	 1.574360	 1.577576	 1.570048	 1.575142	 1.589708	 1.550173	 1.539647	 1.590422	 1.577978	 1.567045	 1.561719	 1.479582	 1.530723	 1.565062	 1.557091	 1.542452	 1.591277	 1.558859	 1.558174	 1.565155
148.00	 1.585229	 1.586746	 1.585413	 1.587953	 1.591811	 1.567820	 1.586386	 1.594890	 1.519641	 1.583023	 1.571866	 1.545728	 1.595294	 1.596446	 1.571373	 1.599116	 1.605480	 1.559533	 1.602484	 1.600351	 1.560625	 1.607180	 1.566203	 1.590627	 1.575425	 1.560470	 1.569220	 1.606058	 1.581715	 1.587333	 1.544476	 1.549087	 1.591401	 1.568202	 1.558768	 1.549974	 1.596405	 1.560698	 1.597983	 1.574268	 1.589044	 1.592274	 1.584722	 1.587356	 1.599628	 1.563273	 1.550174	 1.605079	 1.592543	 1.581740	 1.571844	 1.488525	 1.545413	 1.578672	 1.568360	 1.555813	 1.605452	 1.573532	 1.571647	 1.579847
149.00	 1.598563	 1.601419	 1.596227	 1.601637	 1.606483	 1.582489	 1.599318	 1.607421	 1.528532	 1.595090	 1.586553	 1.559358	 1.608988	 1.611122	 1.586035	 1.609798	 1.620168	 1.574223	 1.617118	 1.615026	 1.572925	 1.619795	 1.575083	 1.603684	 1.587551	 1.575161	 1.583088	 1.620724	 1.590977	 1.600933	 1.557560	 1.562331	 1.603562	 1.582893	 1.573466	 1.564675	 1.611083	 1.575398	 1.612678	 1.586993	 1.603692	 1.604666	 1.597061	 1.600365	 1.614197	 1.577946	 1.562930	 1.619744	 1.607056	 1.595146	 1.584490	 1.498537	 1.560111	 1.593359	 1.582933	 1.570498	 1.620122	 1.588212	 1.583126	 1.592487
150.00	 1.613237	 1.616093	 1.609636	 1.616284	 1.621160	 1.597165	 1.614008	 1.620890	 1.540734	 1.609094	 1.601009	 1.574012	 1.623625	 1.624677	 1.600707	 1.621164	 1.633038	 1.586878	 1.631785	 1.629704	 1.587614	 1.634456	 1.586993	 1.616919	 1.602212	 1.587501	 1.597102	 1.635399	 1.603734	 1.614101	 1.572255	 1.577023	 1.616628	 1.597592	 1.586857	 1.578224	 1.624656	 1.586800	 1.623970	 1.601660	 1.618353	 1.614774	 1.610037	 1.615045	 1.626924	 1.591164	 1.577621	 1.632404	 1.621717	 1.609816	 1.596736	 1.508110	 1.571618	 1.606091	 1.597611	 1.585192	 1.632792	 1.602895	 1.597787	 1.606833
