0.000000 0.000000 0.000000
0.010000 0.117612 0.000000
0.020000 0.230496 0.000000
0.030000 0.338724 0.000000
0.040000 0.442368 0.000000
0.050000 0.541500 0.000000
0.060000 0.636192 0.000000
0.070000 0.726516 0.000001
0.080000 0.812544 0.000006
0.090000 0.894348 0.000018
0.100000 0.972000 0.000051
0.110000 1.045572 0.000128
0.120000 1.115136 0.000295
0.130000 1.180764 0.000628
0.140000 1.242528 0.001250
0.150000 1.300500 0.002349
0.160000 1.354752 0.004193
0.170000 1.405356 0.007161
0.180000 1.452384 0.011753
0.190000 1.495908 0.018613
0.200000 1.536000 0.028543
0.210000 1.572732 0.042510
0.220000 1.606176 0.061641
0.230000 1.636404 0.087214
0.240000 1.663488 0.120630
0.250000 1.687500 0.163379
0.260000 1.708512 0.216990
0.270000 1.726596 0.282967
0.280000 1.741824 0.362726
0.290000 1.754268 0.457512
0.300000 1.764000 0.568323
0.310000 1.771092 0.695828
0.320000 1.775616 0.840293
0.330000 1.777644 1.001519
0.340000 1.777248 1.178784
0.350000 1.774500 1.370814
0.360000 1.769472 1.575761
0.370000 1.762236 1.791216
0.380000 1.752864 2.014240
0.390000 1.741428 2.241413
0.400000 1.728000 2.468918
0.410000 1.712652 2.692635
0.420000 1.695456 2.908259
0.430000 1.676484 3.111426
0.440000 1.655808 3.297849
0.450000 1.633500 3.463460
0.460000 1.609632 3.604545
0.470000 1.584276 3.717868
0.480000 1.557504 3.800786
0.490000 1.529388 3.851340
0.500000 1.500000 3.868326
0.510000 1.469412 3.851340
0.520000 1.437696 3.800786
0.530000 1.404924 3.717868
0.540000 1.371168 3.604545
0.550000 1.336500 3.463460
0.560000 1.300992 3.297849
0.570000 1.264716 3.111426
0.580000 1.227744 2.908259
0.590000 1.190148 2.692635
0.600000 1.152000 2.468918
0.610000 1.113372 2.241413
0.620000 1.074336 2.014240
0.630000 1.034964 1.791216
0.640000 0.995328 1.575761
0.650000 0.955500 1.370814
0.660000 0.915552 1.178784
0.670000 0.875556 1.001519
0.680000 0.835584 0.840293
0.690000 0.795708 0.695828
0.700000 0.756000 0.568323
0.710000 0.716532 0.457512
0.720000 0.677376 0.362726
0.730000 0.638604 0.282967
0.740000 0.600288 0.216990
0.750000 0.562500 0.163379
0.760000 0.525312 0.120630
0.770000 0.488796 0.087214
0.780000 0.453024 0.061641
0.790000 0.418068 0.042510
0.800000 0.384000 0.028543
0.810000 0.350892 0.018613
0.820000 0.318816 0.011753
0.830000 0.287844 0.007161
0.840000 0.258048 0.004193
0.850000 0.229500 0.002349
0.860000 0.202272 0.001250
0.870000 0.176436 0.000628
0.880000 0.152064 0.000295
0.890000 0.129228 0.000128
0.900000 0.108000 0.000051
0.910000 0.088452 0.000018
0.920000 0.070656 0.000006
0.930000 0.054684 0.000001
0.940000 0.040608 0.000000
0.950000 0.028500 0.000000
0.960000 0.018432 0.000000
0.970000 0.010476 0.000000
0.980000 0.004704 0.000000
0.990000 0.001188 0.000000
1.000000 0.000000 0.000000
