Time	5	10	20	30	50	80
 0.00	0.0293	0.0295	0.0278	0.0284	0.0283	0.0282
 1.00	0.0306	0.0307	0.0278	0.0288	0.0285	0.0284
 2.00	0.0317	0.0316	0.0278	0.0291	0.0289	0.0288
 3.00	0.0328	0.0321	0.0280	0.0294	0.0293	0.0292
 4.00	0.0337	0.0324	0.0283	0.0298	0.0297	0.0297
 5.00	0.0346	0.0323	0.0286	0.0301	0.0301	0.0302
 6.00	0.0353	0.0320	0.0291	0.0305	0.0306	0.0307
 7.00	0.0359	0.0314	0.0296	0.0309	0.0312	0.0312
 8.00	0.0364	0.0306	0.0302	0.0314	0.0317	0.0318
 9.00	0.0367	0.0296	0.0308	0.0319	0.0322	0.0323
10.00	0.0369	0.0284	0.0315	0.0324	0.0328	0.0328
11.00	0.0370	0.0272	0.0322	0.0329	0.0333	0.0334
12.00	0.0369	0.0259	0.0329	0.0334	0.0339	0.0339
13.00	0.0367	0.0248	0.0336	0.0340	0.0345	0.0345
14.00	0.0363	0.0238	0.0343	0.0346	0.0350	0.0351
15.00	0.0358	0.0230	0.0350	0.0352	0.0356	0.0357
16.00	0.0351	0.0226	0.0357	0.0358	0.0362	0.0363
17.00	0.0342	0.0226	0.0363	0.0365	0.0368	0.0369
18.00	0.0332	0.0230	0.0370	0.0371	0.0375	0.0375
19.00	0.0320	0.0238	0.0376	0.0377	0.0381	0.0381
20.00	0.0306	0.0250	0.0383	0.0384	0.0387	0.0388
21.00	0.0291	0.0265	0.0389	0.0391	0.0394	0.0394
22.00	0.0275	0.0283	0.0395	0.0397	0.0400	0.0401
23.00	0.0258	0.0303	0.0402	0.0404	0.0407	0.0408
24.00	0.0240	0.0323	0.0408	0.0411	0.0414	0.0415
25.00	0.0222	0.0344	0.0415	0.0418	0.0421	0.0422
26.00	0.0204	0.0364	0.0422	0.0425	0.0428	0.0429
27.00	0.0188	0.0383	0.0429	0.0433	0.0435	0.0436
28.00	0.0175	0.0400	0.0436	0.0440	0.0443	0.0443
29.00	0.0166	0.0415	0.0443	0.0447	0.0450	0.0451
30.00	0.0163	0.0429	0.0451	0.0455	0.0458	0.0458
31.00	0.0168	0.0441	0.0458	0.0463	0.0465	0.0466
32.00	0.0182	0.0452	0.0466	0.0471	0.0473	0.0474
33.00	0.0206	0.0461	0.0474	0.0479	0.0481	0.0482
34.00	0.0238	0.0470	0.0482	0.0487	0.0489	0.0490
35.00	0.0276	0.0478	0.0490	0.0495	0.0497	0.0498
36.00	0.0316	0.0486	0.0499	0.0504	0.0506	0.0506
37.00	0.0354	0.0494	0.0507	0.0512	0.0514	0.0515
38.00	0.0387	0.0502	0.0516	0.0521	0.0523	0.0523
39.00	0.0415	0.0509	0.0525	0.0530	0.0532	0.0532
40.00	0.0435	0.0517	0.0534	0.0539	0.0540	0.0541
41.00	0.0449	0.0526	0.0543	0.0548	0.0549	0.0550
42.00	0.0457	0.0534	0.0552	0.0557	0.0559	0.0559
43.00	0.0461	0.0543	0.0562	0.0566	0.0568	0.0569
44.00	0.0462	0.0551	0.0571	0.0576	0.0577	0.0578
45.00	0.0462	0.0560	0.0581	0.0586	0.0587	0.0588
46.00	0.0461	0.0569	0.0591	0.0596	0.0597	0.0598
47.00	0.0460	0.0579	0.0601	0.0606	0.0607	0.0608
48.00	0.0460	0.0588	0.0611	0.0616	0.0617	0.0618
49.00	0.0462	0.0598	0.0622	0.0626	0.0627	0.0628
50.00	0.0464	0.0607	0.0632	0.0637	0.0638	0.0639
51.00	0.0467	0.0617	0.0643	0.0648	0.0648	0.0649
52.00	0.0471	0.0627	0.0654	0.0659	0.0659	0.0660
53.00	0.0475	0.0637	0.0665	0.0670	0.0670	0.0671
54.00	0.0479	0.0647	0.0677	0.0681	0.0681	0.0683
55.00	0.0482	0.0658	0.0688	0.0692	0.0692	0.0694
56.00	0.0486	0.0668	0.0700	0.0703	0.0704	0.0705
57.00	0.0490	0.0679	0.0712	0.0714	0.0715	0.0717
58.00	0.0493	0.0690	0.0724	0.0725	0.0727	0.0729
59.00	0.0496	0.0701	0.0736	0.0736	0.0739	0.0741
60.00	0.0499	0.0712	0.0749	0.0748	0.0751	0.0753
61.00	0.0501	0.0723	0.0761	0.0759	0.0763	0.0766
62.00	0.0504	0.0734	0.0774	0.0771	0.0775	0.0779
63.00	0.0506	0.0746	0.0787	0.0783	0.0788	0.0791
64.00	0.0508	0.0758	0.0800	0.0795	0.0800	0.0804
65.00	0.0510	0.0770	0.0811	0.0807	0.0812	0.0817
66.00	0.0511	0.0782	0.0822	0.0820	0.0825	0.0829
67.00	0.0512	0.0794	0.0833	0.0835	0.0840	0.0843
68.00	0.0513	0.0807	0.0846	0.0850	0.0856	0.0858
69.00	0.0514	0.0820	0.0858	0.0867	0.0875	0.0875
70.00	0.0514	0.0832	0.0871	0.0884	0.0895	0.0896
71.00	0.0514	0.0845	0.0882	0.0898	0.0915	0.0920
72.00	0.0514	0.0859	0.0886	0.0903	0.0927	0.0941
73.00	0.0513	0.0872	0.0876	0.0890	0.0917	0.0942
74.00	0.0512	0.0885	0.0844	0.0848	0.0869	0.0898
75.00	0.0510	0.0898	0.0779	0.0762	0.0760	0.0778
76.00	0.0507	0.0897	0.0672	0.0622	0.0580	0.0563
77.00	0.0504	0.0869	0.0516	0.0429	0.0337	0.0273
78.00	0.0500	0.0803	0.0322	0.0204	0.0090	0.0012
79.00	0.0496	0.0694	0.0120	0.0016	0.0000	0.0000
80.00	0.0491	0.0539	0.0000	0.0000	0.0000	0.0000
81.00	0.0485	0.0347	0.0006	0.0030	0.0036	0.0037
82.00	0.0478	0.0144	0.0095	0.0095	0.0095	0.0095
83.00	0.0471	0.0000	0.0095	0.0095	0.0095	0.0095
84.00	0.0462	0.0095	0.0095	0.0095	0.0095	0.0095
85.00	0.0453	0.0095	0.0095	0.0095	0.0095	0.0095
86.00	0.0443	0.0095	0.0095	0.0095	0.0095	0.0095
87.00	0.0432	0.0095	0.0095	0.0095	0.0095	0.0095
88.00	0.0421	0.0095	0.0095	0.0095	0.0095	0.0095
89.00	0.0410	0.0095	0.0095	0.0095	0.0095	0.0095
90.00	0.0398	0.0095	0.0095	0.0095	0.0095	0.0095
91.00	0.0386	0.0095	0.0095	0.0095	0.0095	0.0095
92.00	0.0374	0.0095	0.0095	0.0095	0.0095	0.0095
93.00	0.0362	0.0095	0.0095	0.0095	0.0095	0.0095
94.00	0.0349	0.0096	0.0095	0.0095	0.0095	0.0095
95.00	0.0335	0.0099	0.0095	0.0095	0.0095	0.0095
96.00	0.0321	0.0099	0.0095	0.0095	0.0095	0.0095
97.00	0.0307	0.0099	0.0095	0.0095	0.0095	0.0095
98.00	0.0293	0.0099	0.0096	0.0095	0.0095	0.0095
99.00	0.0279	0.0099	0.0099	0.0095	0.0095	0.0095
100.00	0.0265	0.0099	0.0099	0.0095	0.0095	0.0095
101.00	0.0250	0.0099	0.0099	0.0095	0.0095	0.0095
102.00	0.0237	0.0099	0.0099	0.0096	0.0095	0.0095
103.00	0.0223	0.0099	0.0099	0.0100	0.0096	0.0095
104.00	0.0210	0.0099	0.0099	0.0099	0.0100	0.0098
105.00	0.0197	0.0099	0.0099	0.0099	0.0099	0.0100
106.00	0.0186	0.0099	0.0099	0.0099	0.0099	0.0099
107.00	0.0175	0.0099	0.0099	0.0099	0.0099	0.0099
108.00	0.0165	0.0099	0.0099	0.0099	0.0099	0.0099
109.00	0.0155	0.0099	0.0099	0.0099	0.0099	0.0099
110.00	0.0147	0.0099	0.0099	0.0099	0.0099	0.0099
111.00	0.0139	0.0099	0.0099	0.0099	0.0099	0.0099
112.00	0.0132	0.0099	0.0099	0.0099	0.0099	0.0099
113.00	0.0126	0.0099	0.0099	0.0099	0.0099	0.0099
114.00	0.0121	0.0099	0.0099	0.0099	0.0099	0.0099
115.00	0.0117	0.0099	0.0099	0.0099	0.0099	0.0099
116.00	0.0113	0.0099	0.0099	0.0099	0.0099	0.0099
117.00	0.0110	0.0099	0.0099	0.0099	0.0099	0.0099
118.00	0.0107	0.0099	0.0099	0.0099	0.0099	0.0099
119.00	0.0105	0.0099	0.0099	0.0099	0.0099	0.0099
120.00	0.0103	0.0099	0.0099	0.0099	0.0099	0.0099
121.00	0.0102	0.0099	0.0099	0.0099	0.0099	0.0099
122.00	0.0100	0.0099	0.0099	0.0099	0.0099	0.0099
123.00	0.0099	0.0099	0.0099	0.0099	0.0099	0.0099
124.00	0.0098	0.0099	0.0099	0.0099	0.0099	0.0099
125.00	0.0098	0.0099	0.0099	0.0099	0.0099	0.0099
126.00	0.0097	0.0099	0.0099	0.0099	0.0099	0.0099
127.00	0.0096	0.0099	0.0099	0.0099	0.0099	0.0099
128.00	0.0096	0.0099	0.0099	0.0099	0.0099	0.0099
129.00	0.0095	0.0099	0.0099	0.0099	0.0099	0.0099
130.00	0.0095	0.0099	0.0099	0.0099	0.0099	0.0099
131.00	0.0095	0.0099	0.0099	0.0099	0.0099	0.0099
132.00	0.0094	0.0099	0.0099	0.0099	0.0099	0.0099
133.00	0.0094	0.0099	0.0099	0.0099	0.0099	0.0099
134.00	0.0094	0.0099	0.0099	0.0099	0.0099	0.0099
135.00	0.0094	0.0099	0.0099	0.0099	0.0099	0.0099
136.00	0.0094	0.0099	0.0099	0.0099	0.0099	0.0099
137.00	0.0093	0.0099	0.0099	0.0099	0.0099	0.0099
138.00	0.0093	0.0099	0.0099	0.0099	0.0099	0.0099
139.00	0.0093	0.0099	0.0099	0.0099	0.0099	0.0099
140.00	0.0093	0.0099	0.0099	0.0099	0.0099	0.0099
141.00	0.0093	0.0098	0.0098	0.0098	0.0098	0.0098
142.00	0.0093	0.0097	0.0097	0.0097	0.0097	0.0097
143.00	0.0093	0.0097	0.0097	0.0097	0.0097	0.0097
144.00	0.0093	0.0097	0.0097	0.0097	0.0097	0.0097
145.00	0.0092	0.0097	0.0097	0.0097	0.0097	0.0097
146.00	0.0092	0.0097	0.0097	0.0097	0.0097	0.0097
147.00	0.0092	0.0097	0.0097	0.0097	0.0097	0.0097
148.00	0.0092	0.0095	0.0095	0.0095	0.0095	0.0095
149.00	0.0093	0.0098	0.0098	0.0098	0.0098	0.0098
