 0.00	150.0000	150.0000	150.0000	150.0000	150.0000
 1.00	150.0297	150.0297	150.0297	150.0297	150.0297
 2.00	150.0589	150.0592	150.0595	150.0588	150.0589
 3.00	150.0876	150.0891	150.0894	150.0882	150.0878
 4.00	150.1163	150.1188	150.1197	150.1178	150.1162
 5.00	150.1448	150.1482	150.1507	150.1477	150.1444
 6.00	150.1734	150.1775	150.1823	150.1779	150.1726
 7.00	150.2025	150.2069	150.2147	150.2083	150.2008
 8.00	150.2325	150.2368	150.2473	150.2392	150.2291
 9.00	150.2633	150.2669	150.2797	150.2702	150.2572
10.00	150.2943	150.2975	150.3120	150.3016	150.2864
11.00	150.3251	150.3291	150.3447	150.3340	150.3162
12.00	150.3565	150.3614	150.3776	150.3676	150.3468
13.00	150.3880	150.3945	150.4109	150.4020	150.3777
14.00	150.4193	150.4286	150.4440	150.4369	150.4092
15.00	150.4511	150.4637	150.4771	150.4727	150.4415
16.00	150.4834	150.5001	150.5103	150.5095	150.4745
17.00	150.5168	150.5380	150.5440	150.5467	150.5086
18.00	150.5517	150.5761	150.5786	150.5848	150.5440
19.00	150.5871	150.6135	150.6138	150.6231	150.5798
20.00	150.6230	150.6507	150.6504	150.6620	150.6161
21.00	150.6588	150.6888	150.6888	150.7008	150.6528
22.00	150.6949	150.7282	150.7291	150.7400	150.6898
23.00	150.7327	150.7688	150.7708	150.7793	150.7273
24.00	150.7714	150.8097	150.8128	150.8195	150.7661
25.00	150.8104	150.8523	150.8544	150.8610	150.8059
26.00	150.8497	150.8970	150.8971	150.9042	150.8476
27.00	150.8894	150.9435	150.9407	150.9484	150.8904
28.00	150.9297	150.9904	150.9850	150.9930	150.9339
29.00	150.9712	151.0370	151.0300	151.0378	150.9776
30.00	151.0137	151.0831	151.0753	151.0831	151.0209
31.00	151.0581	151.1291	151.1208	151.1286	151.0631
32.00	151.1037	151.1753	151.1672	151.1743	151.1051
33.00	151.1518	151.2225	151.2145	151.2202	151.1478
34.00	151.2020	151.2699	151.2644	151.2665	151.1907
35.00	151.2548	151.3187	151.3139	151.3122	151.2348
36.00	151.3101	151.3681	151.3644	151.3593	151.2822
37.00	151.3650	151.4192	151.4168	151.4073	151.3330
38.00	151.4189	151.4717	151.4707	151.4573	151.3850
39.00	151.4728	151.5249	151.5262	151.5101	151.4378
40.00	151.5251	151.5778	151.5825	151.5643	151.4902
41.00	151.5790	151.6325	151.6394	151.6197	151.5440
42.00	151.6343	151.6868	151.6948	151.6759	151.5986
43.00	151.6910	151.7405	151.7481	151.7322	151.6539
44.00	151.7479	151.7949	151.8031	151.7881	151.7121
45.00	151.8042	151.8506	151.8589	151.8448	151.7715
46.00	151.8621	151.9081	151.9168	151.9021	151.8322
47.00	151.9215	151.9678	151.9765	151.9607	151.8958
48.00	151.9823	152.0290	152.0375	152.0193	151.9605
49.00	152.0438	152.0913	152.0973	152.0775	152.0269
50.00	152.1053	152.1532	152.1578	152.1376	152.0955
51.00	152.1666	152.2144	152.2169	152.1993	152.1658
52.00	152.2298	152.2757	152.2776	152.2624	152.2380
53.00	152.2940	152.3390	152.3397	152.3269	152.3117
54.00	152.3590	152.4028	152.4031	152.3911	152.3881
55.00	152.4270	152.4681	152.4684	152.4575	152.4635
56.00	152.4992	152.5359	152.5348	152.5267	152.5387
57.00	152.5731	152.6031	152.6022	152.5998	152.6128
58.00	152.6443	152.6693	152.6729	152.6718	152.6852
59.00	152.7158	152.7366	152.7481	152.7429	152.7572
60.00	152.7879	152.8056	152.8208	152.8148	152.8297
61.00	152.8627	152.8767	152.8953	152.8874	152.9035
62.00	152.9380	152.9517	152.9747	152.9611	152.9811
63.00	153.0156	153.0304	153.0558	153.0358	153.0606
64.00	153.0947	153.1111	153.1346	153.1119	153.1388
65.00	153.1738	153.1944	153.2122	153.1885	153.2147
66.00	153.2512	153.2764	153.2922	153.2666	153.2925
67.00	153.3259	153.3601	153.3748	153.3426	153.3741
68.00	153.4018	153.4468	153.4596	153.4213	153.4580
69.00	153.4830	153.5371	153.5417	153.5059	153.5429
70.00	153.5704	153.6304	153.6265	153.5967	153.6296
71.00	153.6627	153.7249	153.7114	153.6935	153.7199
72.00	153.7545	153.8201	153.7969	153.7922	153.8083
73.00	153.8468	153.9111	153.8839	153.8897	153.8988
74.00	153.9352	153.9986	153.9724	153.9842	153.9912
75.00	154.0194	154.0828	154.0581	154.0706	154.0822
76.00	154.0910	154.1556	154.1355	154.1448	154.1667
77.00	154.1481	154.2078	154.2011	154.2009	154.2353
78.00	154.1890	154.2399	154.2467	154.2315	154.2813
79.00	154.2102	154.2567	154.2702	154.2348	154.3067
80.00	154.2109	154.2583	154.2733	154.2350	154.3067
81.00	154.2109	154.2583	154.2733	154.2350	154.3067
82.00	154.2224	154.2699	154.2850	154.2465	154.3183
83.00	154.2323	154.2806	154.2956	154.2576	154.3294
84.00	154.2418	154.2910	154.3059	154.2682	154.3397
85.00	154.2513	154.3006	154.3161	154.2785	154.3495
86.00	154.2609	154.3102	154.3258	154.2882	154.3593
87.00	154.2700	154.3197	154.3355	154.2976	154.3689
88.00	154.2795	154.3296	154.3451	154.3071	154.3785
89.00	154.2890	154.3399	154.3543	154.3166	154.3880
90.00	154.2982	154.3502	154.3637	154.3261	154.3968
91.00	154.3076	154.3604	154.3723	154.3356	154.4058
92.00	154.3166	154.3703	154.3818	154.3451	154.4143
93.00	154.3255	154.3806	154.3914	154.3546	154.4224
94.00	154.3352	154.3908	154.4010	154.3646	154.4317
95.00	154.3448	154.4003	154.4101	154.3746	154.4408
96.00	154.3545	154.4099	154.4194	154.3842	154.4497
97.00	154.3633	154.4195	154.4277	154.3944	154.4585
98.00	154.3725	154.4292	154.4364	154.4046	154.4676
99.00	154.3820	154.4387	154.4452	154.4148	154.4770
100.00	154.3908	154.4483	154.4537	154.4249	154.4853
101.00	154.4003	154.4583	154.4621	154.4349	154.4946
102.00	154.4098	154.4681	154.4709	154.4445	154.5040
103.00	154.4199	154.4776	154.4793	154.4543	154.5136
104.00	154.4300	154.4870	154.4887	154.4639	154.5228
105.00	154.4400	154.4959	154.4987	154.4734	154.5320
106.00	154.4499	154.5050	154.5082	154.4828	154.5404
107.00	154.4600	154.5146	154.5177	154.4916	154.5488
108.00	154.4701	154.5241	154.5272	154.5011	154.5583
109.00	154.4802	154.5339	154.5360	154.5110	154.5680
110.00	154.4899	154.5437	154.5448	154.5211	154.5777
111.00	154.4994	154.5535	154.5543	154.5311	154.5865
112.00	154.5088	154.5621	154.5644	154.5413	154.5961
113.00	154.5177	154.5716	154.5744	154.5513	154.6056
114.00	154.5269	154.5812	154.5845	154.5610	154.6151
115.00	154.5365	154.5908	154.5941	154.5703	154.6249
116.00	154.5458	154.5996	154.6037	154.5798	154.6341
117.00	154.5554	154.6083	154.6134	154.5891	154.6432
118.00	154.5648	154.6171	154.6229	154.5986	154.6524
119.00	154.5746	154.6263	154.6320	154.6082	154.6619
120.00	154.5833	154.6351	154.6406	154.6174	154.6715
121.00	154.5923	154.6444	154.6497	154.6263	154.6802
122.00	154.6008	154.6533	154.6591	154.6357	154.6888
123.00	154.6103	154.6632	154.6684	154.6454	154.6975
124.00	154.6185	154.6732	154.6770	154.6546	154.7058
125.00	154.6280	154.6828	154.6857	154.6641	154.7146
126.00	154.6376	154.6923	154.6941	154.6734	154.7234
127.00	154.6472	154.7020	154.7031	154.6829	154.7322
128.00	154.6559	154.7117	154.7127	154.6925	154.7413
129.00	154.6648	154.7209	154.7227	154.7014	154.7509
130.00	154.6735	154.7304	154.7328	154.7109	154.7604
131.00	154.6833	154.7393	154.7425	154.7206	154.7698
132.00	154.6932	154.7475	154.7520	154.7301	154.7794
133.00	154.7029	154.7566	154.7617	154.7398	154.7882
134.00	154.7119	154.7658	154.7712	154.7493	154.7976
135.00	154.7207	154.7750	154.7809	154.7581	154.8071
136.00	154.7297	154.7846	154.7900	154.7667	154.8166
137.00	154.7388	154.7941	154.7995	154.7756	154.8260
138.00	154.7484	154.8036	154.8085	154.7850	154.8360
139.00	154.7583	154.8132	154.8180	154.7946	154.8460
140.00	154.7678	154.8228	154.8275	154.8042	154.8558
141.00	154.7772	154.8323	154.8361	154.8134	154.8657
142.00	154.7868	154.8412	154.8447	154.8227	154.8755
143.00	154.7963	154.8500	154.8533	154.8313	154.8848
144.00	154.8060	154.8595	154.8625	154.8396	154.8946
145.00	154.8160	154.8679	154.8720	154.8479	154.9040
146.00	154.8260	154.8768	154.8812	154.8570	154.9141
147.00	154.8356	154.8854	154.8908	154.8662	154.9234
148.00	154.8453	154.8950	154.9003	154.8749	154.9337
149.00	154.8547	154.9045	154.9086	154.8840	154.9435
150.00	154.8641	154.9139	154.9175	154.8929	154.9529
