 0.00	150.0000	150.0000	150.0000	150.0000	150.0000	150.0000	150.0000	150.0000	150.0000	150.0000
 1.00	150.0299	150.0299	150.0299	150.0299	150.0299	150.0299	150.0299	150.0299	150.0299	150.0299
 2.00	150.0598	150.0595	150.0596	150.0596	150.0595	150.0598	150.0593	150.0597	150.0601	150.0598
 3.00	150.0899	150.0892	150.0890	150.0890	150.0887	150.0896	150.0885	150.0895	150.0906	150.0893
 4.00	150.1198	150.1189	150.1182	150.1182	150.1174	150.1194	150.1180	150.1195	150.1208	150.1190
 5.00	150.1497	150.1484	150.1474	150.1470	150.1458	150.1494	150.1477	150.1497	150.1508	150.1490
 6.00	150.1799	150.1777	150.1770	150.1764	150.1748	150.1797	150.1776	150.1805	150.1805	150.1792
 7.00	150.2109	150.2077	150.2068	150.2062	150.2039	150.2107	150.2075	150.2121	150.2102	150.2100
 8.00	150.2430	150.2380	150.2370	150.2362	150.2340	150.2421	150.2372	150.2443	150.2403	150.2416
 9.00	150.2760	150.2691	150.2676	150.2670	150.2655	150.2740	150.2675	150.2773	150.2706	150.2740
10.00	150.3090	150.3007	150.2990	150.2984	150.2978	150.3066	150.2982	150.3102	150.3010	150.3072
11.00	150.3419	150.3329	150.3310	150.3299	150.3309	150.3402	150.3292	150.3432	150.3320	150.3417
12.00	150.3746	150.3658	150.3635	150.3622	150.3646	150.3752	150.3607	150.3764	150.3632	150.3775
13.00	150.4072	150.3995	150.3960	150.3952	150.3987	150.4104	150.3933	150.4102	150.3950	150.4137
14.00	150.4400	150.4335	150.4285	150.4293	150.4339	150.4462	150.4275	150.4446	150.4276	150.4494
15.00	150.4732	150.4681	150.4617	150.4641	150.4703	150.4817	150.4633	150.4792	150.4611	150.4852
16.00	150.5069	150.5038	150.4951	150.4997	150.5079	150.5174	150.4997	150.5146	150.4956	150.5209
17.00	150.5410	150.5412	150.5294	150.5365	150.5453	150.5527	150.5369	150.5516	150.5308	150.5561
18.00	150.5759	150.5796	150.5650	150.5732	150.5835	150.5882	150.5741	150.5893	150.5674	150.5913
19.00	150.6111	150.6178	150.6028	150.6099	150.6229	150.6249	150.6120	150.6275	150.6047	150.6271
20.00	150.6480	150.6564	150.6423	150.6464	150.6629	150.6625	150.6503	150.6663	150.6433	150.6636
21.00	150.6852	150.6950	150.6832	150.6829	150.7034	150.7008	150.6895	150.7048	150.6828	150.7008
22.00	150.7233	150.7342	150.7248	150.7197	150.7449	150.7392	150.7289	150.7435	150.7233	150.7395
23.00	150.7633	150.7746	150.7669	150.7573	150.7868	150.7784	150.7686	150.7819	150.7645	150.7793
24.00	150.8053	150.8160	150.8100	150.7962	150.8286	150.8180	150.8078	150.8206	150.8066	150.8207
25.00	150.8485	150.8583	150.8537	150.8365	150.8699	150.8585	150.8480	150.8591	150.8483	150.8635
26.00	150.8918	150.9000	150.8985	150.8779	150.9116	150.8988	150.8883	150.8979	150.8910	150.9073
27.00	150.9355	150.9422	150.9431	150.9196	150.9539	150.9389	150.9295	150.9372	150.9351	150.9510
28.00	150.9791	150.9848	150.9885	150.9626	150.9972	150.9791	150.9725	150.9789	150.9798	150.9945
29.00	151.0237	151.0280	151.0339	151.0066	151.0411	151.0208	151.0158	151.0223	151.0255	151.0381
30.00	151.0686	151.0718	151.0791	151.0508	151.0853	151.0651	151.0594	151.0674	151.0726	151.0813
31.00	151.1145	151.1162	151.1259	151.0959	151.1288	151.1121	151.1039	151.1133	151.1213	151.1238
32.00	151.1624	151.1620	151.1746	151.1418	151.1735	151.1605	151.1491	151.1600	151.1694	151.1667
33.00	151.2106	151.2098	151.2259	151.1881	151.2200	151.2108	151.1956	151.2081	151.2177	151.2111
34.00	151.2588	151.2584	151.2775	151.2358	151.2681	151.2610	151.2439	151.2570	151.2670	151.2560
35.00	151.3059	151.3092	151.3306	151.2844	151.3158	151.3101	151.2951	151.3056	151.3166	151.3020
36.00	151.3514	151.3605	151.3838	151.3358	151.3641	151.3593	151.3487	151.3564	151.3685	151.3485
37.00	151.3971	151.4123	151.4370	151.3888	151.4122	151.4091	151.4037	151.4097	151.4232	151.3967
38.00	151.4428	151.4637	151.4893	151.4424	151.4616	151.4618	151.4579	151.4633	151.4794	151.4478
39.00	151.4900	151.5136	151.5417	151.4985	151.5133	151.5167	151.5118	151.5193	151.5370	151.5020
40.00	151.5381	151.5636	151.5966	151.5543	151.5645	151.5727	151.5652	151.5773	151.5942	151.5577
41.00	151.5896	151.6163	151.6537	151.6088	151.6147	151.6299	151.6192	151.6367	151.6503	151.6142
42.00	151.6450	151.6701	151.7111	151.6622	151.6650	151.6872	151.6728	151.6945	151.7047	151.6715
43.00	151.7019	151.7247	151.7686	151.7149	151.7167	151.7428	151.7261	151.7513	151.7587	151.7284
44.00	151.7602	151.7805	151.8249	151.7686	151.7707	151.7980	151.7814	151.8101	151.8131	151.7856
45.00	151.8197	151.8372	151.8805	151.8250	151.8259	151.8545	151.8401	151.8707	151.8685	151.8426
46.00	151.8797	151.8957	151.9380	151.8840	151.8817	151.9106	151.9002	151.9333	151.9240	151.8984
47.00	151.9426	151.9548	151.9951	151.9442	151.9411	151.9693	151.9617	151.9975	151.9808	151.9535
48.00	152.0072	152.0153	152.0521	152.0035	152.0049	152.0296	152.0257	152.0648	152.0398	152.0118
49.00	152.0748	152.0755	152.1128	152.0648	152.0715	152.0891	152.0904	152.1313	152.1003	152.0702
50.00	152.1423	152.1370	152.1754	152.1269	152.1375	152.1491	152.1549	152.1959	152.1630	152.1283
51.00	152.2093	152.1987	152.2395	152.1923	152.2028	152.2082	152.2174	152.2589	152.2293	152.1873
52.00	152.2783	152.2602	152.3075	152.2584	152.2650	152.2693	152.2795	152.3205	152.2979	152.2510
53.00	152.3484	152.3253	152.3793	152.3253	152.3284	152.3325	152.3427	152.3816	152.3686	152.3148
54.00	152.4191	152.3933	152.4547	152.3957	152.3931	152.3959	152.4071	152.4459	152.4393	152.3803
55.00	152.4891	152.4601	152.5301	152.4658	152.4604	152.4620	152.4704	152.5133	152.5085	152.4479
56.00	152.5605	152.5276	152.6059	152.5378	152.5320	152.5288	152.5347	152.5861	152.5777	152.5172
57.00	152.6354	152.5974	152.6834	152.6130	152.6035	152.5991	152.6019	152.6653	152.6471	152.5877
58.00	152.7115	152.6683	152.7604	152.6904	152.6749	152.6718	152.6685	152.7502	152.7185	152.6564
59.00	152.7866	152.7384	152.8338	152.7690	152.7480	152.7438	152.7331	152.8374	152.7916	152.7236
60.00	152.8607	152.8080	152.9055	152.8470	152.8243	152.8153	152.7971	152.9253	152.8669	152.7922
61.00	152.9326	152.8788	152.9767	152.9234	152.9028	152.8878	152.8626	153.0108	152.9417	152.8611
62.00	153.0061	152.9505	153.0505	152.9956	152.9854	152.9613	152.9308	153.0940	153.0156	152.9327
63.00	153.0832	153.0230	153.1283	153.0638	153.0679	153.0394	153.0015	153.1748	153.0924	153.0102
64.00	153.1640	153.0979	153.2120	153.1316	153.1515	153.1213	153.0757	153.2557	153.1742	153.0919
65.00	153.2447	153.1733	153.2966	153.2035	153.2335	153.2089	153.1537	153.3363	153.2580	153.1765
66.00	153.3248	153.2508	153.3813	153.2766	153.3162	153.2954	153.2361	153.4168	153.3410	153.2622
67.00	153.4032	153.3275	153.4661	153.3532	153.4001	153.3854	153.3184	153.5008	153.4219	153.3482
68.00	153.4815	153.4045	153.5489	153.4351	153.4885	153.4757	153.3983	153.5897	153.5018	153.4331
69.00	153.5612	153.4862	153.6285	153.5201	153.5827	153.5684	153.4759	153.6847	153.5808	153.5191
70.00	153.6440	153.5734	153.7077	153.6116	153.6807	153.6610	153.5576	153.7835	153.6637	153.6033
71.00	153.7297	153.6663	153.7905	153.7097	153.7803	153.7526	153.6463	153.8820	153.7519	153.6895
72.00	153.8141	153.7612	153.8759	153.8114	153.8824	153.8424	153.7408	153.9767	153.8407	153.7764
73.00	153.8956	153.8593	153.9619	153.9141	153.9839	153.9322	153.8365	154.0696	153.9301	153.8614
74.00	153.9766	153.9554	154.0468	154.0113	154.0849	154.0175	153.9331	154.1613	154.0199	153.9444
75.00	154.0566	154.0403	154.1259	154.1003	154.1819	154.0955	154.0288	154.2511	154.1042	154.0205
76.00	154.1295	154.1104	154.1921	154.1739	154.2707	154.1661	154.1173	154.3276	154.1751	154.0902
77.00	154.1871	154.1587	154.2410	154.2291	154.3370	154.2238	154.1868	154.3880	154.2258	154.1453
78.00	154.2278	154.1853	154.2744	154.2592	154.3782	154.2567	154.2349	154.4247	154.2509	154.1853
79.00	154.2405	154.1925	154.2895	154.2639	154.3919	154.2687	154.2537	154.4394	154.2561	154.2062
80.00	154.2414	154.1945	154.2954	154.2643	154.3952	154.2701	154.2573	154.4436	154.2574	154.2112
81.00	154.2414	154.1945	154.2954	154.2643	154.3952	154.2701	154.2573	154.4436	154.2574	154.2112
82.00	154.2514	154.2043	154.3055	154.2744	154.4052	154.2803	154.2680	154.4540	154.2674	154.2218
83.00	154.2608	154.2128	154.3146	154.2842	154.4141	154.2899	154.2778	154.4631	154.2770	154.2315
84.00	154.2700	154.2215	154.3239	154.2937	154.4231	154.2990	154.2868	154.4718	154.2867	154.2412
85.00	154.2794	154.2299	154.3333	154.3025	154.4325	154.3076	154.2964	154.4811	154.2962	154.2508
86.00	154.2883	154.2385	154.3427	154.3114	154.4418	154.3158	154.3059	154.4904	154.3057	154.2600
87.00	154.2979	154.2469	154.3521	154.3204	154.4508	154.3237	154.3147	154.4996	154.3152	154.2687
88.00	154.3070	154.2551	154.3610	154.3295	154.4596	154.3328	154.3245	154.5089	154.3243	154.2767
89.00	154.3157	154.2637	154.3700	154.3385	154.4683	154.3421	154.3342	154.5174	154.3336	154.2852
90.00	154.3250	154.2724	154.3790	154.3479	154.4780	154.3509	154.3434	154.5268	154.3427	154.2944
91.00	154.3332	154.2817	154.3880	154.3576	154.4867	154.3594	154.3530	154.5361	154.3518	154.3042
92.00	154.3421	154.2914	154.3969	154.3674	154.4963	154.3679	154.3624	154.5455	154.3609	154.3138
93.00	154.3503	154.3009	154.4064	154.3770	154.5059	154.3765	154.3714	154.5548	154.3701	154.3236
94.00	154.3589	154.3097	154.4161	154.3868	154.5156	154.3862	154.3814	154.5642	154.3797	154.3340
95.00	154.3683	154.3193	154.4252	154.3961	154.5252	154.3955	154.3913	154.5736	154.3888	154.3445
96.00	154.3779	154.3288	154.4342	154.4058	154.5346	154.4051	154.4010	154.5820	154.3982	154.3551
97.00	154.3872	154.3385	154.4430	154.4155	154.5443	154.4148	154.4106	154.5906	154.4070	154.3657
98.00	154.3964	154.3481	154.4524	154.4241	154.5537	154.4241	154.4203	154.5991	154.4157	154.3756
99.00	154.4051	154.3577	154.4619	154.4336	154.5633	154.4338	154.4291	154.6076	154.4254	154.3856
100.00	154.4137	154.3673	154.4710	154.4427	154.5731	154.4433	154.4382	154.6173	154.4351	154.3954
101.00	154.4235	154.3770	154.4802	154.4528	154.5824	154.4525	154.4479	154.6269	154.4446	154.4054
102.00	154.4334	154.3866	154.4896	154.4626	154.5916	154.4621	154.4576	154.6359	154.4543	154.4154
103.00	154.4434	154.3957	154.4991	154.4722	154.6008	154.4716	154.4670	154.6455	154.4639	154.4253
104.00	154.4533	154.4051	154.5087	154.4819	154.6105	154.4808	154.4762	154.6541	154.4735	154.4349
105.00	154.4631	154.4147	154.5180	154.4915	154.6195	154.4906	154.4851	154.6628	154.4833	154.4444
106.00	154.4727	154.4242	154.5272	154.5007	154.6292	154.5002	154.4946	154.6714	154.4929	154.4536
107.00	154.4823	154.4339	154.5368	154.5104	154.6386	154.5098	154.5040	154.6808	154.5025	154.4634
108.00	154.4920	154.4436	154.5467	154.5197	154.6480	154.5192	154.5129	154.6905	154.5121	154.4731
109.00	154.5012	154.4531	154.5564	154.5295	154.6576	154.5283	154.5224	154.7003	154.5210	154.4832
110.00	154.5109	154.4623	154.5660	154.5389	154.6669	154.5379	154.5319	154.7100	154.5307	154.4936
111.00	154.5205	154.4716	154.5757	154.5485	154.6751	154.5473	154.5407	154.7196	154.5403	154.5043
112.00	154.5300	154.4808	154.5851	154.5580	154.6835	154.5571	154.5499	154.7289	154.5498	154.5148
113.00	154.5397	154.4893	154.5946	154.5676	154.6917	154.5669	154.5592	154.7380	154.5584	154.5248
114.00	154.5493	154.4985	154.6042	154.5776	154.7002	154.5768	154.5689	154.7462	154.5675	154.5344
115.00	154.5586	154.5080	154.6137	154.5875	154.7087	154.5862	154.5778	154.7538	154.5773	154.5436
116.00	154.5673	154.5174	154.6233	154.5977	154.7178	154.5954	154.5870	154.7617	154.5867	154.5522
117.00	154.5765	154.5270	154.6329	154.6081	154.7264	154.6045	154.5967	154.7698	154.5963	154.5613
118.00	154.5862	154.5369	154.6425	154.6190	154.7348	154.6140	154.6063	154.7782	154.6053	154.5704
119.00	154.5958	154.5470	154.6521	154.6289	154.7439	154.6237	154.6161	154.7875	154.6149	154.5797
120.00	154.6054	154.5573	154.6608	154.6386	154.7535	154.6336	154.6263	154.7968	154.6246	154.5891
121.00	154.6150	154.5677	154.6704	154.6484	154.7623	154.6434	154.6362	154.8057	154.6343	154.5982
122.00	154.6247	154.5785	154.6801	154.6575	154.7717	154.6533	154.6459	154.8145	154.6434	154.6069
123.00	154.6348	154.5885	154.6892	154.6665	154.7813	154.6632	154.6556	154.8242	154.6531	154.6165
124.00	154.6446	154.5982	154.6976	154.6755	154.7911	154.6729	154.6646	154.8332	154.6624	154.6252
125.00	154.6542	154.6079	154.7070	154.6848	154.8008	154.6824	154.6734	154.8425	154.6708	154.6349
126.00	154.6635	154.6173	154.7166	154.6941	154.8101	154.6921	154.6829	154.8509	154.6800	154.6444
127.00	154.6732	154.6257	154.7263	154.7038	154.8189	154.7017	154.6920	154.8598	154.6896	154.6529
128.00	154.6822	154.6349	154.7360	154.7131	154.8274	154.7115	154.7019	154.8685	154.6995	154.6616
129.00	154.6907	154.6442	154.7457	154.7228	154.8366	154.7210	154.7116	154.8782	154.7092	154.6704
130.00	154.6997	154.6539	154.7556	154.7325	154.8463	154.7300	154.7214	154.8875	154.7189	154.6788
131.00	154.7091	154.6637	154.7652	154.7420	154.8558	154.7387	154.7306	154.8972	154.7286	154.6872
132.00	154.7182	154.6727	154.7742	154.7513	154.8658	154.7476	154.7402	154.9060	154.7382	154.6957
133.00	154.7271	154.6823	154.7838	154.7598	154.8760	154.7570	154.7499	154.9150	154.7480	154.7042
134.00	154.7369	154.6921	154.7934	154.7684	154.8861	154.7664	154.7598	154.9237	154.7577	154.7128
135.00	154.7469	154.7018	154.8030	154.7775	154.8965	154.7762	154.7694	154.9315	154.7680	154.7219
136.00	154.7568	154.7118	154.8127	154.7860	154.9072	154.7850	154.7785	154.9407	154.7780	154.7315
137.00	154.7666	154.7217	154.8224	154.7951	154.9173	154.7948	154.7877	154.9493	154.7881	154.7399
138.00	154.7763	154.7310	154.8313	154.8041	154.9276	154.8044	154.7968	154.9582	154.7983	154.7483
139.00	154.7859	154.7405	154.8401	154.8138	154.9383	154.8140	154.8061	154.9674	154.8092	154.7567
140.00	154.7957	154.7502	154.8489	154.8236	154.9487	154.8231	154.8156	154.9765	154.8191	154.7654
141.00	154.8054	154.7590	154.8586	154.8323	154.9589	154.8315	154.8254	154.9858	154.8291	154.7740
142.00	154.8148	154.7686	154.8682	154.8414	154.9688	154.8406	154.8353	154.9949	154.8390	154.7833
143.00	154.8246	154.7784	154.8780	154.8509	154.9785	154.8491	154.8447	155.0037	154.8486	154.7926
144.00	154.8343	154.7880	154.8877	154.8603	154.9883	154.8585	154.8539	155.0124	154.8585	154.8022
145.00	154.8440	154.7977	154.8966	154.8699	154.9982	154.8676	154.8637	155.0213	154.8692	154.8117
146.00	154.8527	154.8071	154.9056	154.8798	155.0078	154.8767	154.8732	155.0306	154.8798	154.8209
147.00	154.8624	154.8173	154.9147	154.8898	155.0170	154.8866	154.8826	155.0400	154.8900	154.8299
148.00	154.8728	154.8279	154.9253	154.8997	155.0275	154.8972	154.8920	155.0507	154.8995	154.8395
149.00	154.8826	154.8389	154.9362	154.9097	155.0378	154.9071	154.9019	155.0609	154.9090	154.8485
150.00	154.8951	154.8517	154.9492	154.9225	155.0491	154.9190	154.9142	155.0733	154.9186	154.8591
